Warning in <TInterpreter::ReadRootmapFile>: class  SG::GenericElementLinkBase<SG::IdentContIndexingPolicy<Muon::MuonPrepDataContainer<Muon::MuonPrepDataCollection<Muon::MdtPrepData> > > > found in MuonRIO_OnTrackDict.so  is already in iMuGirlStauDict.so 
Warning in <TInterpreter::ReadRootmapFile>: class  pair<unsigned int,double> found in CaloEventDict.so  is already in libPileupReweightingLib.so 
Warning in <TInterpreter::ReadRootmapFile>: class  L1CaloCoolChannelId found in TrigT1CaloCalibConditionsDict.so  is already in LArMonitoringDict.so 
Warning in <TInterpreter::ReadRootmapFile>: class  pair<unsigned int,unsigned int> found in AtlasSTLAddReflexDict.so  is already in libPileupReweightingLib.so 
Warning in <TInterpreter::ReadRootmapFile>: class  pair<int,float> found in libCore.so  is already in AtlasSTLAddReflexDict.so 
Warning in <TInterpreter::ReadRootmapFile>: class  pair<string,double> found in libCore.so  is already in AtlasSTLAddReflexDict.so 
Warning in <TInterpreter::ReadRootmapFile>: class  ROOT::Math::LorentzVector<ROOT::Math::PtEtaPhiM4D<double> > found in libGenVector.so  is already in xAODCoreAthenaDict.so 
Warning in <TInterpreter::ReadRootmapFile>: class  ROOT::Math::PtEtaPhiM4D<double> found in libGenVector.so  is already in xAODCoreAthenaDict.so 
Reading event veto info from db oracle://ATLAS_COOLPROD;schema=ATLAS_COOLOFL_LAR;dbname=CONDBR2, tag LARBadChannelsOflEventVeto-RUN2-UPD4-04  Run 302300 to 302300
Reading folder /LAR/BadChannelsOfl/EventVeto from DB oracle://ATLAS_COOLPROD;schema=ATLAS_COOLOFL_LAR;dbname=CONDBR2
Data source lookup using /cvmfs/atlas.cern.ch/repo/sw/software/x86_64-slc6-gcc49-opt/20.7.5/AtlasCore/20.7.5/InstallArea/XML/AtlasAuthentication/dblookup.xml file
Dumping EventVeto data from run 302300 to run 302300  lasting from Fri Jun 17 10:41:03 2016 UTC to Sat Jun 18 14:22:37 2016 UTC
Event Veto ['NoiseBurst'], Fri Jun 17 13:41:39 2016 UTC-Fri Jun 17 13:41:39 2016 UTC (0.010 )  Run 302300, LB 186 (1466170899281760256.000000,1466170899271759616.000000)
Event Veto ['NoiseBurst'], Fri Jun 17 13:42:04 2016 UTC-Fri Jun 17 13:42:04 2016 UTC (0.010 )  Run 302300, LB 186 (1466170924313046272.000000,1466170924303045376.000000)
Event Veto ['NoiseBurst'], Fri Jun 17 13:42:22 2016 UTC-Fri Jun 17 13:42:22 2016 UTC (0.010 )  Run 302300, LB 187 (1466170942468903168.000000,1466170942458902528.000000)
Event Veto ['NoiseBurst'], Fri Jun 17 13:42:49 2016 UTC-Fri Jun 17 13:42:49 2016 UTC (0.010 )  Run 302300, LB 187 (1466170969991269888.000000,1466170969981268992.000000)
Event Veto ['NoiseBurst'], Fri Jun 17 13:42:58 2016 UTC-Fri Jun 17 13:42:58 2016 UTC (0.010 )  Run 302300, LB 187 (1466170978637937920.000000,1466170978627937024.000000)
Event Veto ['NoiseBurst'], Fri Jun 17 13:43:10 2016 UTC-Fri Jun 17 13:43:10 2016 UTC (0.010 )  Run 302300, LB 187 (1466170990168222208.000000,1466170990158143488.000000)
Event Veto ['NoiseBurst'], Fri Jun 17 13:50:10 2016 UTC-Fri Jun 17 13:50:10 2016 UTC (0.010 )  Run 302300, LB 195 (1466171410572703232.000000,1466171410562691328.000000)
Event Veto ['NoiseBurst'], Fri Jun 17 13:53:37 2016 UTC-Fri Jun 17 13:53:37 2016 UTC (0.010 )  Run 302300, LB 198 (1466171617996363776.000000,1466171617986363136.000000)
Event Veto ['NoiseBurst'], Fri Jun 17 13:54:00 2016 UTC-Fri Jun 17 13:54:00 2016 UTC (0.010 )  Run 302300, LB 198 (1466171640016458496.000000,1466171640006457856.000000)
Event Veto ['NoiseBurst'], Fri Jun 17 13:54:09 2016 UTC-Fri Jun 17 13:54:09 2016 UTC (0.010 )  Run 302300, LB 199 (1466171649346097920.000000,1466171649336097792.000000)
Event Veto ['NoiseBurst'], Fri Jun 17 13:55:36 2016 UTC-Fri Jun 17 13:55:36 2016 UTC (0.010 )  Run 302300, LB 200 (1466171736134882816.000000,1466171736124600832.000000)
Event Veto ['NoiseBurst'], Fri Jun 17 13:56:37 2016 UTC-Fri Jun 17 13:56:37 2016 UTC (0.010 )  Run 302300, LB 201 (1466171797867103488.000000,1466171797857102848.000000)
Event Veto ['NoiseBurst'], Fri Jun 17 13:59:27 2016 UTC-Fri Jun 17 13:59:27 2016 UTC (0.010 )  Run 302300, LB 205 (1466171967917034240.000000,1466171967907033856.000000)
Event Veto ['NoiseBurst'], Fri Jun 17 13:59:58 2016 UTC-Fri Jun 17 13:59:58 2016 UTC (0.010 )  Run 302300, LB 205 (1466171998182234112.000000,1466171998172105472.000000)
Event Veto ['NoiseBurst'], Fri Jun 17 14:03:54 2016 UTC-Fri Jun 17 14:03:54 2016 UTC (0.010 )  Run 302300, LB 209 (1466172234263711232.000000,1466172234253710592.000000)
Event Veto ['NoiseBurst'], Fri Jun 17 14:07:42 2016 UTC-Fri Jun 17 14:07:42 2016 UTC (0.010 )  Run 302300, LB 213 (1466172462570757120.000000,1466172462560491008.000000)
Event Veto ['NoiseBurst'], Fri Jun 17 14:20:20 2016 UTC-Fri Jun 17 14:20:20 2016 UTC (0.017 )  Run 302300, LB 227 (1466173220538975232.000000,1466173220521588736.000000)
Event Veto ['NoiseBurst'], Fri Jun 17 14:24:40 2016 UTC-Fri Jun 17 14:24:40 2016 UTC (0.010 )  Run 302300, LB 232 (1466173480022711552.000000,1466173480012711168.000000)
Event Veto ['NoiseBurst'], Fri Jun 17 14:24:44 2016 UTC-Fri Jun 17 14:24:44 2016 UTC (0.010 )  Run 302300, LB 232 (1466173484952396032.000000,1466173484942395136.000000)
Event Veto ['NoiseBurst'], Fri Jun 17 14:24:50 2016 UTC-Fri Jun 17 14:24:50 2016 UTC (0.010 )  Run 302300, LB 232 (1466173490129013504.000000,1466173490119013120.000000)
Event Veto ['NoiseBurst'], Fri Jun 17 14:25:50 2016 UTC-Fri Jun 17 14:25:50 2016 UTC (0.010 )  Run 302300, LB 233 (1466173550854711552.000000,1466173550844710912.000000)
Event Veto ['NoiseBurst'], Fri Jun 17 14:26:31 2016 UTC-Fri Jun 17 14:26:31 2016 UTC (0.010 )  Run 302300, LB 233 (1466173591616562176.000000,1466173591606196736.000000)
Event Veto ['NoiseBurst'], Fri Jun 17 14:27:52 2016 UTC-Fri Jun 17 14:27:52 2016 UTC (0.010 )  Run 302300, LB 235 (1466173672274263552.000000,1466173672264262912.000000)
Event Veto ['NoiseBurst'], Fri Jun 17 14:28:01 2016 UTC-Fri Jun 17 14:28:01 2016 UTC (0.010 )  Run 302300, LB 235 (1466173681777299456.000000,1466173681767298560.000000)
Event Veto ['NoiseBurst'], Fri Jun 17 14:31:25 2016 UTC-Fri Jun 17 14:31:25 2016 UTC (0.010 )  Run 302300, LB 239 (1466173885875185664.000000,1466173885865185280.000000)
Event Veto ['NoiseBurst'], Fri Jun 17 14:36:15 2016 UTC-Fri Jun 17 14:36:16 2016 UTC (0.010 )  Run 302300, LB 244 (1466174176002660352.000000,1466174175992659712.000000)
Event Veto ['NoiseBurst'], Fri Jun 17 14:36:23 2016 UTC-Fri Jun 17 14:36:23 2016 UTC (0.010 )  Run 302300, LB 244 (1466174183168884480.000000,1466174183158578944.000000)
Event Veto ['MiniNoiseBurst'], Fri Jun 17 14:51:51 2016 UTC-Fri Jun 17 14:51:51 2016 UTC (0.010 )  Run 302300, LB 260 (1466175111511651840.000000,1466175111501651712.000000)
Event Veto ['NoiseBurst'], Fri Jun 17 14:57:39 2016 UTC-Fri Jun 17 14:57:39 2016 UTC (0.010 )  Run 302300, LB 266 (1466175459125289472.000000,1466175459115289344.000000)
Event Veto ['NoiseBurst'], Fri Jun 17 15:03:49 2016 UTC-Fri Jun 17 15:03:49 2016 UTC (0.010 )  Run 302300, LB 273 (1466175829212672000.000000,1466175829202488064.000000)
Event Veto ['NoiseBurst'], Fri Jun 17 15:05:04 2016 UTC-Fri Jun 17 15:05:04 2016 UTC (0.010 )  Run 302300, LB 275 (1466175904039924224.000000,1466175904029924096.000000)
Event Veto ['NoiseBurst'], Fri Jun 17 15:07:53 2016 UTC-Fri Jun 17 15:07:53 2016 UTC (0.010 )  Run 302300, LB 278 (1466176073649748736.000000,1466176073639748352.000000)
Event Veto ['NoiseBurst'], Fri Jun 17 15:08:05 2016 UTC-Fri Jun 17 15:08:05 2016 UTC (0.010 )  Run 302300, LB 278 (1466176085394864128.000000,1466176085384863744.000000)
Event Veto ['NoiseBurst'], Fri Jun 17 15:08:17 2016 UTC-Fri Jun 17 15:08:17 2016 UTC (0.010 )  Run 302300, LB 278 (1466176097647134464.000000,1466176097637133568.000000)
Event Veto ['NoiseBurst'], Fri Jun 17 15:08:26 2016 UTC-Fri Jun 17 15:08:26 2016 UTC (0.010 )  Run 302300, LB 279 (1466176106319552512.000000,1466176106309551872.000000)
Event Veto ['NoiseBurst'], Fri Jun 17 15:18:52 2016 UTC-Fri Jun 17 15:18:52 2016 UTC (0.010 )  Run 302300, LB 289 (1466176732345814272.000000,1466176732335813632.000000)
Event Veto ['NoiseBurst'], Fri Jun 17 15:21:37 2016 UTC-Fri Jun 17 15:21:37 2016 UTC (0.010 )  Run 302300, LB 292 (1466176897785943296.000000,1466176897775942656.000000)
Event Veto ['NoiseBurst'], Fri Jun 17 15:24:03 2016 UTC-Fri Jun 17 15:24:03 2016 UTC (0.010 )  Run 302300, LB 294 (1466177043307043840.000000,1466177043297042944.000000)
Event Veto ['NoiseBurst'], Fri Jun 17 15:36:08 2016 UTC-Fri Jun 17 15:36:08 2016 UTC (0.010 )  Run 302300, LB 306 (1466177768582471424.000000,1466177768572468736.000000)
Event Veto ['NoiseBurst'], Fri Jun 17 15:36:15 2016 UTC-Fri Jun 17 15:36:15 2016 UTC (0.010 )  Run 302300, LB 306 (1466177775430429184.000000,1466177775420279040.000000)
Event Veto ['NoiseBurst'], Fri Jun 17 15:38:03 2016 UTC-Fri Jun 17 15:38:03 2016 UTC (0.010 )  Run 302300, LB 308 (1466177883449797120.000000,1466177883439796480.000000)
Event Veto ['NoiseBurst'], Fri Jun 17 15:45:40 2016 UTC-Fri Jun 17 15:45:40 2016 UTC (0.010 )  Run 302300, LB 316 (1466178340996886528.000000,1466178340986595840.000000)
Event Veto ['NoiseBurst'], Fri Jun 17 15:56:46 2016 UTC-Fri Jun 17 15:56:46 2016 UTC (0.010 )  Run 302300, LB 328 (1466179006164527104.000000,1466179006154526976.000000)
Event Veto ['NoiseBurst'], Fri Jun 17 15:57:22 2016 UTC-Fri Jun 17 15:57:22 2016 UTC (0.010 )  Run 302300, LB 328 (1466179042259443456.000000,1466179042249442816.000000)
Event Veto ['NoiseBurst'], Fri Jun 17 16:18:17 2016 UTC-Fri Jun 17 16:18:17 2016 UTC (0.010 )  Run 302300, LB 349 (1466180297377696768.000000,1466180297367398656.000000)
Event Veto ['NoiseBurst'], Fri Jun 17 16:18:56 2016 UTC-Fri Jun 17 16:18:56 2016 UTC (0.010 )  Run 302300, LB 350 (1466180336161925888.000000,1466180336151840512.000000)
Event Veto ['NoiseBurst'], Fri Jun 17 16:31:07 2016 UTC-Fri Jun 17 16:31:07 2016 UTC (0.010 )  Run 302300, LB 363 (1466181067090744576.000000,1466181067080744448.000000)
Event Veto ['NoiseBurst'], Fri Jun 17 16:36:18 2016 UTC-Fri Jun 17 16:36:18 2016 UTC (0.010 )  Run 302300, LB 368 (1466181378611085056.000000,1466181378601084672.000000)
Event Veto ['NoiseBurst'], Fri Jun 17 16:41:25 2016 UTC-Fri Jun 17 16:41:25 2016 UTC (0.010 )  Run 302300, LB 373 (1466181685526675200.000000,1466181685516674816.000000)
Event Veto ['NoiseBurst'], Fri Jun 17 16:49:07 2016 UTC-Fri Jun 17 16:49:07 2016 UTC (0.010 )  Run 302300, LB 383 (1466182147838795264.000000,1466182147828794880.000000)
Event Veto ['NoiseBurst'], Fri Jun 17 16:54:38 2016 UTC-Fri Jun 17 16:54:38 2016 UTC (0.010 )  Run 302300, LB 388 (1466182478320147712.000000,1466182478310147072.000000)
Event Veto ['NoiseBurst'], Fri Jun 17 16:55:13 2016 UTC-Fri Jun 17 16:55:13 2016 UTC (0.010 )  Run 302300, LB 389 (1466182513587842816.000000,1466182513577842176.000000)
Event Veto ['NoiseBurst'], Fri Jun 17 16:58:12 2016 UTC-Fri Jun 17 16:58:12 2016 UTC (0.010 )  Run 302300, LB 392 (1466182692817447680.000000,1466182692807447040.000000)
Event Veto ['NoiseBurst'], Fri Jun 17 17:00:42 2016 UTC-Fri Jun 17 17:00:42 2016 UTC (0.010 )  Run 302300, LB 394 (1466182842644712960.000000,1466182842634712320.000000)
Event Veto ['NoiseBurst'], Fri Jun 17 17:00:56 2016 UTC-Fri Jun 17 17:00:56 2016 UTC (0.010 )  Run 302300, LB 395 (1466182856182196480.000000,1466182856172116224.000000)
Event Veto ['NoiseBurst'], Fri Jun 17 17:02:20 2016 UTC-Fri Jun 17 17:02:20 2016 UTC (0.010 )  Run 302300, LB 396 (1466182940659728896.000000,1466182940649728256.000000)
Event Veto ['NoiseBurst'], Fri Jun 17 17:09:10 2016 UTC-Fri Jun 17 17:09:10 2016 UTC (0.010 )  Run 302300, LB 403 (1466183350161137664.000000,1466183350151137280.000000)
Event Veto ['NoiseBurst'], Fri Jun 17 17:24:05 2016 UTC-Fri Jun 17 17:24:05 2016 UTC (0.010 )  Run 302300, LB 420 (1466184245118213632.000000,1466184245107913984.000000)
Event Veto ['NoiseBurst'], Fri Jun 17 18:13:35 2016 UTC-Fri Jun 17 18:13:35 2016 UTC (0.010 )  Run 302300, LB 474 (1466187215118882304.000000,1466187215108724992.000000)
Event Veto ['NoiseBurst'], Fri Jun 17 18:13:38 2016 UTC-Fri Jun 17 18:13:38 2016 UTC (0.010 )  Run 302300, LB 474 (1466187218435215360.000000,1466187218424866304.000000)
Event Veto ['NoiseBurst'], Fri Jun 17 18:18:09 2016 UTC-Fri Jun 17 18:18:09 2016 UTC (0.010 )  Run 302300, LB 479 (1466187489102653696.000000,1466187489092353280.000000)
Event Veto ['NoiseBurst'], Fri Jun 17 18:19:04 2016 UTC-Fri Jun 17 18:19:04 2016 UTC (0.010 )  Run 302300, LB 480 (1466187544011191296.000000,1466187544000873984.000000)
Event Veto ['NoiseBurst'], Fri Jun 17 18:26:14 2016 UTC-Fri Jun 17 18:26:14 2016 UTC (0.011 )  Run 302300, LB 487 (1466187974386368512.000000,1466187974375798272.000000)
Event Veto ['NoiseBurst'], Fri Jun 17 18:26:28 2016 UTC-Fri Jun 17 18:26:28 2016 UTC (0.010 )  Run 302300, LB 487 (1466187988061500416.000000,1466187988051499776.000000)
Event Veto ['NoiseBurst'], Fri Jun 17 18:52:13 2016 UTC-Fri Jun 17 18:52:13 2016 UTC (0.010 )  Run 302300, LB 518 (1466189533483000832.000000,1466189533473000192.000000)
Event Veto ['NoiseBurst'], Fri Jun 17 19:02:27 2016 UTC-Fri Jun 17 19:02:27 2016 UTC (0.010 )  Run 302300, LB 530 (1466190147415052544.000000,1466190147404990976.000000)
Event Veto ['NoiseBurst'], Fri Jun 17 19:44:36 2016 UTC-Fri Jun 17 19:44:36 2016 UTC (0.010 )  Run 302300, LB 577 (1466192676049402368.000000,1466192676039047680.000000)
Event Veto ['NoiseBurst'], Fri Jun 17 19:45:31 2016 UTC-Fri Jun 17 19:45:31 2016 UTC (0.010 )  Run 302300, LB 578 (1466192731231743744.000000,1466192731221420032.000000)
Event Veto ['NoiseBurst'], Fri Jun 17 20:13:27 2016 UTC-Fri Jun 17 20:13:27 2016 UTC (0.010 )  Run 302300, LB 606 (1466194407405002752.000000,1466194407395002112.000000)
Event Veto ['NoiseBurst'], Fri Jun 17 20:14:25 2016 UTC-Fri Jun 17 20:14:25 2016 UTC (0.010 )  Run 302300, LB 607 (1466194465887892736.000000,1466194465877892352.000000)
Event Veto ['NoiseBurst'], Fri Jun 17 20:15:10 2016 UTC-Fri Jun 17 20:15:10 2016 UTC (0.010 )  Run 302300, LB 608 (1466194510482950400.000000,1466194510472950272.000000)
Event Veto ['NoiseBurst'], Fri Jun 17 20:15:18 2016 UTC-Fri Jun 17 20:15:18 2016 UTC (0.010 )  Run 302300, LB 608 (1466194518866394368.000000,1466194518856394240.000000)
Event Veto ['NoiseBurst'], Fri Jun 17 20:21:10 2016 UTC-Fri Jun 17 20:21:10 2016 UTC (0.010 )  Run 302300, LB 614 (1466194870829221632.000000,1466194870819221248.000000)
Event Veto ['NoiseBurst'], Fri Jun 17 20:28:50 2016 UTC-Fri Jun 17 20:28:50 2016 UTC (0.010 )  Run 302300, LB 621 (1466195330275604480.000000,1466195330265536000.000000)
Event Veto ['NoiseBurst'], Fri Jun 17 21:04:03 2016 UTC-Fri Jun 17 21:04:03 2016 UTC (0.010 )  Run 302300, LB 657 (1466197443650650880.000000,1466197443640650240.000000)
Event Veto ['NoiseBurst'], Fri Jun 17 21:06:48 2016 UTC-Fri Jun 17 21:06:48 2016 UTC (0.010 )  Run 302300, LB 659 (1466197608269978112.000000,1466197608259627264.000000)
Event Veto ['NoiseBurst'], Fri Jun 17 21:10:53 2016 UTC-Fri Jun 17 21:10:53 2016 UTC (0.010 )  Run 302300, LB 664 (1466197853058063104.000000,1466197853047770368.000000)
Event Veto ['NoiseBurst'], Fri Jun 17 21:21:44 2016 UTC-Fri Jun 17 21:21:44 2016 UTC (0.010 )  Run 302300, LB 675 (1466198504241693696.000000,1466198504231693056.000000)
Event Veto ['NoiseBurst'], Fri Jun 17 21:27:11 2016 UTC-Fri Jun 17 21:27:11 2016 UTC (0.010 )  Run 302300, LB 680 (1466198831485893120.000000,1466198831475892992.000000)
Event Veto ['NoiseBurst'], Fri Jun 17 21:52:52 2016 UTC-Fri Jun 17 21:52:52 2016 UTC (0.011 )  Run 302300, LB 707 (1466200372138298624.000000,1466200372127720960.000000)
Event Veto ['NoiseBurst'], Fri Jun 17 22:08:02 2016 UTC-Fri Jun 17 22:08:02 2016 UTC (0.010 )  Run 302300, LB 722 (1466201282023828992.000000,1466201282013553152.000000)
Event Veto ['NoiseBurst'], Fri Jun 17 22:13:09 2016 UTC-Fri Jun 17 22:13:09 2016 UTC (0.010 )  Run 302300, LB 727 (1466201589371577344.000000,1466201589361311744.000000)
Event Veto ['NoiseBurst'], Fri Jun 17 22:18:32 2016 UTC-Fri Jun 17 22:18:32 2016 UTC (0.010 )  Run 302300, LB 732 (1466201912385375744.000000,1466201912375221504.000000)
Event Veto ['NoiseBurst'], Fri Jun 17 22:27:35 2016 UTC-Fri Jun 17 22:27:35 2016 UTC (0.010 )  Run 302300, LB 741 (1466202455109792512.000000,1466202455099792128.000000)
Event Veto ['NoiseBurst'], Fri Jun 17 22:27:48 2016 UTC-Fri Jun 17 22:27:48 2016 UTC (0.010 )  Run 302300, LB 742 (1466202468230364928.000000,1466202468220046080.000000)
Event Veto ['NoiseBurst'], Fri Jun 17 22:31:27 2016 UTC-Fri Jun 17 22:31:27 2016 UTC (0.010 )  Run 302300, LB 745 (1466202687340045312.000000,1466202687330044672.000000)
Event Veto ['NoiseBurst'], Fri Jun 17 22:31:56 2016 UTC-Fri Jun 17 22:31:56 2016 UTC (0.010 )  Run 302300, LB 746 (1466202716441198336.000000,1466202716431197696.000000)
Event Veto ['NoiseBurst'], Fri Jun 17 22:51:14 2016 UTC-Fri Jun 17 22:51:14 2016 UTC (0.010 )  Run 302300, LB 766 (1466203874197410048.000000,1466203874187319808.000000)
Event Veto ['NoiseBurst'], Fri Jun 17 22:53:14 2016 UTC-Fri Jun 17 22:53:14 2016 UTC (0.010 )  Run 302300, LB 768 (1466203994710933248.000000,1466203994700932864.000000)
Event Veto ['NoiseBurst'], Fri Jun 17 23:14:12 2016 UTC-Fri Jun 17 23:14:12 2016 UTC (0.010 )  Run 302300, LB 791 (1466205252867548416.000000,1466205252857547008.000000)
Event Veto ['NoiseBurst'], Fri Jun 17 23:18:48 2016 UTC-Fri Jun 17 23:18:48 2016 UTC (0.010 )  Run 302300, LB 796 (1466205528750878208.000000,1466205528740788224.000000)
Event Veto ['NoiseBurst'], Fri Jun 17 23:35:13 2016 UTC-Fri Jun 17 23:35:13 2016 UTC (0.010 )  Run 302300, LB 815 (1466206513069759488.000000,1466206513059484672.000000)
Event Veto ['NoiseBurst'], Fri Jun 17 23:46:36 2016 UTC-Fri Jun 17 23:46:36 2016 UTC (0.010 )  Run 302300, LB 827 (1466207196253358336.000000,1466207196242993920.000000)
Event Veto ['NoiseBurst'], Fri Jun 17 23:56:31 2016 UTC-Fri Jun 17 23:56:31 2016 UTC (0.010 )  Run 302300, LB 837 (1466207791725579008.000000,1466207791715578624.000000)
Event Veto ['NoiseBurst'], Sat Jun 18 00:06:38 2016 UTC-Sat Jun 18 00:06:38 2016 UTC (0.010 )  Run 302300, LB 847 (1466208398156185856.000000,1466208398146107648.000000)
Event Veto ['NoiseBurst'], Sat Jun 18 00:08:28 2016 UTC-Sat Jun 18 00:08:28 2016 UTC (0.010 )  Run 302300, LB 849 (1466208508140032512.000000,1466208508129662208.000000)
Event Veto ['NoiseBurst'], Sat Jun 18 00:10:13 2016 UTC-Sat Jun 18 00:10:13 2016 UTC (0.010 )  Run 302300, LB 851 (1466208613675471872.000000,1466208613665330688.000000)
Event Veto ['NoiseBurst'], Sat Jun 18 00:22:20 2016 UTC-Sat Jun 18 00:22:20 2016 UTC (0.011 )  Run 302300, LB 863 (1466209340907563264.000000,1466209340896474624.000000)
Event Veto ['DataCorruption'], Sat Jun 18 00:42:43 2016 UTC-Sat Jun 18 00:42:43 2016 UTC (0.547 )  Run 302300, LB 883 (1466210563824930816.000000,1466210563278223872.000000)
Event Veto ['NoiseBurst'], Sat Jun 18 01:41:58 2016 UTC-Sat Jun 18 01:41:58 2016 UTC (0.010 )  Run 302300, LB 945 (1466214118942036224.000000,1466214118931924992.000000)
Event Veto ['NoiseBurst'], Sat Jun 18 01:43:09 2016 UTC-Sat Jun 18 01:43:09 2016 UTC (0.010 )  Run 302300, LB 946 (1466214189583075584.000000,1466214189573075200.000000)
Event Veto ['NoiseBurst'], Sat Jun 18 03:21:57 2016 UTC-Sat Jun 18 03:21:57 2016 UTC (0.010 )  Run 302300, LB 1046 (1466220117813256192.000000,1466220117802882816.000000)
Event Veto ['NoiseBurst'], Sat Jun 18 03:34:38 2016 UTC-Sat Jun 18 03:34:38 2016 UTC (0.010 )  Run 302300, LB 1059 (1466220878409022720.000000,1466220878398705152.000000)
Event Veto ['NoiseBurst'], Sat Jun 18 03:46:04 2016 UTC-Sat Jun 18 03:46:04 2016 UTC (0.010 )  Run 302300, LB 1070 (1466221564223610880.000000,1466221564213253376.000000)
Event Veto ['MiniNoiseBurst'], Sat Jun 18 04:03:58 2016 UTC-Sat Jun 18 04:03:58 2016 UTC (0.010 )  Run 302300, LB 1088 (1466222638822591232.000000,1466222638812591360.000000)
Event Veto ['NoiseBurst'], Sat Jun 18 04:09:23 2016 UTC-Sat Jun 18 04:09:23 2016 UTC (0.011 )  Run 302300, LB 1094 (1466222963840639488.000000,1466222963830021888.000000)
Event Veto ['NoiseBurst'], Sat Jun 18 04:09:39 2016 UTC-Sat Jun 18 04:09:39 2016 UTC (0.010 )  Run 302300, LB 1094 (1466222979556784896.000000,1466222979546467328.000000)
Event Veto ['NoiseBurst'], Sat Jun 18 04:10:13 2016 UTC-Sat Jun 18 04:10:13 2016 UTC (0.011 )  Run 302300, LB 1094 (1466223013584200192.000000,1466223013573611264.000000)
Event Veto ['NoiseBurst'], Sat Jun 18 04:11:37 2016 UTC-Sat Jun 18 04:11:37 2016 UTC (0.072 )  Run 302300, LB 1096 (1466223097495602944.000000,1466223097423849472.000000)
Event Veto ['NoiseBurst'], Sat Jun 18 04:11:37 2016 UTC-Sat Jun 18 04:11:37 2016 UTC (0.468 )  Run 302300, LB 1096 (1466223097972384000.000000,1466223097504038144.000000)
Event Veto ['NoiseBurst'], Sat Jun 18 04:11:37 2016 UTC-Sat Jun 18 04:11:38 2016 UTC (0.202 )  Run 302300, LB 1096 (1466223098174073856.000000,1466223097972398848.000000)
Event Veto ['NoiseBurst'], Sat Jun 18 04:11:38 2016 UTC-Sat Jun 18 04:11:38 2016 UTC (0.338 )  Run 302300, LB 1096 (1466223098512028928.000000,1466223098174320640.000000)
Event Veto ['NoiseBurst'], Sat Jun 18 04:11:38 2016 UTC-Sat Jun 18 04:11:38 2016 UTC (0.014 )  Run 302300, LB 1096 (1466223098527240448.000000,1466223098513227520.000000)
Event Veto ['NoiseBurst'], Sat Jun 18 04:18:55 2016 UTC-Sat Jun 18 04:18:55 2016 UTC (0.011 )  Run 302300, LB 1103 (1466223535597155072.000000,1466223535586613760.000000)
Event Veto ['NoiseBurst'], Sat Jun 18 04:25:27 2016 UTC-Sat Jun 18 04:25:27 2016 UTC (0.011 )  Run 302300, LB 1110 (1466223927524836096.000000,1466223927514132992.000000)
Event Veto ['NoiseBurst'], Sat Jun 18 04:26:44 2016 UTC-Sat Jun 18 04:26:44 2016 UTC (0.010 )  Run 302300, LB 1111 (1466224004816540672.000000,1466224004806540288.000000)
Event Veto ['NoiseBurst'], Sat Jun 18 04:30:27 2016 UTC-Sat Jun 18 04:30:27 2016 UTC (0.010 )  Run 302300, LB 1115 (1466224227260011520.000000,1466224227250010880.000000)
Event Veto ['NoiseBurst'], Sat Jun 18 04:52:29 2016 UTC-Sat Jun 18 04:52:29 2016 UTC (0.010 )  Run 302300, LB 1137 (1466225549421518080.000000,1466225549411411712.000000)
Event Veto ['NoiseBurst'], Sat Jun 18 05:35:07 2016 UTC-Sat Jun 18 05:35:07 2016 UTC (0.019 )  Run 302300, LB 1179 (1466228107871428608.000000,1466228107852069632.000000)
Event Veto ['NoiseBurst'], Sat Jun 18 05:43:46 2016 UTC-Sat Jun 18 05:43:46 2016 UTC (0.010 )  Run 302300, LB 1188 (1466228626631920640.000000,1466228626621715200.000000)
Event Veto ['NoiseBurst'], Sat Jun 18 06:03:37 2016 UTC-Sat Jun 18 06:03:37 2016 UTC (0.011 )  Run 302300, LB 1208 (1466229817960154880.000000,1466229817949626112.000000)
Event Veto ['NoiseBurst'], Sat Jun 18 06:06:32 2016 UTC-Sat Jun 18 06:06:32 2016 UTC (0.010 )  Run 302300, LB 1211 (1466229992815987712.000000,1466229992805800704.000000)
Event Veto ['NoiseBurst'], Sat Jun 18 06:37:47 2016 UTC-Sat Jun 18 06:37:47 2016 UTC (0.010 )  Run 302300, LB 1242 (1466231867709179136.000000,1466231867699178752.000000)
Event Veto ['NoiseBurst'], Sat Jun 18 06:38:26 2016 UTC-Sat Jun 18 06:38:26 2016 UTC (0.010 )  Run 302300, LB 1242 (1466231906869592064.000000,1466231906859591424.000000)
Event Veto ['NoiseBurst'], Sat Jun 18 06:38:54 2016 UTC-Sat Jun 18 06:38:54 2016 UTC (0.010 )  Run 302300, LB 1243 (1466231934807027200.000000,1466231934797026816.000000)
Event Veto ['NoiseBurst'], Sat Jun 18 06:48:24 2016 UTC-Sat Jun 18 06:48:24 2016 UTC (0.010 )  Run 302300, LB 1252 (1466232504226159104.000000,1466232504216002816.000000)
Event Veto ['NoiseBurst'], Sat Jun 18 07:02:00 2016 UTC-Sat Jun 18 07:02:00 2016 UTC (0.010 )  Run 302300, LB 1266 (1466233320378845952.000000,1466233320368533760.000000)
Event Veto ['NoiseBurst'], Sat Jun 18 07:05:56 2016 UTC-Sat Jun 18 07:05:56 2016 UTC (0.010 )  Run 302300, LB 1270 (1466233556933383168.000000,1466233556923137536.000000)
Event Veto ['NoiseBurst'], Sat Jun 18 07:18:07 2016 UTC-Sat Jun 18 07:18:07 2016 UTC (0.011 )  Run 302300, LB 1282 (1466234287372983040.000000,1466234287362384896.000000)
Event Veto ['NoiseBurst'], Sat Jun 18 07:25:09 2016 UTC-Sat Jun 18 07:25:09 2016 UTC (0.010 )  Run 302300, LB 1289 (1466234709567656448.000000,1466234709557655808.000000)
Event Veto ['NoiseBurst'], Sat Jun 18 07:49:20 2016 UTC-Sat Jun 18 07:49:20 2016 UTC (0.010 )  Run 302300, LB 1314 (1466236160706753536.000000,1466236160696481024.000000)
Event Veto ['NoiseBurst'], Sat Jun 18 08:02:20 2016 UTC-Sat Jun 18 08:02:20 2016 UTC (0.010 )  Run 302300, LB 1327 (1466236940464337152.000000,1466236940454107904.000000)
Event Veto ['NoiseBurst'], Sat Jun 18 08:14:42 2016 UTC-Sat Jun 18 08:14:42 2016 UTC (0.010 )  Run 302300, LB 1339 (1466237682657810176.000000,1466237682647809792.000000)
Event Veto ['NoiseBurst'], Sat Jun 18 08:15:51 2016 UTC-Sat Jun 18 08:15:51 2016 UTC (0.010 )  Run 302300, LB 1340 (1466237751422466048.000000,1466237751412465408.000000)
Event Veto ['NoiseBurst'], Sat Jun 18 08:29:47 2016 UTC-Sat Jun 18 08:29:47 2016 UTC (0.010 )  Run 302300, LB 1356 (1466238587565160192.000000,1466238587555159808.000000)
Event Veto ['NoiseBurst'], Sat Jun 18 08:31:14 2016 UTC-Sat Jun 18 08:31:14 2016 UTC (0.010 )  Run 302300, LB 1358 (1466238674512893184.000000,1466238674502893056.000000)
Event Veto ['NoiseBurst'], Sat Jun 18 08:33:21 2016 UTC-Sat Jun 18 08:33:21 2016 UTC (0.010 )  Run 302300, LB 1360 (1466238801407044096.000000,1466238801396810752.000000)
Event Veto ['NoiseBurst'], Sat Jun 18 08:52:43 2016 UTC-Sat Jun 18 08:52:43 2016 UTC (0.010 )  Run 302300, LB 1379 (1466239963053406720.000000,1466239963043406080.000000)
Event Veto ['NoiseBurst'], Sat Jun 18 08:55:15 2016 UTC-Sat Jun 18 08:55:15 2016 UTC (0.010 )  Run 302300, LB 1382 (1466240115806652928.000000,1466240115796345088.000000)
Event Veto ['NoiseBurst'], Sat Jun 18 09:09:06 2016 UTC-Sat Jun 18 09:09:06 2016 UTC (0.011 )  Run 302300, LB 1398 (1466240946448317440.000000,1466240946437642240.000000)
Event Veto ['NoiseBurst'], Sat Jun 18 09:32:07 2016 UTC-Sat Jun 18 09:32:07 2016 UTC (0.010 )  Run 302300, LB 1421 (1466242327507754752.000000,1466242327497654272.000000)
Event Veto ['NoiseBurst'], Sat Jun 18 09:35:36 2016 UTC-Sat Jun 18 09:35:36 2016 UTC (0.010 )  Run 302300, LB 1425 (1466242536624756480.000000,1466242536614756096.000000)
Event Veto ['NoiseBurst'], Sat Jun 18 09:56:59 2016 UTC-Sat Jun 18 09:56:59 2016 UTC (0.010 )  Run 302300, LB 1448 (1466243819975990784.000000,1466243819965831168.000000)
Event Veto ['NoiseBurst'], Sat Jun 18 10:02:08 2016 UTC-Sat Jun 18 10:02:08 2016 UTC (0.012 )  Run 302300, LB 1454 (1466244128953780480.000000,1466244128942174464.000000)
Event Veto ['NoiseBurst'], Sat Jun 18 10:08:24 2016 UTC-Sat Jun 18 10:08:24 2016 UTC (0.010 )  Run 302300, LB 1460 (1466244504251685632.000000,1466244504241412096.000000)
Event Veto ['NoiseBurst'], Sat Jun 18 10:37:30 2016 UTC-Sat Jun 18 10:37:30 2016 UTC (0.010 )  Run 302300, LB 1489 (1466246250447199232.000000,1466246250437198336.000000)
Event Veto ['NoiseBurst'], Sat Jun 18 11:41:24 2016 UTC-Sat Jun 18 11:41:24 2016 UTC (0.010 )  Run 302300, LB 1555 (1466250084608045312.000000,1466250084597707520.000000)
Event Veto ['MiniNoiseBurst'], Sat Jun 18 11:52:43 2016 UTC-Sat Jun 18 11:52:43 2016 UTC (0.010 )  Run 302300, LB 1567 (1466250763722011392.000000,1466250763712011520.000000)
Event Veto ['NoiseBurst'], Sat Jun 18 12:36:08 2016 UTC-Sat Jun 18 12:36:08 2016 UTC (0.010 )  Run 302300, LB 1612 (1466253368123950080.000000,1466253368113457920.000000)
Event Veto ['NoiseBurst'], Sat Jun 18 12:41:19 2016 UTC-Sat Jun 18 12:41:19 2016 UTC (0.010 )  Run 302300, LB 1617 (1466253679164042752.000000,1466253679153907712.000000)
Event Veto ['NoiseBurst'], Sat Jun 18 13:20:09 2016 UTC-Sat Jun 18 13:20:09 2016 UTC (0.010 )  Run 302300, LB 1656 (1466256009101604864.000000,1466256009091288576.000000)
Event Veto ['NoiseBurst'], Sat Jun 18 14:09:07 2016 UTC-Sat Jun 18 14:09:07 2016 UTC (0.010 )  Run 302300, LB 1711 (1466258947659803392.000000,1466258947649802752.000000)
Found a total of 148 noisy periods, covering a total of 2.56 seconds
Found a total of 3 Mini noise periods, covering a total of 0.03 seconds
Found a total of 1 corruption periods, covering a total of 0.55 seconds
Lumi loss due to noise-bursts: 12.79 nb-1 out of 422758.72 nb-1 (0.03 per-mil)
Lumi loss due to mini-noise-bursts: 0.15 nb-1 out of 422758.72 nb-1 (0.00 per-mil)
Lumi loss due to corruption: 2.67 nb-1 out of 422758.72 nb-1 (0.01 per-mil)
