Warning in <TInterpreter::ReadRootmapFile>: class  SG::GenericElementLinkBase<SG::IdentContIndexingPolicy<Muon::MuonPrepDataContainer<Muon::MuonPrepDataCollection<Muon::MdtPrepData> > > > found in MuonRIO_OnTrackDict.so  is already in iMuGirlStauDict.so 
Warning in <TInterpreter::ReadRootmapFile>: class  pair<unsigned int,double> found in CaloEventDict.so  is already in libPileupReweightingLib.so 
Warning in <TInterpreter::ReadRootmapFile>: class  L1CaloCoolChannelId found in TrigT1CaloCalibConditionsDict.so  is already in LArMonitoringDict.so 
Warning in <TInterpreter::ReadRootmapFile>: class  pair<unsigned int,unsigned int> found in AtlasSTLAddReflexDict.so  is already in libPileupReweightingLib.so 
Warning in <TInterpreter::ReadRootmapFile>: class  pair<int,float> found in libCore.so  is already in AtlasSTLAddReflexDict.so 
Warning in <TInterpreter::ReadRootmapFile>: class  pair<string,double> found in libCore.so  is already in AtlasSTLAddReflexDict.so 
Warning in <TInterpreter::ReadRootmapFile>: class  ROOT::Math::LorentzVector<ROOT::Math::PtEtaPhiM4D<double> > found in libGenVector.so  is already in xAODCoreAthenaDict.so 
Warning in <TInterpreter::ReadRootmapFile>: class  ROOT::Math::PtEtaPhiM4D<double> found in libGenVector.so  is already in xAODCoreAthenaDict.so 
Reading event veto info from db oracle://ATLAS_COOLPROD;schema=ATLAS_COOLOFL_LAR;dbname=CONDBR2, tag LARBadChannelsOflEventVeto-RUN2-UPD4-04  Run 303007 to 303007
Reading folder /LAR/BadChannelsOfl/EventVeto from DB oracle://ATLAS_COOLPROD;schema=ATLAS_COOLOFL_LAR;dbname=CONDBR2
Data source lookup using /cvmfs/atlas.cern.ch/repo/sw/software/x86_64-slc6-gcc49-opt/20.7.5/AtlasCore/20.7.5/InstallArea/XML/AtlasAuthentication/dblookup.xml file
Dumping EventVeto data from run 303007 to run 303007  lasting from Wed Jun 29 22:13:49 2016 UTC to Thu Jun 30 01:49:50 2016 UTC
Event Veto ['MiniNoiseBurst'], Wed Jun 29 22:40:19 2016 UTC-Wed Jun 29 22:40:19 2016 UTC (0.010 )  Run 303007, LB 32 (1467240019827433472.000000,1467240019817432832.000000)
Event Veto ['MiniNoiseBurst'], Wed Jun 29 23:11:50 2016 UTC-Wed Jun 29 23:11:50 2016 UTC (0.010 )  Run 303007, LB 65 (1467241910851018752.000000,1467241910841018368.000000)
Event Veto ['MiniNoiseBurst'], Wed Jun 29 23:49:58 2016 UTC-Wed Jun 29 23:49:58 2016 UTC (0.010 )  Run 303007, LB 103 (1467244198876186624.000000,1467244198866186240.000000)
Event Veto ['MiniNoiseBurst'], Wed Jun 29 23:52:20 2016 UTC-Wed Jun 29 23:52:20 2016 UTC (0.010 )  Run 303007, LB 105 (1467244340591047424.000000,1467244340581047552.000000)
Event Veto ['NoiseBurst'], Thu Jun 30 00:06:54 2016 UTC-Thu Jun 30 00:06:54 2016 UTC (0.010 )  Run 303007, LB 121 (1467245214172974848.000000,1467245214162974208.000000)
Event Veto ['MiniNoiseBurst'], Thu Jun 30 00:56:03 2016 UTC-Thu Jun 30 00:56:03 2016 UTC (0.010 )  Run 303007, LB 172 (1467248163044950016.000000,1467248163034949632.000000)
Event Veto ['MiniNoiseBurst'], Thu Jun 30 00:56:20 2016 UTC-Thu Jun 30 00:56:20 2016 UTC (0.010 )  Run 303007, LB 173 (1467248180808130816.000000,1467248180798130688.000000)
Event Veto ['MiniNoiseBurst'], Thu Jun 30 00:56:51 2016 UTC-Thu Jun 30 00:56:51 2016 UTC (0.010 )  Run 303007, LB 173 (1467248211793419520.000000,1467248211783419392.000000)
Event Veto ['NoiseBurst'], Thu Jun 30 00:56:57 2016 UTC-Thu Jun 30 00:56:57 2016 UTC (0.010 )  Run 303007, LB 173 (1467248217371714560.000000,1467248217361582336.000000)
Event Veto ['MiniNoiseBurst'], Thu Jun 30 00:57:11 2016 UTC-Thu Jun 30 00:57:11 2016 UTC (0.010 )  Run 303007, LB 174 (1467248231117687296.000000,1467248231107686912.000000)
Event Veto ['NoiseBurst'], Thu Jun 30 00:57:22 2016 UTC-Thu Jun 30 00:57:22 2016 UTC (0.010 )  Run 303007, LB 174 (1467248242819913216.000000,1467248242809903872.000000)
Event Veto ['MiniNoiseBurst'], Thu Jun 30 00:57:24 2016 UTC-Thu Jun 30 00:57:24 2016 UTC (0.010 )  Run 303007, LB 174 (1467248244964563200.000000,1467248244954563072.000000)
Event Veto ['MiniNoiseBurst'], Thu Jun 30 00:57:35 2016 UTC-Thu Jun 30 00:57:35 2016 UTC (0.010 )  Run 303007, LB 174 (1467248255788444928.000000,1467248255778444800.000000)
Event Veto ['MiniNoiseBurst'], Thu Jun 30 00:57:53 2016 UTC-Thu Jun 30 00:57:53 2016 UTC (0.010 )  Run 303007, LB 174 (1467248273107407104.000000,1467248273097407232.000000)
Event Veto ['NoiseBurst'], Thu Jun 30 00:58:13 2016 UTC-Thu Jun 30 00:58:13 2016 UTC (0.010 )  Run 303007, LB 175 (1467248293445301504.000000,1467248293435300864.000000)
Event Veto ['MiniNoiseBurst'], Thu Jun 30 00:58:25 2016 UTC-Thu Jun 30 00:58:25 2016 UTC (0.010 )  Run 303007, LB 175 (1467248305962958592.000000,1467248305952958720.000000)
Event Veto ['NoiseBurst'], Thu Jun 30 00:58:31 2016 UTC-Thu Jun 30 00:58:31 2016 UTC (0.010 )  Run 303007, LB 175 (1467248311076247808.000000,1467248311066177536.000000)
Event Veto ['MiniNoiseBurst'], Thu Jun 30 00:58:38 2016 UTC-Thu Jun 30 00:58:38 2016 UTC (0.010 )  Run 303007, LB 175 (1467248318875512576.000000,1467248318865512448.000000)
Event Veto ['MiniNoiseBurst'], Thu Jun 30 00:58:50 2016 UTC-Thu Jun 30 00:58:50 2016 UTC (0.010 )  Run 303007, LB 175 (1467248330250523392.000000,1467248330240523264.000000)
Event Veto ['NoiseBurst'], Thu Jun 30 00:59:32 2016 UTC-Thu Jun 30 00:59:32 2016 UTC (0.010 )  Run 303007, LB 176 (1467248372924391680.000000,1467248372914088960.000000)
Event Veto ['MiniNoiseBurst'], Thu Jun 30 00:59:44 2016 UTC-Thu Jun 30 00:59:44 2016 UTC (0.010 )  Run 303007, LB 176 (1467248384747452928.000000,1467248384737453056.000000)
Event Veto ['MiniNoiseBurst'], Thu Jun 30 01:00:02 2016 UTC-Thu Jun 30 01:00:02 2016 UTC (0.010 )  Run 303007, LB 176 (1467248402968991232.000000,1467248402958991104.000000)
Event Veto ['MiniNoiseBurst'], Thu Jun 30 01:00:14 2016 UTC-Thu Jun 30 01:00:14 2016 UTC (0.010 )  Run 303007, LB 177 (1467248414421224448.000000,1467248414411224064.000000)
Event Veto ['NoiseBurst'], Thu Jun 30 01:00:24 2016 UTC-Thu Jun 30 01:00:24 2016 UTC (0.011 )  Run 303007, LB 177 (1467248424946968832.000000,1467248424935475968.000000)
Event Veto ['MiniNoiseBurst'], Thu Jun 30 01:00:49 2016 UTC-Thu Jun 30 01:00:49 2016 UTC (0.010 )  Run 303007, LB 177 (1467248449256209920.000000,1467248449246209792.000000)
Event Veto ['MiniNoiseBurst'], Thu Jun 30 01:00:58 2016 UTC-Thu Jun 30 01:00:58 2016 UTC (0.010 )  Run 303007, LB 177 (1467248458810833664.000000,1467248458800833536.000000)
Event Veto ['NoiseBurst'], Thu Jun 30 01:01:11 2016 UTC-Thu Jun 30 01:01:11 2016 UTC (0.010 )  Run 303007, LB 178 (1467248471129069568.000000,1467248471119069184.000000)
Event Veto ['NoiseBurst'], Thu Jun 30 01:01:29 2016 UTC-Thu Jun 30 01:01:29 2016 UTC (0.020 )  Run 303007, LB 178 (1467248489644610560.000000,1467248489625026560.000000)
Event Veto ['MiniNoiseBurst'], Thu Jun 30 01:01:34 2016 UTC-Thu Jun 30 01:01:34 2016 UTC (0.010 )  Run 303007, LB 178 (1467248494899264000.000000,1467248494889263872.000000)
Event Veto ['MiniNoiseBurst'], Thu Jun 30 01:01:44 2016 UTC-Thu Jun 30 01:01:44 2016 UTC (0.010 )  Run 303007, LB 178 (1467248504994493696.000000,1467248504984493312.000000)
Event Veto ['MiniNoiseBurst'], Thu Jun 30 01:02:07 2016 UTC-Thu Jun 30 01:02:07 2016 UTC (0.010 )  Run 303007, LB 178 (1467248527381773312.000000,1467248527371773440.000000)
Event Veto ['MiniNoiseBurst'], Thu Jun 30 01:02:24 2016 UTC-Thu Jun 30 01:02:24 2016 UTC (0.010 )  Run 303007, LB 179 (1467248544715253760.000000,1467248544705253376.000000)
Event Veto ['MiniNoiseBurst'], Thu Jun 30 01:02:49 2016 UTC-Thu Jun 30 01:02:49 2016 UTC (0.010 )  Run 303007, LB 179 (1467248569337676544.000000,1467248569327676416.000000)
Event Veto ['NoiseBurst'], Thu Jun 30 01:02:55 2016 UTC-Thu Jun 30 01:02:56 2016 UTC (0.010 )  Run 303007, LB 179 (1467248576000599040.000000,1467248575990506496.000000)
Event Veto ['MiniNoiseBurst'], Thu Jun 30 01:02:56 2016 UTC-Thu Jun 30 01:02:56 2016 UTC (0.010 )  Run 303007, LB 179 (1467248576695347456.000000,1467248576685347072.000000)
Event Veto ['MiniNoiseBurst'], Thu Jun 30 01:03:16 2016 UTC-Thu Jun 30 01:03:16 2016 UTC (0.010 )  Run 303007, LB 180 (1467248596680550656.000000,1467248596670550272.000000)
Event Veto ['NoiseBurst'], Thu Jun 30 01:03:35 2016 UTC-Thu Jun 30 01:03:35 2016 UTC (0.010 )  Run 303007, LB 180 (1467248615198447872.000000,1467248615188446976.000000)
Event Veto ['MiniNoiseBurst'], Thu Jun 30 01:07:08 2016 UTC-Thu Jun 30 01:07:08 2016 UTC (0.010 )  Run 303007, LB 184 (1467248828814219264.000000,1467248828804218880.000000)
Event Veto ['MiniNoiseBurst'], Thu Jun 30 01:07:50 2016 UTC-Thu Jun 30 01:07:50 2016 UTC (0.010 )  Run 303007, LB 184 (1467248870506761216.000000,1467248870496760832.000000)
Event Veto ['MiniNoiseBurst'], Thu Jun 30 01:08:02 2016 UTC-Thu Jun 30 01:08:02 2016 UTC (0.010 )  Run 303007, LB 185 (1467248882962287872.000000,1467248882952287744.000000)
Event Veto ['MiniNoiseBurst'], Thu Jun 30 01:08:09 2016 UTC-Thu Jun 30 01:08:09 2016 UTC (0.010 )  Run 303007, LB 185 (1467248889214737664.000000,1467248889204737536.000000)
Event Veto ['MiniNoiseBurst'], Thu Jun 30 01:08:20 2016 UTC-Thu Jun 30 01:08:20 2016 UTC (0.010 )  Run 303007, LB 185 (1467248900039569152.000000,1467248900029569024.000000)
Event Veto ['MiniNoiseBurst'], Thu Jun 30 01:08:30 2016 UTC-Thu Jun 30 01:08:30 2016 UTC (0.010 )  Run 303007, LB 185 (1467248910221423872.000000,1467248910211423744.000000)
Event Veto ['MiniNoiseBurst'], Thu Jun 30 01:08:59 2016 UTC-Thu Jun 30 01:08:59 2016 UTC (0.010 )  Run 303007, LB 185 (1467248939409639936.000000,1467248939399639552.000000)
Event Veto ['MiniNoiseBurst'], Thu Jun 30 01:09:17 2016 UTC-Thu Jun 30 01:09:17 2016 UTC (0.010 )  Run 303007, LB 186 (1467248957914015488.000000,1467248957904015104.000000)
Event Veto ['MiniNoiseBurst'], Thu Jun 30 01:09:30 2016 UTC-Thu Jun 30 01:09:30 2016 UTC (0.010 )  Run 303007, LB 186 (1467248970401326080.000000,1467248970391325952.000000)
Event Veto ['MiniNoiseBurst'], Thu Jun 30 01:09:48 2016 UTC-Thu Jun 30 01:09:48 2016 UTC (0.010 )  Run 303007, LB 186 (1467248988895199232.000000,1467248988885198848.000000)
Event Veto ['MiniNoiseBurst'], Thu Jun 30 01:10:01 2016 UTC-Thu Jun 30 01:10:01 2016 UTC (0.010 )  Run 303007, LB 187 (1467249001162510080.000000,1467249001152509696.000000)
Event Veto ['MiniNoiseBurst'], Thu Jun 30 01:10:19 2016 UTC-Thu Jun 30 01:10:19 2016 UTC (0.010 )  Run 303007, LB 187 (1467249019857422848.000000,1467249019847422720.000000)
Event Veto ['MiniNoiseBurst'], Thu Jun 30 01:10:26 2016 UTC-Thu Jun 30 01:10:26 2016 UTC (0.010 )  Run 303007, LB 187 (1467249026096894720.000000,1467249026086894336.000000)
Event Veto ['NoiseBurst'], Thu Jun 30 01:10:26 2016 UTC-Thu Jun 30 01:10:26 2016 UTC (0.010 )  Run 303007, LB 187 (1467249026726800128.000000,1467249026716641536.000000)
Event Veto ['NoiseBurst'], Thu Jun 30 01:10:57 2016 UTC-Thu Jun 30 01:10:57 2016 UTC (0.020 )  Run 303007, LB 188 (1467249057057384704.000000,1467249057037473280.000000)
Event Veto ['MiniNoiseBurst'], Thu Jun 30 01:11:07 2016 UTC-Thu Jun 30 01:11:07 2016 UTC (0.010 )  Run 303007, LB 188 (1467249067582298368.000000,1467249067572298496.000000)
Event Veto ['MiniNoiseBurst'], Thu Jun 30 01:11:18 2016 UTC-Thu Jun 30 01:11:18 2016 UTC (0.010 )  Run 303007, LB 188 (1467249078629649152.000000,1467249078619648768.000000)
Event Veto ['MiniNoiseBurst'], Thu Jun 30 01:12:00 2016 UTC-Thu Jun 30 01:12:00 2016 UTC (0.010 )  Run 303007, LB 189 (1467249120605761792.000000,1467249120595761664.000000)
Event Veto ['MiniNoiseBurst'], Thu Jun 30 01:12:11 2016 UTC-Thu Jun 30 01:12:11 2016 UTC (0.010 )  Run 303007, LB 189 (1467249131428720640.000000,1467249131418720768.000000)
Event Veto ['MiniNoiseBurst'], Thu Jun 30 01:12:30 2016 UTC-Thu Jun 30 01:12:30 2016 UTC (0.010 )  Run 303007, LB 189 (1467249150701476864.000000,1467249150691476736.000000)
Event Veto ['MiniNoiseBurst'], Thu Jun 30 01:12:47 2016 UTC-Thu Jun 30 01:12:47 2016 UTC (0.010 )  Run 303007, LB 189 (1467249167687725312.000000,1467249167677724928.000000)
Event Veto ['MiniNoiseBurst'], Thu Jun 30 01:12:58 2016 UTC-Thu Jun 30 01:12:58 2016 UTC (0.010 )  Run 303007, LB 190 (1467249178352817152.000000,1467249178342817280.000000)
Event Veto ['NoiseBurst'], Thu Jun 30 01:13:02 2016 UTC-Thu Jun 30 01:13:02 2016 UTC (0.011 )  Run 303007, LB 190 (1467249182240977920.000000,1467249182230413568.000000)
Event Veto ['MiniNoiseBurst'], Thu Jun 30 01:13:04 2016 UTC-Thu Jun 30 01:13:04 2016 UTC (0.010 )  Run 303007, LB 190 (1467249184459021312.000000,1467249184449021184.000000)
Event Veto ['MiniNoiseBurst'], Thu Jun 30 01:13:16 2016 UTC-Thu Jun 30 01:13:16 2016 UTC (0.010 )  Run 303007, LB 190 (1467249196678942976.000000,1467249196668942592.000000)
Event Veto ['MiniNoiseBurst'], Thu Jun 30 01:13:28 2016 UTC-Thu Jun 30 01:13:28 2016 UTC (0.010 )  Run 303007, LB 191 (1467249208815723520.000000,1467249208805723136.000000)
Event Veto ['NoiseBurst'], Thu Jun 30 01:13:34 2016 UTC-Thu Jun 30 01:13:34 2016 UTC (0.013 )  Run 303007, LB 191 (1467249214293012736.000000,1467249214280097024.000000)
Event Veto ['MiniNoiseBurst'], Thu Jun 30 01:13:41 2016 UTC-Thu Jun 30 01:13:41 2016 UTC (0.010 )  Run 303007, LB 191 (1467249221242931456.000000,1467249221232930816.000000)
Event Veto ['MiniNoiseBurst'], Thu Jun 30 01:13:47 2016 UTC-Thu Jun 30 01:13:47 2016 UTC (0.010 )  Run 303007, LB 191 (1467249227404045568.000000,1467249227394045440.000000)
Event Veto ['MiniNoiseBurst'], Thu Jun 30 01:13:59 2016 UTC-Thu Jun 30 01:13:59 2016 UTC (0.010 )  Run 303007, LB 191 (1467249239679410688.000000,1467249239669410816.000000)
Event Veto ['MiniNoiseBurst'], Thu Jun 30 01:14:05 2016 UTC-Thu Jun 30 01:14:05 2016 UTC (0.010 )  Run 303007, LB 191 (1467249245793879296.000000,1467249245783878912.000000)
Event Veto ['MiniNoiseBurst'], Thu Jun 30 01:14:12 2016 UTC-Thu Jun 30 01:14:12 2016 UTC (0.010 )  Run 303007, LB 191 (1467249252032759808.000000,1467249252022759680.000000)
Event Veto ['MiniNoiseBurst'], Thu Jun 30 01:14:28 2016 UTC-Thu Jun 30 01:14:28 2016 UTC (0.010 )  Run 303007, LB 192 (1467249268525796352.000000,1467249268515796224.000000)
Event Veto ['NoiseBurst'], Thu Jun 30 01:14:38 2016 UTC-Thu Jun 30 01:14:38 2016 UTC (0.010 )  Run 303007, LB 192 (1467249278316962304.000000,1467249278306621440.000000)
Event Veto ['MiniNoiseBurst'], Thu Jun 30 01:14:44 2016 UTC-Thu Jun 30 01:14:44 2016 UTC (0.010 )  Run 303007, LB 192 (1467249284804591616.000000,1467249284794591744.000000)
Event Veto ['MiniNoiseBurst'], Thu Jun 30 01:15:07 2016 UTC-Thu Jun 30 01:15:07 2016 UTC (0.010 )  Run 303007, LB 192 (1467249307566011904.000000,1467249307556011520.000000)
Event Veto ['MiniNoiseBurst'], Thu Jun 30 01:15:20 2016 UTC-Thu Jun 30 01:15:20 2016 UTC (0.010 )  Run 303007, LB 192 (1467249320082681600.000000,1467249320072681216.000000)
Event Veto ['MiniNoiseBurst'], Thu Jun 30 01:15:38 2016 UTC-Thu Jun 30 01:15:38 2016 UTC (0.010 )  Run 303007, LB 193 (1467249338617737728.000000,1467249338607737088.000000)
Event Veto ['MiniNoiseBurst'], Thu Jun 30 01:16:12 2016 UTC-Thu Jun 30 01:16:12 2016 UTC (0.010 )  Run 303007, LB 193 (1467249372459557376.000000,1467249372449557504.000000)
Event Veto ['NoiseBurst'], Thu Jun 30 01:16:23 2016 UTC-Thu Jun 30 01:16:23 2016 UTC (0.017 )  Run 303007, LB 194 (1467249383465080832.000000,1467249383447875584.000000)
Event Veto ['MiniNoiseBurst'], Thu Jun 30 01:16:31 2016 UTC-Thu Jun 30 01:16:31 2016 UTC (0.010 )  Run 303007, LB 194 (1467249391079191552.000000,1467249391069191424.000000)
Event Veto ['MiniNoiseBurst'], Thu Jun 30 01:16:37 2016 UTC-Thu Jun 30 01:16:37 2016 UTC (0.010 )  Run 303007, LB 194 (1467249397142575104.000000,1467249397132574976.000000)
Event Veto ['MiniNoiseBurst'], Thu Jun 30 01:16:43 2016 UTC-Thu Jun 30 01:16:43 2016 UTC (0.010 )  Run 303007, LB 194 (1467249403131020288.000000,1467249403121020160.000000)
Event Veto ['MiniNoiseBurst'], Thu Jun 30 01:16:49 2016 UTC-Thu Jun 30 01:16:49 2016 UTC (0.010 )  Run 303007, LB 194 (1467249409315725056.000000,1467249409305724928.000000)
Event Veto ['MiniNoiseBurst'], Thu Jun 30 01:17:06 2016 UTC-Thu Jun 30 01:17:06 2016 UTC (0.010 )  Run 303007, LB 194 (1467249426169955328.000000,1467249426159955200.000000)
Event Veto ['MiniNoiseBurst'], Thu Jun 30 01:17:18 2016 UTC-Thu Jun 30 01:17:18 2016 UTC (0.010 )  Run 303007, LB 194 (1467249438583186944.000000,1467249438573186560.000000)
Event Veto ['MiniNoiseBurst'], Thu Jun 30 01:17:25 2016 UTC-Thu Jun 30 01:17:25 2016 UTC (0.010 )  Run 303007, LB 195 (1467249445030040832.000000,1467249445020040448.000000)
Event Veto ['MiniNoiseBurst'], Thu Jun 30 01:17:59 2016 UTC-Thu Jun 30 01:17:59 2016 UTC (0.010 )  Run 303007, LB 195 (1467249479931669248.000000,1467249479921669120.000000)
Event Veto ['NoiseBurst'], Thu Jun 30 01:18:05 2016 UTC-Thu Jun 30 01:18:05 2016 UTC (0.017 )  Run 303007, LB 195 (1467249485308582400.000000,1467249485291445248.000000)
Event Veto ['MiniNoiseBurst'], Thu Jun 30 01:18:14 2016 UTC-Thu Jun 30 01:18:14 2016 UTC (0.010 )  Run 303007, LB 195 (1467249494384683520.000000,1467249494374683136.000000)
Event Veto ['MiniNoiseBurst'], Thu Jun 30 01:18:20 2016 UTC-Thu Jun 30 01:18:20 2016 UTC (0.010 )  Run 303007, LB 195 (1467249500543496192.000000,1467249500533495808.000000)
Event Veto ['MiniNoiseBurst'], Thu Jun 30 01:18:50 2016 UTC-Thu Jun 30 01:18:50 2016 UTC (0.010 )  Run 303007, LB 196 (1467249530250655488.000000,1467249530240655360.000000)
Event Veto ['MiniNoiseBurst'], Thu Jun 30 01:19:01 2016 UTC-Thu Jun 30 01:19:01 2016 UTC (0.010 )  Run 303007, LB 196 (1467249541653950464.000000,1467249541643950592.000000)
Event Veto ['MiniNoiseBurst'], Thu Jun 30 01:19:14 2016 UTC-Thu Jun 30 01:19:14 2016 UTC (0.010 )  Run 303007, LB 196 (1467249554076212480.000000,1467249554066212096.000000)
Event Veto ['MiniNoiseBurst'], Thu Jun 30 01:19:26 2016 UTC-Thu Jun 30 01:19:26 2016 UTC (0.010 )  Run 303007, LB 197 (1467249566695678464.000000,1467249566685678336.000000)
Event Veto ['MiniNoiseBurst'], Thu Jun 30 01:19:31 2016 UTC-Thu Jun 30 01:19:31 2016 UTC (0.010 )  Run 303007, LB 197 (1467249571374126336.000000,1467249571364126208.000000)
Event Veto ['MiniNoiseBurst'], Thu Jun 30 01:19:37 2016 UTC-Thu Jun 30 01:19:37 2016 UTC (0.010 )  Run 303007, LB 197 (1467249577610852096.000000,1467249577600851968.000000)
Event Veto ['NoiseBurst'], Thu Jun 30 01:19:54 2016 UTC-Thu Jun 30 01:19:54 2016 UTC (0.014 )  Run 303007, LB 197 (1467249594987270144.000000,1467249594973267968.000000)
Event Veto ['MiniNoiseBurst'], Thu Jun 30 01:19:56 2016 UTC-Thu Jun 30 01:19:56 2016 UTC (0.010 )  Run 303007, LB 197 (1467249596122142976.000000,1467249596112142848.000000)
Event Veto ['MiniNoiseBurst'], Thu Jun 30 01:20:02 2016 UTC-Thu Jun 30 01:20:02 2016 UTC (0.010 )  Run 303007, LB 197 (1467249602027548160.000000,1467249602017547776.000000)
Event Veto ['NoiseBurst'], Thu Jun 30 01:20:05 2016 UTC-Thu Jun 30 01:20:05 2016 UTC (0.010 )  Run 303007, LB 197 (1467249605889535232.000000,1467249605879459072.000000)
Event Veto ['NoiseBurst'], Thu Jun 30 01:20:17 2016 UTC-Thu Jun 30 01:20:17 2016 UTC (0.013 )  Run 303007, LB 197 (1467249617612591616.000000,1467249617599439616.000000)
Event Veto ['MiniNoiseBurst'], Thu Jun 30 01:20:20 2016 UTC-Thu Jun 30 01:20:20 2016 UTC (0.010 )  Run 303007, LB 197 (1467249620708637184.000000,1467249620698637312.000000)
Event Veto ['NoiseBurst'], Thu Jun 30 01:20:24 2016 UTC-Thu Jun 30 01:20:24 2016 UTC (0.010 )  Run 303007, LB 198 (1467249624064049920.000000,1467249624053970944.000000)
Event Veto ['MiniNoiseBurst'], Thu Jun 30 01:20:33 2016 UTC-Thu Jun 30 01:20:33 2016 UTC (0.010 )  Run 303007, LB 198 (1467249633252361984.000000,1467249633242361600.000000)
Event Veto ['MiniNoiseBurst'], Thu Jun 30 01:20:45 2016 UTC-Thu Jun 30 01:20:45 2016 UTC (0.010 )  Run 303007, LB 198 (1467249645980146432.000000,1467249645970146560.000000)
Event Veto ['MiniNoiseBurst'], Thu Jun 30 01:21:15 2016 UTC-Thu Jun 30 01:21:15 2016 UTC (0.010 )  Run 303007, LB 198 (1467249675871526144.000000,1467249675861526016.000000)
Event Veto ['MiniNoiseBurst'], Thu Jun 30 01:21:27 2016 UTC-Thu Jun 30 01:21:27 2016 UTC (0.010 )  Run 303007, LB 199 (1467249687309783808.000000,1467249687299783424.000000)
Event Veto ['NoiseBurst'], Thu Jun 30 01:21:28 2016 UTC-Thu Jun 30 01:21:28 2016 UTC (0.016 )  Run 303007, LB 199 (1467249688583237120.000000,1467249688567675904.000000)
Event Veto ['MiniNoiseBurst'], Thu Jun 30 01:21:33 2016 UTC-Thu Jun 30 01:21:33 2016 UTC (0.010 )  Run 303007, LB 199 (1467249693566363648.000000,1467249693556363264.000000)
Event Veto ['MiniNoiseBurst'], Thu Jun 30 01:21:38 2016 UTC-Thu Jun 30 01:21:38 2016 UTC (0.010 )  Run 303007, LB 199 (1467249698276158208.000000,1467249698266157824.000000)
Event Veto ['MiniNoiseBurst'], Thu Jun 30 01:22:00 2016 UTC-Thu Jun 30 01:22:00 2016 UTC (0.010 )  Run 303007, LB 199 (1467249720502640896.000000,1467249720492640768.000000)
Event Veto ['NoiseBurst'], Thu Jun 30 01:22:13 2016 UTC-Thu Jun 30 01:22:13 2016 UTC (0.010 )  Run 303007, LB 199 (1467249733863645696.000000,1467249733853529344.000000)
Event Veto ['MiniNoiseBurst'], Thu Jun 30 01:22:26 2016 UTC-Thu Jun 30 01:22:26 2016 UTC (0.010 )  Run 303007, LB 200 (1467249746107374080.000000,1467249746097373440.000000)
Event Veto ['MiniNoiseBurst'], Thu Jun 30 01:23:19 2016 UTC-Thu Jun 30 01:23:19 2016 UTC (0.010 )  Run 303007, LB 200 (1467249799757785856.000000,1467249799747785472.000000)
Event Veto ['MiniNoiseBurst'], Thu Jun 30 01:23:26 2016 UTC-Thu Jun 30 01:23:26 2016 UTC (0.010 )  Run 303007, LB 201 (1467249806052311552.000000,1467249806042311424.000000)
Event Veto ['MiniNoiseBurst'], Thu Jun 30 01:23:32 2016 UTC-Thu Jun 30 01:23:32 2016 UTC (0.010 )  Run 303007, LB 201 (1467249812377217280.000000,1467249812367216896.000000)
Event Veto ['MiniNoiseBurst'], Thu Jun 30 01:23:42 2016 UTC-Thu Jun 30 01:23:42 2016 UTC (0.010 )  Run 303007, LB 201 (1467249822812999936.000000,1467249822802999552.000000)
Event Veto ['NoiseBurst'], Thu Jun 30 01:23:50 2016 UTC-Thu Jun 30 01:23:50 2016 UTC (0.010 )  Run 303007, LB 201 (1467249830474612736.000000,1467249830464415232.000000)
Event Veto ['MiniNoiseBurst'], Thu Jun 30 01:24:07 2016 UTC-Thu Jun 30 01:24:07 2016 UTC (0.010 )  Run 303007, LB 201 (1467249847891597312.000000,1467249847881597184.000000)
Event Veto ['MiniNoiseBurst'], Thu Jun 30 01:24:12 2016 UTC-Thu Jun 30 01:24:12 2016 UTC (0.010 )  Run 303007, LB 201 (1467249852575615744.000000,1467249852565615616.000000)
Event Veto ['MiniNoiseBurst'], Thu Jun 30 01:24:18 2016 UTC-Thu Jun 30 01:24:18 2016 UTC (0.010 )  Run 303007, LB 201 (1467249858847182336.000000,1467249858837181952.000000)
Event Veto ['MiniNoiseBurst'], Thu Jun 30 01:25:13 2016 UTC-Thu Jun 30 01:25:13 2016 UTC (0.010 )  Run 303007, LB 202 (1467249913199052544.000000,1467249913189052416.000000)
Event Veto ['MiniNoiseBurst'], Thu Jun 30 01:25:44 2016 UTC-Thu Jun 30 01:25:44 2016 UTC (0.010 )  Run 303007, LB 203 (1467249944532815360.000000,1467249944522814976.000000)
Event Veto ['MiniNoiseBurst'], Thu Jun 30 01:26:19 2016 UTC-Thu Jun 30 01:26:19 2016 UTC (0.010 )  Run 303007, LB 203 (1467249979523707136.000000,1467249979513706752.000000)
Event Veto ['MiniNoiseBurst'], Thu Jun 30 01:26:31 2016 UTC-Thu Jun 30 01:26:31 2016 UTC (0.010 )  Run 303007, LB 204 (1467249991638315264.000000,1467249991628315136.000000)
Event Veto ['MiniNoiseBurst'], Thu Jun 30 01:26:41 2016 UTC-Thu Jun 30 01:26:41 2016 UTC (0.010 )  Run 303007, LB 204 (1467250001465874432.000000,1467250001455874048.000000)
Event Veto ['MiniNoiseBurst'], Thu Jun 30 01:26:53 2016 UTC-Thu Jun 30 01:26:53 2016 UTC (0.010 )  Run 303007, LB 204 (1467250013705476352.000000,1467250013695475968.000000)
Event Veto ['MiniNoiseBurst'], Thu Jun 30 01:27:04 2016 UTC-Thu Jun 30 01:27:04 2016 UTC (0.010 )  Run 303007, LB 204 (1467250024595700224.000000,1467250024585700096.000000)
Event Veto ['MiniNoiseBurst'], Thu Jun 30 01:27:26 2016 UTC-Thu Jun 30 01:27:26 2016 UTC (0.010 )  Run 303007, LB 205 (1467250046676184576.000000,1467250046666184192.000000)
Event Veto ['NoiseBurst'], Thu Jun 30 01:27:48 2016 UTC-Thu Jun 30 01:27:48 2016 UTC (0.012 )  Run 303007, LB 205 (1467250068833100288.000000,1467250068820810496.000000)
Event Veto ['MiniNoiseBurst'], Thu Jun 30 01:27:56 2016 UTC-Thu Jun 30 01:27:56 2016 UTC (0.010 )  Run 303007, LB 205 (1467250076650373120.000000,1467250076640372736.000000)
Event Veto ['MiniNoiseBurst'], Thu Jun 30 01:28:46 2016 UTC-Thu Jun 30 01:28:46 2016 UTC (0.010 )  Run 303007, LB 206 (1467250126172354816.000000,1467250126162354688.000000)
Event Veto ['MiniNoiseBurst'], Thu Jun 30 01:29:11 2016 UTC-Thu Jun 30 01:29:11 2016 UTC (0.010 )  Run 303007, LB 206 (1467250151027960064.000000,1467250151017959680.000000)
Event Veto ['MiniNoiseBurst'], Thu Jun 30 01:29:29 2016 UTC-Thu Jun 30 01:29:29 2016 UTC (0.010 )  Run 303007, LB 207 (1467250169628200960.000000,1467250169618200320.000000)
Event Veto ['NoiseBurst'], Thu Jun 30 01:29:32 2016 UTC-Thu Jun 30 01:29:32 2016 UTC (0.012 )  Run 303007, LB 207 (1467250172904120832.000000,1467250172892102912.000000)
Event Veto ['NoiseBurst'], Thu Jun 30 01:29:48 2016 UTC-Thu Jun 30 01:29:48 2016 UTC (0.010 )  Run 303007, LB 207 (1467250188188855552.000000,1467250188178680320.000000)
Event Veto ['MiniNoiseBurst'], Thu Jun 30 01:30:08 2016 UTC-Thu Jun 30 01:30:08 2016 UTC (0.010 )  Run 303007, LB 207 (1467250208415287040.000000,1467250208405286912.000000)
Event Veto ['NoiseBurst'], Thu Jun 30 01:30:12 2016 UTC-Thu Jun 30 01:30:12 2016 UTC (0.020 )  Run 303007, LB 207 (1467250212822849280.000000,1467250212802467328.000000)
Event Veto ['NoiseBurst'], Thu Jun 30 01:30:14 2016 UTC-Thu Jun 30 01:30:14 2016 UTC (0.011 )  Run 303007, LB 207 (1467250214624565248.000000,1467250214613068800.000000)
Event Veto ['MiniNoiseBurst'], Thu Jun 30 01:30:29 2016 UTC-Thu Jun 30 01:30:29 2016 UTC (0.010 )  Run 303007, LB 208 (1467250229578994176.000000,1467250229568993792.000000)
Event Veto ['MiniNoiseBurst'], Thu Jun 30 01:30:46 2016 UTC-Thu Jun 30 01:30:46 2016 UTC (0.010 )  Run 303007, LB 208 (1467250246515415296.000000,1467250246505415168.000000)
Event Veto ['NoiseBurst'], Thu Jun 30 01:30:49 2016 UTC-Thu Jun 30 01:30:49 2016 UTC (0.012 )  Run 303007, LB 208 (1467250249865884416.000000,1467250249854352640.000000)
Event Veto ['MiniNoiseBurst'], Thu Jun 30 01:31:17 2016 UTC-Thu Jun 30 01:31:17 2016 UTC (0.010 )  Run 303007, LB 208 (1467250277965504768.000000,1467250277955504896.000000)
Event Veto ['MiniNoiseBurst'], Thu Jun 30 01:31:26 2016 UTC-Thu Jun 30 01:31:26 2016 UTC (0.010 )  Run 303007, LB 209 (1467250286661734656.000000,1467250286651734784.000000)
Event Veto ['MiniNoiseBurst'], Thu Jun 30 01:31:35 2016 UTC-Thu Jun 30 01:31:35 2016 UTC (0.010 )  Run 303007, LB 209 (1467250295650158080.000000,1467250295640157696.000000)
Event Veto ['NoiseBurst'], Thu Jun 30 01:31:37 2016 UTC-Thu Jun 30 01:31:38 2016 UTC (0.010 )  Run 303007, LB 209 (1467250298001302784.000000,1467250297991149568.000000)
Event Veto ['MiniNoiseBurst'], Thu Jun 30 01:31:41 2016 UTC-Thu Jun 30 01:31:41 2016 UTC (0.010 )  Run 303007, LB 209 (1467250301988524544.000000,1467250301978524416.000000)
Event Veto ['MiniNoiseBurst'], Thu Jun 30 01:31:59 2016 UTC-Thu Jun 30 01:31:59 2016 UTC (0.010 )  Run 303007, LB 209 (1467250319817388544.000000,1467250319807388416.000000)
Event Veto ['NoiseBurst'], Thu Jun 30 01:32:15 2016 UTC-Thu Jun 30 01:32:16 2016 UTC (0.020 )  Run 303007, LB 209 (1467250336011309824.000000,1467250335991594496.000000)
Event Veto ['MiniNoiseBurst'], Thu Jun 30 01:32:16 2016 UTC-Thu Jun 30 01:32:16 2016 UTC (0.010 )  Run 303007, LB 209 (1467250336739081472.000000,1467250336729081088.000000)
Event Veto ['MiniNoiseBurst'], Thu Jun 30 01:32:33 2016 UTC-Thu Jun 30 01:32:33 2016 UTC (0.010 )  Run 303007, LB 210 (1467250353203802368.000000,1467250353193801984.000000)
Event Veto ['MiniNoiseBurst'], Thu Jun 30 01:33:12 2016 UTC-Thu Jun 30 01:33:12 2016 UTC (0.010 )  Run 303007, LB 210 (1467250392390835712.000000,1467250392380835584.000000)
Event Veto ['NoiseBurst'], Thu Jun 30 01:33:21 2016 UTC-Thu Jun 30 01:33:21 2016 UTC (0.021 )  Run 303007, LB 210 (1467250401770085632.000000,1467250401749525760.000000)
Event Veto ['NoiseBurst'], Thu Jun 30 01:33:26 2016 UTC-Thu Jun 30 01:33:26 2016 UTC (0.011 )  Run 303007, LB 211 (1467250406833731840.000000,1467250406823064832.000000)
Event Veto ['MiniNoiseBurst'], Thu Jun 30 01:33:27 2016 UTC-Thu Jun 30 01:33:27 2016 UTC (0.010 )  Run 303007, LB 211 (1467250407322560256.000000,1467250407312559616.000000)
Event Veto ['MiniNoiseBurst'], Thu Jun 30 01:33:33 2016 UTC-Thu Jun 30 01:33:33 2016 UTC (0.010 )  Run 303007, LB 211 (1467250413646966016.000000,1467250413636965888.000000)
Event Veto ['MiniNoiseBurst'], Thu Jun 30 01:34:05 2016 UTC-Thu Jun 30 01:34:05 2016 UTC (0.010 )  Run 303007, LB 214 (1467250445391994624.000000,1467250445381994496.000000)
Event Veto ['MiniNoiseBurst'], Thu Jun 30 01:34:28 2016 UTC-Thu Jun 30 01:34:28 2016 UTC (0.010 )  Run 303007, LB 214 (1467250468849220352.000000,1467250468839220224.000000)
Event Veto ['MiniNoiseBurst'], Thu Jun 30 01:34:49 2016 UTC-Thu Jun 30 01:34:49 2016 UTC (0.010 )  Run 303007, LB 214 (1467250489941416192.000000,1467250489931415808.000000)
Event Veto ['NoiseBurst'], Thu Jun 30 01:35:18 2016 UTC-Thu Jun 30 01:35:18 2016 UTC (0.017 )  Run 303007, LB 215 (1467250518566621696.000000,1467250518549185280.000000)
Event Veto ['NoiseBurst'], Thu Jun 30 01:35:56 2016 UTC-Thu Jun 30 01:35:56 2016 UTC (0.018 )  Run 303007, LB 215 (1467250556748630272.000000,1467250556730340096.000000)
Event Veto ['MiniNoiseBurst'], Thu Jun 30 01:36:01 2016 UTC-Thu Jun 30 01:36:01 2016 UTC (0.010 )  Run 303007, LB 216 (1467250561730020608.000000,1467250561720020480.000000)
Event Veto ['MiniNoiseBurst'], Thu Jun 30 01:36:16 2016 UTC-Thu Jun 30 01:36:16 2016 UTC (0.010 )  Run 303007, LB 216 (1467250576406724096.000000,1467250576396723968.000000)
Event Veto ['MiniNoiseBurst'], Thu Jun 30 01:37:04 2016 UTC-Thu Jun 30 01:37:04 2016 UTC (0.010 )  Run 303007, LB 217 (1467250624593436160.000000,1467250624583436288.000000)
Event Veto ['MiniNoiseBurst'], Thu Jun 30 01:37:15 2016 UTC-Thu Jun 30 01:37:15 2016 UTC (0.010 )  Run 303007, LB 217 (1467250635289173248.000000,1467250635279173120.000000)
Found a total of 37 noisy periods, covering a total of 0.48 seconds
Found a total of 126 Mini noise periods, covering a total of 1.26 seconds
Lumi loss due to noise-bursts: 4.70 nb-1 out of 25718.73 nb-1 (0.18 per-mil)
Lumi loss due to mini-noise-bursts: 12.25 nb-1 out of 25718.73 nb-1 (0.48 per-mil)
