Warning in <TInterpreter::ReadRootmapFile>: class  UCharDbArray found in libRootCnvDict.so  is already in libStorageSvcDict.so 
Warning in <TInterpreter::ReadRootmapFile>: class  Event found in libtest_GPyTestDict.so  is already in libG4AtlasControlDict.so 
Reading event veto info from db oracle://ATLAS_COOLPROD;schema=ATLAS_COOLOFL_LAR;dbname=CONDBR2, tag LARBadChannelsOflEventVeto-RUN2-UPD4-10  Run 310473 to 310473
Reading folder /LAR/BadChannelsOfl/EventVeto from DB oracle://ATLAS_COOLPROD;schema=ATLAS_COOLOFL_LAR;dbname=CONDBR2
Data source lookup using /cvmfs/atlas.cern.ch/repo/sw/software/21.0/AtlasCore/21.0.20/InstallArea/x86_64-slc6-gcc62-opt/XML/AtlasAuthentication/dblookup.xml file
[?1034hDumping EventVeto data from run 310473 to run 310473  lasting from Thu Oct 13 03:34:48 2016 UTC to Thu Oct 13 12:06:59 2016 UTC
Event Veto ['MiniNoiseBurst'], Thu Oct 13 11:36:38 2016 UTC-Thu Oct 13 11:36:38 2016 UTC (0.010 )  Time stamp start 1476358598399977065 end 1476358598389977065  Run 310473, LB 533, lumi 81.92
Event Veto ['MiniNoiseBurst'], Thu Oct 13 11:37:00 2016 UTC-Thu Oct 13 11:37:00 2016 UTC (0.010 )  Time stamp start 1476358620560306945 end 1476358620550306945  Run 310473, LB 534, lumi 81.83
Event Veto ['MiniNoiseBurst'], Thu Oct 13 11:37:12 2016 UTC-Thu Oct 13 11:37:12 2016 UTC (0.010 )  Time stamp start 1476358632314391205 end 1476358632304391205  Run 310473, LB 534, lumi 81.83
Event Veto ['MiniNoiseBurst'], Thu Oct 13 11:37:23 2016 UTC-Thu Oct 13 11:37:23 2016 UTC (0.010 )  Time stamp start 1476358643958521040 end 1476358643948521040  Run 310473, LB 534, lumi 81.83
Event Veto ['MiniNoiseBurst'], Thu Oct 13 11:37:33 2016 UTC-Thu Oct 13 11:37:33 2016 UTC (0.010 )  Time stamp start 1476358653445732605 end 1476358653435732305  Run 310473, LB 534, lumi 81.84
Event Veto ['MiniNoiseBurst'], Thu Oct 13 11:37:45 2016 UTC-Thu Oct 13 11:37:45 2016 UTC (0.010 )  Time stamp start 1476358665756789165 end 1476358665746789165  Run 310473, LB 535, lumi 81.75
Event Veto ['MiniNoiseBurst'], Thu Oct 13 11:37:54 2016 UTC-Thu Oct 13 11:37:54 2016 UTC (0.010 )  Time stamp start 1476358674146646665 end 1476358674136646665  Run 310473, LB 535, lumi 81.75
Event Veto ['MiniNoiseBurst'], Thu Oct 13 11:38:03 2016 UTC-Thu Oct 13 11:38:03 2016 UTC (0.010 )  Time stamp start 1476358683060073265 end 1476358683050073265  Run 310473, LB 535, lumi 81.75
Event Veto ['MiniNoiseBurst'], Thu Oct 13 11:38:18 2016 UTC-Thu Oct 13 11:38:18 2016 UTC (0.010 )  Time stamp start 1476358698280425095 end 1476358698270425095  Run 310473, LB 535, lumi 81.75
Event Veto ['MiniNoiseBurst'], Thu Oct 13 11:38:25 2016 UTC-Thu Oct 13 11:38:25 2016 UTC (0.010 )  Time stamp start 1476358705731263415 end 1476358705721263415  Run 310473, LB 535, lumi 81.75
Event Veto ['MiniNoiseBurst'], Thu Oct 13 11:38:39 2016 UTC-Thu Oct 13 11:38:39 2016 UTC (0.010 )  Time stamp start 1476358719377696430 end 1476358719367696430  Run 310473, LB 535, lumi 81.75
Event Veto ['MiniNoiseBurst'], Thu Oct 13 11:38:56 2016 UTC-Thu Oct 13 11:38:56 2016 UTC (0.010 )  Time stamp start 1476358736286418705 end 1476358736276418705  Run 310473, LB 536, lumi 81.65
Event Veto ['MiniNoiseBurst'], Thu Oct 13 11:39:04 2016 UTC-Thu Oct 13 11:39:04 2016 UTC (0.010 )  Time stamp start 1476358744396108460 end 1476358744386108460  Run 310473, LB 536, lumi 81.65
Event Veto ['MiniNoiseBurst'], Thu Oct 13 11:39:21 2016 UTC-Thu Oct 13 11:39:21 2016 UTC (0.010 )  Time stamp start 1476358761820333060 end 1476358761810333060  Run 310473, LB 536, lumi 81.65
Event Veto ['MiniNoiseBurst'], Thu Oct 13 11:39:33 2016 UTC-Thu Oct 13 11:39:33 2016 UTC (0.010 )  Time stamp start 1476358773172469400 end 1476358773162469400  Run 310473, LB 536, lumi 81.65
Event Veto ['MiniNoiseBurst'], Thu Oct 13 11:39:43 2016 UTC-Thu Oct 13 11:39:43 2016 UTC (0.010 )  Time stamp start 1476358783954019815 end 1476358783944019815  Run 310473, LB 537, lumi 81.59
Event Veto ['MiniNoiseBurst'], Thu Oct 13 11:39:55 2016 UTC-Thu Oct 13 11:39:55 2016 UTC (0.010 )  Time stamp start 1476358795609255775 end 1476358795599255775  Run 310473, LB 537, lumi 81.59
Event Veto ['MiniNoiseBurst'], Thu Oct 13 11:40:03 2016 UTC-Thu Oct 13 11:40:03 2016 UTC (0.010 )  Time stamp start 1476358803548056240 end 1476358803538056240  Run 310473, LB 537, lumi 81.59
Event Veto ['MiniNoiseBurst'], Thu Oct 13 11:40:15 2016 UTC-Thu Oct 13 11:40:15 2016 UTC (0.015 )  Time stamp start 1476358815472427195 end 1476358815457556365  Run 310473, LB 537, lumi 121.33
Event Veto ['MiniNoiseBurst'], Thu Oct 13 11:40:29 2016 UTC-Thu Oct 13 11:40:29 2016 UTC (0.010 )  Time stamp start 1476358829212752570 end 1476358829202752570  Run 310473, LB 537, lumi 81.59
Event Veto ['MiniNoiseBurst'], Thu Oct 13 11:40:38 2016 UTC-Thu Oct 13 11:40:38 2016 UTC (0.014 )  Time stamp start 1476358838580141240 end 1476358838566153465  Run 310473, LB 537, lumi 114.12
Event Veto ['MiniNoiseBurst'], Thu Oct 13 11:40:55 2016 UTC-Thu Oct 13 11:40:55 2016 UTC (0.010 )  Time stamp start 1476358855466347695 end 1476358855456347695  Run 310473, LB 538, lumi 81.49
Event Veto ['MiniNoiseBurst'], Thu Oct 13 11:41:59 2016 UTC-Thu Oct 13 11:41:59 2016 UTC (0.010 )  Time stamp start 1476358919755152510 end 1476358919745152510  Run 310473, LB 540, lumi 81.47
Event Veto ['MiniNoiseBurst'], Thu Oct 13 11:42:12 2016 UTC-Thu Oct 13 11:42:12 2016 UTC (0.010 )  Time stamp start 1476358932338753810 end 1476358932328753510  Run 310473, LB 540, lumi 81.47
Event Veto ['MiniNoiseBurst'], Thu Oct 13 11:42:22 2016 UTC-Thu Oct 13 11:42:22 2016 UTC (0.010 )  Time stamp start 1476358942082532530 end 1476358942072532530  Run 310473, LB 540, lumi 81.47
Event Veto ['MiniNoiseBurst'], Thu Oct 13 11:42:32 2016 UTC-Thu Oct 13 11:42:32 2016 UTC (0.010 )  Time stamp start 1476358952602538955 end 1476358952592538955  Run 310473, LB 540, lumi 81.47
Event Veto ['MiniNoiseBurst'], Thu Oct 13 11:42:49 2016 UTC-Thu Oct 13 11:42:49 2016 UTC (0.015 )  Time stamp start 1476358969501118205 end 1476358969486040505  Run 310473, LB 541, lumi 122.75
Event Veto ['MiniNoiseBurst'], Thu Oct 13 11:42:59 2016 UTC-Thu Oct 13 11:42:59 2016 UTC (0.010 )  Time stamp start 1476358979124368555 end 1476358979114368555  Run 310473, LB 541, lumi 81.41
Event Veto ['MiniNoiseBurst'], Thu Oct 13 11:43:11 2016 UTC-Thu Oct 13 11:43:11 2016 UTC (0.010 )  Time stamp start 1476358991419477295 end 1476358991409477295  Run 310473, LB 541, lumi 81.41
Event Veto ['MiniNoiseBurst'], Thu Oct 13 11:43:20 2016 UTC-Thu Oct 13 11:43:20 2016 UTC (0.010 )  Time stamp start 1476359000841982155 end 1476359000831982155  Run 310473, LB 541, lumi 81.41
Event Veto ['MiniNoiseBurst'], Thu Oct 13 11:43:37 2016 UTC-Thu Oct 13 11:43:37 2016 UTC (0.010 )  Time stamp start 1476359017431636705 end 1476359017421636705  Run 310473, LB 541, lumi 81.41
Event Veto ['MiniNoiseBurst'], Thu Oct 13 11:43:49 2016 UTC-Thu Oct 13 11:43:49 2016 UTC (0.010 )  Time stamp start 1476359029988927300 end 1476359029978927300  Run 310473, LB 542, lumi 81.32
Event Veto ['MiniNoiseBurst'], Thu Oct 13 11:44:03 2016 UTC-Thu Oct 13 11:44:03 2016 UTC (0.010 )  Time stamp start 1476359043220368250 end 1476359043210368250  Run 310473, LB 542, lumi 81.32
Event Veto ['MiniNoiseBurst'], Thu Oct 13 11:44:17 2016 UTC-Thu Oct 13 11:44:17 2016 UTC (0.010 )  Time stamp start 1476359057376269625 end 1476359057366269625  Run 310473, LB 543, lumi 81.27
Event Veto ['MiniNoiseBurst'], Thu Oct 13 11:44:27 2016 UTC-Thu Oct 13 11:44:27 2016 UTC (0.010 )  Time stamp start 1476359067780929650 end 1476359067770929480  Run 310473, LB 543, lumi 81.27
Event Veto ['MiniNoiseBurst'], Thu Oct 13 11:44:35 2016 UTC-Thu Oct 13 11:44:35 2016 UTC (0.010 )  Time stamp start 1476359075526393215 end 1476359075516393215  Run 310473, LB 543, lumi 81.27
Event Veto ['MiniNoiseBurst'], Thu Oct 13 11:44:45 2016 UTC-Thu Oct 13 11:44:45 2016 UTC (0.010 )  Time stamp start 1476359085928242565 end 1476359085918242390  Run 310473, LB 543, lumi 81.27
Event Veto ['MiniNoiseBurst'], Thu Oct 13 11:45:11 2016 UTC-Thu Oct 13 11:45:11 2016 UTC (0.010 )  Time stamp start 1476359111876524610 end 1476359111866524610  Run 310473, LB 544, lumi 81.21
Event Veto ['MiniNoiseBurst'], Thu Oct 13 11:45:25 2016 UTC-Thu Oct 13 11:45:25 2016 UTC (0.020 )  Time stamp start 1476359125684020140 end 1476359125664408690  Run 310473, LB 544, lumi 159.26
Event Veto ['MiniNoiseBurst'], Thu Oct 13 11:45:36 2016 UTC-Thu Oct 13 11:45:36 2016 UTC (0.010 )  Time stamp start 1476359136877108055 end 1476359136867108055  Run 310473, LB 544, lumi 81.21
Event Veto ['MiniNoiseBurst'], Thu Oct 13 11:45:48 2016 UTC-Thu Oct 13 11:45:48 2016 UTC (0.020 )  Time stamp start 1476359148088650415 end 1476359148068779325  Run 310473, LB 544, lumi 161.37
Event Veto ['MiniNoiseBurst'], Thu Oct 13 11:46:04 2016 UTC-Thu Oct 13 11:46:04 2016 UTC (0.010 )  Time stamp start 1476359164604886615 end 1476359164594886615  Run 310473, LB 544, lumi 81.21
Event Veto ['MiniNoiseBurst'], Thu Oct 13 11:46:18 2016 UTC-Thu Oct 13 11:46:18 2016 UTC (0.010 )  Time stamp start 1476359178312709220 end 1476359178302709220  Run 310473, LB 545, lumi 81.25
Event Veto ['MiniNoiseBurst'], Thu Oct 13 11:46:29 2016 UTC-Thu Oct 13 11:46:29 2016 UTC (0.022 )  Time stamp start 1476359189226866625 end 1476359189205162580  Run 310473, LB 545, lumi 176.34
Event Veto ['MiniNoiseBurst'], Thu Oct 13 11:46:47 2016 UTC-Thu Oct 13 11:46:47 2016 UTC (0.010 )  Time stamp start 1476359207834561705 end 1476359207824561705  Run 310473, LB 545, lumi 81.25
Event Veto ['MiniNoiseBurst'], Thu Oct 13 11:46:59 2016 UTC-Thu Oct 13 11:46:59 2016 UTC (0.010 )  Time stamp start 1476359219561373695 end 1476359219551373695  Run 310473, LB 545, lumi 81.25
Event Veto ['MiniNoiseBurst'], Thu Oct 13 11:47:13 2016 UTC-Thu Oct 13 11:47:13 2016 UTC (0.010 )  Time stamp start 1476359233107832510 end 1476359233097832510  Run 310473, LB 546, lumi 81.27
Event Veto ['MiniNoiseBurst'], Thu Oct 13 11:47:27 2016 UTC-Thu Oct 13 11:47:27 2016 UTC (0.010 )  Time stamp start 1476359247201544385 end 1476359247191544385  Run 310473, LB 546, lumi 81.27
Event Veto ['MiniNoiseBurst'], Thu Oct 13 11:47:44 2016 UTC-Thu Oct 13 11:47:44 2016 UTC (0.010 )  Time stamp start 1476359264073590135 end 1476359264063590135  Run 310473, LB 546, lumi 81.27
Event Veto ['MiniNoiseBurst'], Thu Oct 13 11:48:01 2016 UTC-Thu Oct 13 11:48:01 2016 UTC (0.010 )  Time stamp start 1476359281329025340 end 1476359281319025340  Run 310473, LB 546, lumi 81.27
Event Veto ['MiniNoiseBurst'], Thu Oct 13 11:48:14 2016 UTC-Thu Oct 13 11:48:14 2016 UTC (0.010 )  Time stamp start 1476359294081586735 end 1476359294071586735  Run 310473, LB 547, lumi 0.00
Event Veto ['MiniNoiseBurst'], Thu Oct 13 11:48:29 2016 UTC-Thu Oct 13 11:48:29 2016 UTC (0.010 )  Time stamp start 1476359309089199310 end 1476359309079199010  Run 310473, LB 547, lumi 0.00
Event Veto ['MiniNoiseBurst'], Thu Oct 13 11:48:39 2016 UTC-Thu Oct 13 11:48:39 2016 UTC (0.010 )  Time stamp start 1476359319951966770 end 1476359319941966770  Run 310473, LB 547, lumi 0.00
Event Veto ['MiniNoiseBurst'], Thu Oct 13 11:48:50 2016 UTC-Thu Oct 13 11:48:50 2016 UTC (0.010 )  Time stamp start 1476359330951243300 end 1476359330941243125  Run 310473, LB 547, lumi 0.00
Event Veto ['MiniNoiseBurst'], Thu Oct 13 11:49:34 2016 UTC-Thu Oct 13 11:49:34 2016 UTC (0.010 )  Time stamp start 1476359374024223495 end 1476359374014223495  Run 310473, LB 549, lumi 80.99
Event Veto ['MiniNoiseBurst'], Thu Oct 13 11:50:11 2016 UTC-Thu Oct 13 11:50:11 2016 UTC (0.010 )  Time stamp start 1476359411444661955 end 1476359411434661955  Run 310473, LB 549, lumi 80.99
Event Veto ['MiniNoiseBurst'], Thu Oct 13 11:50:28 2016 UTC-Thu Oct 13 11:50:28 2016 UTC (0.010 )  Time stamp start 1476359428597683700 end 1476359428587683700  Run 310473, LB 550, lumi 80.92
Event Veto ['MiniNoiseBurst'], Thu Oct 13 11:50:43 2016 UTC-Thu Oct 13 11:50:43 2016 UTC (0.010 )  Time stamp start 1476359443082761780 end 1476359443072761780  Run 310473, LB 550, lumi 80.92
Event Veto ['MiniNoiseBurst'], Thu Oct 13 11:51:01 2016 UTC-Thu Oct 13 11:51:01 2016 UTC (0.010 )  Time stamp start 1476359461594459335 end 1476359461584459335  Run 310473, LB 550, lumi 80.92
Event Veto ['MiniNoiseBurst'], Thu Oct 13 11:51:14 2016 UTC-Thu Oct 13 11:51:14 2016 UTC (0.010 )  Time stamp start 1476359474730303165 end 1476359474720303165  Run 310473, LB 550, lumi 80.92
Event Veto ['MiniNoiseBurst'], Thu Oct 13 11:51:21 2016 UTC-Thu Oct 13 11:51:21 2016 UTC (0.010 )  Time stamp start 1476359481884293185 end 1476359481874293185  Run 310473, LB 550, lumi 80.92
Event Veto ['MiniNoiseBurst'], Thu Oct 13 11:51:27 2016 UTC-Thu Oct 13 11:51:27 2016 UTC (0.010 )  Time stamp start 1476359487302191130 end 1476359487292190980  Run 310473, LB 551, lumi 80.87
Event Veto ['MiniNoiseBurst'], Thu Oct 13 11:51:32 2016 UTC-Thu Oct 13 11:51:32 2016 UTC (0.010 )  Time stamp start 1476359492676605445 end 1476359492666605145  Run 310473, LB 551, lumi 80.87
Event Veto ['MiniNoiseBurst'], Thu Oct 13 11:51:40 2016 UTC-Thu Oct 13 11:51:40 2016 UTC (0.010 )  Time stamp start 1476359500834385250 end 1476359500824385100  Run 310473, LB 551, lumi 80.87
Event Veto ['MiniNoiseBurst'], Thu Oct 13 11:51:47 2016 UTC-Thu Oct 13 11:51:47 2016 UTC (0.010 )  Time stamp start 1476359507887889285 end 1476359507877889285  Run 310473, LB 551, lumi 80.87
Event Veto ['MiniNoiseBurst'], Thu Oct 13 11:51:50 2016 UTC-Thu Oct 13 11:51:50 2016 UTC (0.010 )  Time stamp start 1476359510800862490 end 1476359510790862490  Run 310473, LB 551, lumi 80.87
Event Veto ['MiniNoiseBurst'], Thu Oct 13 11:51:57 2016 UTC-Thu Oct 13 11:51:57 2016 UTC (0.010 )  Time stamp start 1476359517575696580 end 1476359517565696430  Run 310473, LB 551, lumi 80.87
Event Veto ['MiniNoiseBurst'], Thu Oct 13 11:52:04 2016 UTC-Thu Oct 13 11:52:04 2016 UTC (0.010 )  Time stamp start 1476359524242716745 end 1476359524232716745  Run 310473, LB 551, lumi 80.87
Event Veto ['MiniNoiseBurst'], Thu Oct 13 11:52:09 2016 UTC-Thu Oct 13 11:52:09 2016 UTC (0.010 )  Time stamp start 1476359529357569830 end 1476359529347569830  Run 310473, LB 551, lumi 80.87
Event Veto ['MiniNoiseBurst'], Thu Oct 13 11:52:14 2016 UTC-Thu Oct 13 11:52:14 2016 UTC (0.010 )  Time stamp start 1476359534702346760 end 1476359534692346760  Run 310473, LB 551, lumi 80.87
Event Veto ['MiniNoiseBurst'], Thu Oct 13 11:52:23 2016 UTC-Thu Oct 13 11:52:23 2016 UTC (0.010 )  Time stamp start 1476359543328565410 end 1476359543318565110  Run 310473, LB 552, lumi 80.81
Event Veto ['MiniNoiseBurst'], Thu Oct 13 11:52:28 2016 UTC-Thu Oct 13 11:52:28 2016 UTC (0.010 )  Time stamp start 1476359548832495870 end 1476359548822495870  Run 310473, LB 552, lumi 80.81
Event Veto ['MiniNoiseBurst'], Thu Oct 13 11:52:33 2016 UTC-Thu Oct 13 11:52:33 2016 UTC (0.010 )  Time stamp start 1476359553149629315 end 1476359553139629315  Run 310473, LB 552, lumi 80.81
Event Veto ['MiniNoiseBurst'], Thu Oct 13 11:52:40 2016 UTC-Thu Oct 13 11:52:40 2016 UTC (0.010 )  Time stamp start 1476359560831954125 end 1476359560821954125  Run 310473, LB 552, lumi 80.81
Event Veto ['MiniNoiseBurst'], Thu Oct 13 11:52:45 2016 UTC-Thu Oct 13 11:52:45 2016 UTC (0.010 )  Time stamp start 1476359565180257005 end 1476359565170256830  Run 310473, LB 552, lumi 80.81
Event Veto ['MiniNoiseBurst'], Thu Oct 13 11:52:49 2016 UTC-Thu Oct 13 11:52:49 2016 UTC (0.010 )  Time stamp start 1476359569763819690 end 1476359569753819690  Run 310473, LB 552, lumi 80.81
Event Veto ['MiniNoiseBurst'], Thu Oct 13 11:52:57 2016 UTC-Thu Oct 13 11:52:57 2016 UTC (0.019 )  Time stamp start 1476359577499813895 end 1476359577481298430  Run 310473, LB 552, lumi 149.62
Event Veto ['MiniNoiseBurst'], Thu Oct 13 11:53:01 2016 UTC-Thu Oct 13 11:53:01 2016 UTC (0.010 )  Time stamp start 1476359581779108915 end 1476359581769108915  Run 310473, LB 552, lumi 80.81
Event Veto ['MiniNoiseBurst'], Thu Oct 13 11:53:09 2016 UTC-Thu Oct 13 11:53:09 2016 UTC (0.010 )  Time stamp start 1476359589610004105 end 1476359589600004105  Run 310473, LB 552, lumi 80.81
Event Veto ['MiniNoiseBurst'], Thu Oct 13 11:53:13 2016 UTC-Thu Oct 13 11:53:13 2016 UTC (0.014 )  Time stamp start 1476359593398473235 end 1476359593383986140  Run 310473, LB 552, lumi 117.07
Event Veto ['MiniNoiseBurst'], Thu Oct 13 11:53:19 2016 UTC-Thu Oct 13 11:53:19 2016 UTC (0.010 )  Time stamp start 1476359599209330810 end 1476359599199330660  Run 310473, LB 552, lumi 80.81
Event Veto ['MiniNoiseBurst'], Thu Oct 13 11:53:24 2016 UTC-Thu Oct 13 11:53:24 2016 UTC (0.010 )  Time stamp start 1476359604103108490 end 1476359604093108490  Run 310473, LB 553, lumi 80.71
Event Veto ['MiniNoiseBurst'], Thu Oct 13 11:53:32 2016 UTC-Thu Oct 13 11:53:32 2016 UTC (0.010 )  Time stamp start 1476359612157695700 end 1476359612147695700  Run 310473, LB 553, lumi 80.71
Event Veto ['MiniNoiseBurst'], Thu Oct 13 11:53:37 2016 UTC-Thu Oct 13 11:53:37 2016 UTC (0.010 )  Time stamp start 1476359617562428580 end 1476359617552428580  Run 310473, LB 553, lumi 80.71
Event Veto ['MiniNoiseBurst'], Thu Oct 13 11:53:44 2016 UTC-Thu Oct 13 11:53:44 2016 UTC (0.019 )  Time stamp start 1476359624954704385 end 1476359624935319240  Run 310473, LB 553, lumi 156.46
Event Veto ['MiniNoiseBurst'], Thu Oct 13 11:53:48 2016 UTC-Thu Oct 13 11:53:48 2016 UTC (0.010 )  Time stamp start 1476359628569420245 end 1476359628559419950  Run 310473, LB 553, lumi 80.71
Event Veto ['MiniNoiseBurst'], Thu Oct 13 11:53:55 2016 UTC-Thu Oct 13 11:53:55 2016 UTC (0.010 )  Time stamp start 1476359635555914705 end 1476359635545914705  Run 310473, LB 553, lumi 80.71
Event Veto ['MiniNoiseBurst'], Thu Oct 13 11:54:07 2016 UTC-Thu Oct 13 11:54:07 2016 UTC (0.010 )  Time stamp start 1476359647156113605 end 1476359647146113605  Run 310473, LB 553, lumi 80.71
Event Veto ['MiniNoiseBurst'], Thu Oct 13 11:54:12 2016 UTC-Thu Oct 13 11:54:12 2016 UTC (0.010 )  Time stamp start 1476359652616141095 end 1476359652606141095  Run 310473, LB 553, lumi 80.71
Event Veto ['MiniNoiseBurst'], Thu Oct 13 11:54:18 2016 UTC-Thu Oct 13 11:54:18 2016 UTC (0.010 )  Time stamp start 1476359658917062195 end 1476359658907062195  Run 310473, LB 553, lumi 80.71
Event Veto ['MiniNoiseBurst'], Thu Oct 13 11:54:25 2016 UTC-Thu Oct 13 11:54:25 2016 UTC (0.010 )  Time stamp start 1476359665394724255 end 1476359665384724255  Run 310473, LB 554, lumi 80.63
Event Veto ['MiniNoiseBurst'], Thu Oct 13 11:54:30 2016 UTC-Thu Oct 13 11:54:30 2016 UTC (0.010 )  Time stamp start 1476359670748015995 end 1476359670738015995  Run 310473, LB 554, lumi 80.63
Event Veto ['MiniNoiseBurst'], Thu Oct 13 11:54:39 2016 UTC-Thu Oct 13 11:54:39 2016 UTC (0.010 )  Time stamp start 1476359679074942930 end 1476359679064942780  Run 310473, LB 554, lumi 80.63
Event Veto ['MiniNoiseBurst'], Thu Oct 13 11:55:11 2016 UTC-Thu Oct 13 11:55:11 2016 UTC (0.010 )  Time stamp start 1476359711250363690 end 1476359711240363395  Run 310473, LB 555, lumi 80.59
Event Veto ['MiniNoiseBurst'], Thu Oct 13 11:55:17 2016 UTC-Thu Oct 13 11:55:17 2016 UTC (0.010 )  Time stamp start 1476359717832842140 end 1476359717822842140  Run 310473, LB 555, lumi 80.59
Event Veto ['MiniNoiseBurst'], Thu Oct 13 11:55:21 2016 UTC-Thu Oct 13 11:55:21 2016 UTC (0.010 )  Time stamp start 1476359721188679530 end 1476359721178679530  Run 310473, LB 555, lumi 80.59
Event Veto ['MiniNoiseBurst'], Thu Oct 13 11:55:26 2016 UTC-Thu Oct 13 11:55:26 2016 UTC (0.010 )  Time stamp start 1476359726830396085 end 1476359726820396085  Run 310473, LB 555, lumi 80.59
Event Veto ['MiniNoiseBurst'], Thu Oct 13 11:55:29 2016 UTC-Thu Oct 13 11:55:29 2016 UTC (0.010 )  Time stamp start 1476359729019303455 end 1476359729009303455  Run 310473, LB 555, lumi 80.59
Event Veto ['MiniNoiseBurst'], Thu Oct 13 11:55:32 2016 UTC-Thu Oct 13 11:55:32 2016 UTC (0.010 )  Time stamp start 1476359732779875880 end 1476359732769875880  Run 310473, LB 555, lumi 80.59
Event Veto ['MiniNoiseBurst'], Thu Oct 13 11:55:37 2016 UTC-Thu Oct 13 11:55:37 2016 UTC (0.019 )  Time stamp start 1476359737328357275 end 1476359737309475360  Run 310473, LB 555, lumi 152.17
Event Veto ['MiniNoiseBurst'], Thu Oct 13 11:55:41 2016 UTC-Thu Oct 13 11:55:41 2016 UTC (0.010 )  Time stamp start 1476359741645055400 end 1476359741635055400  Run 310473, LB 555, lumi 80.59
Event Veto ['MiniNoiseBurst'], Thu Oct 13 11:55:45 2016 UTC-Thu Oct 13 11:55:45 2016 UTC (0.010 )  Time stamp start 1476359745199383710 end 1476359745189383710  Run 310473, LB 555, lumi 80.59
Event Veto ['MiniNoiseBurst'], Thu Oct 13 11:55:49 2016 UTC-Thu Oct 13 11:55:49 2016 UTC (0.014 )  Time stamp start 1476359749277117970 end 1476359749263423040  Run 310473, LB 555, lumi 110.37
Event Veto ['MiniNoiseBurst'], Thu Oct 13 11:55:59 2016 UTC-Thu Oct 13 11:55:59 2016 UTC (0.010 )  Time stamp start 1476359759869076380 end 1476359759859076380  Run 310473, LB 555, lumi 80.59
Event Veto ['MiniNoiseBurst'], Thu Oct 13 11:56:09 2016 UTC-Thu Oct 13 11:56:09 2016 UTC (0.010 )  Time stamp start 1476359769256548240 end 1476359769246548240  Run 310473, LB 556, lumi 80.50
Event Veto ['MiniNoiseBurst'], Thu Oct 13 11:56:17 2016 UTC-Thu Oct 13 11:56:17 2016 UTC (0.010 )  Time stamp start 1476359777068319710 end 1476359777058319565  Run 310473, LB 556, lumi 80.50
Event Veto ['MiniNoiseBurst'], Thu Oct 13 11:56:23 2016 UTC-Thu Oct 13 11:56:23 2016 UTC (0.010 )  Time stamp start 1476359783148792415 end 1476359783138792415  Run 310473, LB 556, lumi 80.50
Event Veto ['NoiseBurst'], Thu Oct 13 11:56:30 2016 UTC-Thu Oct 13 11:56:30 2016 UTC (0.018 )  Time stamp start 1476359790142041335 end 1476359790124517990  Run 310473, LB 556, lumi 141.06
Event Veto ['MiniNoiseBurst'], Thu Oct 13 11:56:38 2016 UTC-Thu Oct 13 11:56:38 2016 UTC (0.010 )  Time stamp start 1476359798374940880 end 1476359798364940880  Run 310473, LB 556, lumi 80.50
Event Veto ['MiniNoiseBurst'], Thu Oct 13 11:56:47 2016 UTC-Thu Oct 13 11:56:47 2016 UTC (0.010 )  Time stamp start 1476359807390207605 end 1476359807380207605  Run 310473, LB 556, lumi 80.50
Event Veto ['MiniNoiseBurst'], Thu Oct 13 11:57:01 2016 UTC-Thu Oct 13 11:57:01 2016 UTC (0.010 )  Time stamp start 1476359821752688940 end 1476359821742688940  Run 310473, LB 556, lumi 80.50
Event Veto ['MiniNoiseBurst'], Thu Oct 13 11:57:07 2016 UTC-Thu Oct 13 11:57:07 2016 UTC (0.010 )  Time stamp start 1476359827214753460 end 1476359827204753460  Run 310473, LB 557, lumi 80.42
Event Veto ['MiniNoiseBurst'], Thu Oct 13 11:57:15 2016 UTC-Thu Oct 13 11:57:15 2016 UTC (0.010 )  Time stamp start 1476359835188182820 end 1476359835178182820  Run 310473, LB 557, lumi 80.42
Event Veto ['MiniNoiseBurst'], Thu Oct 13 11:57:26 2016 UTC-Thu Oct 13 11:57:26 2016 UTC (0.010 )  Time stamp start 1476359846098950330 end 1476359846088950030  Run 310473, LB 557, lumi 80.42
Event Veto ['MiniNoiseBurst'], Thu Oct 13 11:57:37 2016 UTC-Thu Oct 13 11:57:37 2016 UTC (0.010 )  Time stamp start 1476359857849183095 end 1476359857839183095  Run 310473, LB 557, lumi 80.42
Event Veto ['MiniNoiseBurst'], Thu Oct 13 11:57:45 2016 UTC-Thu Oct 13 11:57:45 2016 UTC (0.010 )  Time stamp start 1476359865319302610 end 1476359865309302610  Run 310473, LB 557, lumi 80.42
Event Veto ['MiniNoiseBurst'], Thu Oct 13 11:57:55 2016 UTC-Thu Oct 13 11:57:55 2016 UTC (0.010 )  Time stamp start 1476359875185681045 end 1476359875175681045  Run 310473, LB 557, lumi 80.42
Event Veto ['MiniNoiseBurst'], Thu Oct 13 11:58:03 2016 UTC-Thu Oct 13 11:58:03 2016 UTC (0.010 )  Time stamp start 1476359883019865590 end 1476359883009865290  Run 310473, LB 557, lumi 80.42
Event Veto ['MiniNoiseBurst'], Thu Oct 13 11:58:13 2016 UTC-Thu Oct 13 11:58:13 2016 UTC (0.010 )  Time stamp start 1476359893668054660 end 1476359893658054660  Run 310473, LB 558, lumi 80.32
Event Veto ['MiniNoiseBurst'], Thu Oct 13 11:58:22 2016 UTC-Thu Oct 13 11:58:22 2016 UTC (0.010 )  Time stamp start 1476359902955428840 end 1476359902945428840  Run 310473, LB 558, lumi 80.32
Event Veto ['MiniNoiseBurst'], Thu Oct 13 11:58:35 2016 UTC-Thu Oct 13 11:58:35 2016 UTC (0.010 )  Time stamp start 1476359915802209280 end 1476359915792209280  Run 310473, LB 558, lumi 80.32
Event Veto ['MiniNoiseBurst'], Thu Oct 13 11:58:43 2016 UTC-Thu Oct 13 11:58:43 2016 UTC (0.010 )  Time stamp start 1476359923448081555 end 1476359923438081555  Run 310473, LB 558, lumi 80.32
Event Veto ['MiniNoiseBurst'], Thu Oct 13 11:58:52 2016 UTC-Thu Oct 13 11:58:52 2016 UTC (0.010 )  Time stamp start 1476359932937912180 end 1476359932927912180  Run 310473, LB 558, lumi 80.32
Event Veto ['MiniNoiseBurst'], Thu Oct 13 11:58:59 2016 UTC-Thu Oct 13 11:58:59 2016 UTC (0.010 )  Time stamp start 1476359939209371795 end 1476359939199371795  Run 310473, LB 558, lumi 80.32
Event Veto ['MiniNoiseBurst'], Thu Oct 13 11:59:05 2016 UTC-Thu Oct 13 11:59:05 2016 UTC (0.012 )  Time stamp start 1476359945132885300 end 1476359945121121560  Run 310473, LB 559, lumi 94.39
Event Veto ['MiniNoiseBurst'], Thu Oct 13 11:59:15 2016 UTC-Thu Oct 13 11:59:15 2016 UTC (0.010 )  Time stamp start 1476359955208307025 end 1476359955198307025  Run 310473, LB 559, lumi 80.24
Event Veto ['MiniNoiseBurst'], Thu Oct 13 11:59:27 2016 UTC-Thu Oct 13 11:59:27 2016 UTC (0.010 )  Time stamp start 1476359967972619680 end 1476359967962619680  Run 310473, LB 559, lumi 80.24
Event Veto ['MiniNoiseBurst'], Thu Oct 13 11:59:37 2016 UTC-Thu Oct 13 11:59:37 2016 UTC (0.010 )  Time stamp start 1476359977898518380 end 1476359977888518380  Run 310473, LB 559, lumi 80.24
Event Veto ['MiniNoiseBurst'], Thu Oct 13 11:59:49 2016 UTC-Thu Oct 13 11:59:49 2016 UTC (0.010 )  Time stamp start 1476359989491244285 end 1476359989481244110  Run 310473, LB 559, lumi 80.24
Event Veto ['MiniNoiseBurst'], Thu Oct 13 12:00:01 2016 UTC-Thu Oct 13 12:00:01 2016 UTC (0.010 )  Time stamp start 1476360001620442015 end 1476360001610442015  Run 310473, LB 559, lumi 80.24
Event Veto ['MiniNoiseBurst'], Thu Oct 13 12:00:09 2016 UTC-Thu Oct 13 12:00:09 2016 UTC (0.010 )  Time stamp start 1476360009501333175 end 1476360009491333175  Run 310473, LB 560, lumi 80.19
Event Veto ['MiniNoiseBurst'], Thu Oct 13 12:00:19 2016 UTC-Thu Oct 13 12:00:19 2016 UTC (0.010 )  Time stamp start 1476360019195218010 end 1476360019185217710  Run 310473, LB 560, lumi 80.19
Event Veto ['MiniNoiseBurst'], Thu Oct 13 12:00:40 2016 UTC-Thu Oct 13 12:00:40 2016 UTC (0.010 )  Time stamp start 1476360040819485415 end 1476360040809485415  Run 310473, LB 560, lumi 80.19
Event Veto ['MiniNoiseBurst'], Thu Oct 13 12:00:57 2016 UTC-Thu Oct 13 12:00:57 2016 UTC (0.010 )  Time stamp start 1476360057778612820 end 1476360057768612820  Run 310473, LB 560, lumi 80.19
Event Veto ['MiniNoiseBurst'], Thu Oct 13 12:01:09 2016 UTC-Thu Oct 13 12:01:09 2016 UTC (0.020 )  Time stamp start 1476360069847801450 end 1476360069827816860  Run 310473, LB 561, lumi 160.07
Event Veto ['MiniNoiseBurst'], Thu Oct 13 12:01:26 2016 UTC-Thu Oct 13 12:01:26 2016 UTC (0.010 )  Time stamp start 1476360086378041055 end 1476360086368041055  Run 310473, LB 561, lumi 80.10
Event Veto ['MiniNoiseBurst'], Thu Oct 13 12:01:37 2016 UTC-Thu Oct 13 12:01:37 2016 UTC (0.010 )  Time stamp start 1476360097956521230 end 1476360097946521230  Run 310473, LB 561, lumi 80.10
Event Veto ['MiniNoiseBurst'], Thu Oct 13 12:02:01 2016 UTC-Thu Oct 13 12:02:01 2016 UTC (0.010 )  Time stamp start 1476360121738526665 end 1476360121728526365  Run 310473, LB 561, lumi 80.10
Found a total of 1 noisy periods, covering a total of 0.02 seconds
Found a total of 137 Mini noise periods, covering a total of 1.46 seconds
Lumi loss due to noise-bursts: 0.14 nb-1 out of 251962.13 nb-1 (0.00 per-mil)
Lumi loss due to mini-noise-bursts: 11.51 nb-1 out of 251962.13 nb-1 (0.05 per-mil)
Overall Lumi loss is 11.6470273335 by 1.47936417 s of veto length
