Warning in <TInterpreter::ReadRootmapFile>: class  SG::GenericElementLinkBase<SG::IdentContIndexingPolicy<Muon::MuonPrepDataContainer<Muon::MuonPrepDataCollection<Muon::MdtPrepData> > > > found in MuonRIO_OnTrackDict.so  is already in iMuGirlStauDict.so 
Warning in <TInterpreter::ReadRootmapFile>: class  pair<unsigned int,double> found in CaloEventDict.so  is already in libPileupReweightingLib.so 
Warning in <TInterpreter::ReadRootmapFile>: class  L1CaloCoolChannelId found in TrigT1CaloCalibConditionsDict.so  is already in LArMonitoringDict.so 
Warning in <TInterpreter::ReadRootmapFile>: class  pair<unsigned int,unsigned int> found in AtlasSTLAddReflexDict.so  is already in libPileupReweightingLib.so 
Warning in <TInterpreter::ReadRootmapFile>: class  pair<int,float> found in libCore.so  is already in AtlasSTLAddReflexDict.so 
Warning in <TInterpreter::ReadRootmapFile>: class  pair<string,double> found in libCore.so  is already in AtlasSTLAddReflexDict.so 
Warning in <TInterpreter::ReadRootmapFile>: class  ROOT::Math::LorentzVector<ROOT::Math::PtEtaPhiM4D<double> > found in libGenVector.so  is already in xAODCoreAthenaDict.so 
Warning in <TInterpreter::ReadRootmapFile>: class  ROOT::Math::PtEtaPhiM4D<double> found in libGenVector.so  is already in xAODCoreAthenaDict.so 
Reading event veto info from db oracle://ATLAS_COOLPROD;schema=ATLAS_COOLOFL_LAR;dbname=CONDBR2, tag LARBadChannelsOflEventVeto-RUN2-UPD4-04  Run 302347 to 302347
Reading folder /LAR/BadChannelsOfl/EventVeto from DB oracle://ATLAS_COOLPROD;schema=ATLAS_COOLOFL_LAR;dbname=CONDBR2
Data source lookup using /cvmfs/atlas.cern.ch/repo/sw/software/x86_64-slc6-gcc49-opt/20.7.5/AtlasCore/20.7.5/InstallArea/XML/AtlasAuthentication/dblookup.xml file
Dumping EventVeto data from run 302347 to run 302347  lasting from Sat Jun 18 16:43:02 2016 UTC to Sun Jun 19 03:45:16 2016 UTC
Event Veto ['NoiseBurst'], Sat Jun 18 18:44:50 2016 UTC-Sat Jun 18 18:44:50 2016 UTC (0.018 )  Run 302347, LB 129 (1466275490277044736.000000,1466275490258848256.000000)
Event Veto ['NoiseBurst'], Sat Jun 18 18:45:34 2016 UTC-Sat Jun 18 18:45:34 2016 UTC (0.012 )  Run 302347, LB 130 (1466275534164420608.000000,1466275534152620288.000000)
Event Veto ['NoiseBurst'], Sat Jun 18 18:45:39 2016 UTC-Sat Jun 18 18:45:39 2016 UTC (0.010 )  Run 302347, LB 130 (1466275539934689024.000000,1466275539924688384.000000)
Event Veto ['NoiseBurst'], Sat Jun 18 18:46:05 2016 UTC-Sat Jun 18 18:46:05 2016 UTC (0.019 )  Run 302347, LB 130 (1466275565057329408.000000,1466275565038575104.000000)
Event Veto ['NoiseBurst'], Sat Jun 18 18:47:44 2016 UTC-Sat Jun 18 18:47:44 2016 UTC (0.010 )  Run 302347, LB 132 (1466275664616038400.000000,1466275664606036736.000000)
Event Veto ['NoiseBurst'], Sat Jun 18 18:48:42 2016 UTC-Sat Jun 18 18:48:42 2016 UTC (0.015 )  Run 302347, LB 133 (1466275722680486144.000000,1466275722665811712.000000)
Event Veto ['NoiseBurst'], Sat Jun 18 18:49:07 2016 UTC-Sat Jun 18 18:49:07 2016 UTC (0.010 )  Run 302347, LB 133 (1466275747509419264.000000,1466275747498932736.000000)
Event Veto ['NoiseBurst'], Sat Jun 18 18:49:17 2016 UTC-Sat Jun 18 18:49:17 2016 UTC (0.010 )  Run 302347, LB 133 (1466275757253281536.000000,1466275757243281152.000000)
Event Veto ['NoiseBurst'], Sat Jun 18 18:49:31 2016 UTC-Sat Jun 18 18:49:31 2016 UTC (0.010 )  Run 302347, LB 134 (1466275771307319296.000000,1466275771297318656.000000)
Event Veto ['NoiseBurst'], Sat Jun 18 18:49:50 2016 UTC-Sat Jun 18 18:49:50 2016 UTC (0.018 )  Run 302347, LB 134 (1466275790020429312.000000,1466275790002345984.000000)
Event Veto ['NoiseBurst'], Sat Jun 18 18:50:02 2016 UTC-Sat Jun 18 18:50:02 2016 UTC (0.010 )  Run 302347, LB 134 (1466275802471964160.000000,1466275802461963520.000000)
Event Veto ['NoiseBurst'], Sat Jun 18 18:51:55 2016 UTC-Sat Jun 18 18:51:55 2016 UTC (0.010 )  Run 302347, LB 136 (1466275915447173120.000000,1466275915437172224.000000)
Event Veto ['NoiseBurst'], Sat Jun 18 18:55:38 2016 UTC-Sat Jun 18 18:55:38 2016 UTC (0.010 )  Run 302347, LB 140 (1466276138713019904.000000,1466276138703019264.000000)
Event Veto ['NoiseBurst'], Sat Jun 18 18:55:45 2016 UTC-Sat Jun 18 18:55:45 2016 UTC (0.010 )  Run 302347, LB 140 (1466276145648730880.000000,1466276145638729984.000000)
Event Veto ['NoiseBurst'], Sat Jun 18 18:56:22 2016 UTC-Sat Jun 18 18:56:22 2016 UTC (0.010 )  Run 302347, LB 141 (1466276182572962816.000000,1466276182562826496.000000)
Event Veto ['NoiseBurst'], Sat Jun 18 18:56:26 2016 UTC-Sat Jun 18 18:56:26 2016 UTC (0.019 )  Run 302347, LB 141 (1466276186030942720.000000,1466276186012326144.000000)
Event Veto ['NoiseBurst'], Sat Jun 18 19:00:24 2016 UTC-Sat Jun 18 19:00:24 2016 UTC (0.010 )  Run 302347, LB 145 (1466276424926024192.000000,1466276424916023552.000000)
Event Veto ['NoiseBurst'], Sat Jun 18 19:01:14 2016 UTC-Sat Jun 18 19:01:14 2016 UTC (0.012 )  Run 302347, LB 146 (1466276474376932608.000000,1466276474364459776.000000)
Event Veto ['NoiseBurst'], Sat Jun 18 19:01:25 2016 UTC-Sat Jun 18 19:01:25 2016 UTC (0.010 )  Run 302347, LB 147 (1466276485977161472.000000,1466276485967160832.000000)
Event Veto ['NoiseBurst'], Sat Jun 18 19:02:41 2016 UTC-Sat Jun 18 19:02:41 2016 UTC (0.011 )  Run 302347, LB 148 (1466276561284035840.000000,1466276561272807424.000000)
Event Veto ['NoiseBurst'], Sat Jun 18 19:03:06 2016 UTC-Sat Jun 18 19:03:06 2016 UTC (0.011 )  Run 302347, LB 148 (1466276586639284480.000000,1466276586628063232.000000)
Event Veto ['NoiseBurst'], Sat Jun 18 19:12:01 2016 UTC-Sat Jun 18 19:12:01 2016 UTC (0.019 )  Run 302347, LB 161 (1466277121695291392.000000,1466277121676600832.000000)
Event Veto ['NoiseBurst'], Sat Jun 18 19:13:59 2016 UTC-Sat Jun 18 19:13:59 2016 UTC (0.014 )  Run 302347, LB 163 (1466277239542437888.000000,1466277239528259072.000000)
Event Veto ['NoiseBurst'], Sat Jun 18 19:20:54 2016 UTC-Sat Jun 18 19:20:54 2016 UTC (0.015 )  Run 302347, LB 170 (1466277654952206080.000000,1466277654937437952.000000)
Event Veto ['NoiseBurst'], Sat Jun 18 19:22:30 2016 UTC-Sat Jun 18 19:22:30 2016 UTC (0.010 )  Run 302347, LB 171 (1466277750088467968.000000,1466277750078467584.000000)
Event Veto ['NoiseBurst'], Sat Jun 18 19:27:38 2016 UTC-Sat Jun 18 19:27:38 2016 UTC (0.010 )  Run 302347, LB 177 (1466278058525876224.000000,1466278058515875840.000000)
Event Veto ['NoiseBurst'], Sat Jun 18 19:29:39 2016 UTC-Sat Jun 18 19:29:39 2016 UTC (0.010 )  Run 302347, LB 179 (1466278179789418752.000000,1466278179778932224.000000)
Event Veto ['NoiseBurst'], Sat Jun 18 19:30:27 2016 UTC-Sat Jun 18 19:30:27 2016 UTC (0.010 )  Run 302347, LB 179 (1466278227041325568.000000,1466278227031324928.000000)
Event Veto ['NoiseBurst'], Sat Jun 18 19:30:52 2016 UTC-Sat Jun 18 19:30:52 2016 UTC (0.010 )  Run 302347, LB 180 (1466278252427720960.000000,1466278252417720320.000000)
Event Veto ['NoiseBurst'], Sat Jun 18 19:30:53 2016 UTC-Sat Jun 18 19:30:54 2016 UTC (0.022 )  Run 302347, LB 180 (1466278254010711296.000000,1466278253988428288.000000)
Event Veto ['NoiseBurst'], Sat Jun 18 19:33:00 2016 UTC-Sat Jun 18 19:33:00 2016 UTC (0.010 )  Run 302347, LB 182 (1466278380990720000.000000,1466278380980719360.000000)
Event Veto ['NoiseBurst'], Sat Jun 18 19:40:09 2016 UTC-Sat Jun 18 19:40:09 2016 UTC (0.011 )  Run 302347, LB 193 (1466278809920035840.000000,1466278809909253120.000000)
Event Veto ['NoiseBurst'], Sat Jun 18 19:45:56 2016 UTC-Sat Jun 18 19:45:56 2016 UTC (0.010 )  Run 302347, LB 199 (1466279156328074496.000000,1466279156318073856.000000)
Event Veto ['NoiseBurst'], Sat Jun 18 19:51:39 2016 UTC-Sat Jun 18 19:51:39 2016 UTC (0.016 )  Run 302347, LB 205 (1466279499511625472.000000,1466279499495561472.000000)
Event Veto ['NoiseBurst'], Sat Jun 18 19:53:18 2016 UTC-Sat Jun 18 19:53:18 2016 UTC (0.010 )  Run 302347, LB 206 (1466279598500567040.000000,1466279598490250240.000000)
Event Veto ['NoiseBurst'], Sat Jun 18 20:01:28 2016 UTC-Sat Jun 18 20:01:28 2016 UTC (0.010 )  Run 302347, LB 214 (1466280088602226176.000000,1466280088591917568.000000)
Event Veto ['NoiseBurst'], Sat Jun 18 20:04:44 2016 UTC-Sat Jun 18 20:04:44 2016 UTC (0.010 )  Run 302347, LB 218 (1466280284953583616.000000,1466280284943582976.000000)
Event Veto ['NoiseBurst'], Sat Jun 18 20:05:38 2016 UTC-Sat Jun 18 20:05:38 2016 UTC (0.010 )  Run 302347, LB 219 (1466280338251662336.000000,1466280338241289472.000000)
Event Veto ['NoiseBurst'], Sat Jun 18 20:17:16 2016 UTC-Sat Jun 18 20:17:16 2016 UTC (0.010 )  Run 302347, LB 231 (1466281036438958592.000000,1466281036428956928.000000)
Event Veto ['NoiseBurst'], Sat Jun 18 20:23:34 2016 UTC-Sat Jun 18 20:23:34 2016 UTC (0.010 )  Run 302347, LB 238 (1466281414117049344.000000,1466281414106814976.000000)
Event Veto ['NoiseBurst'], Sat Jun 18 20:35:54 2016 UTC-Sat Jun 18 20:35:54 2016 UTC (0.010 )  Run 302347, LB 251 (1466282154622411776.000000,1466282154612408832.000000)
Event Veto ['NoiseBurst'], Sat Jun 18 20:35:59 2016 UTC-Sat Jun 18 20:35:59 2016 UTC (0.010 )  Run 302347, LB 251 (1466282159805185536.000000,1466282159795184896.000000)
Event Veto ['NoiseBurst'], Sat Jun 18 20:41:22 2016 UTC-Sat Jun 18 20:41:22 2016 UTC (0.011 )  Run 302347, LB 257 (1466282482645981952.000000,1466282482635317248.000000)
Event Veto ['NoiseBurst'], Sat Jun 18 20:47:14 2016 UTC-Sat Jun 18 20:47:14 2016 UTC (0.010 )  Run 302347, LB 262 (1466282834918760960.000000,1466282834908644352.000000)
Event Veto ['NoiseBurst'], Sat Jun 18 21:01:17 2016 UTC-Sat Jun 18 21:01:17 2016 UTC (0.016 )  Run 302347, LB 279 (1466283677232753664.000000,1466283677216562432.000000)
Event Veto ['NoiseBurst'], Sat Jun 18 21:36:21 2016 UTC-Sat Jun 18 21:36:21 2016 UTC (0.010 )  Run 302347, LB 315 (1466285781723606016.000000,1466285781713605376.000000)
Event Veto ['NoiseBurst'], Sat Jun 18 21:38:39 2016 UTC-Sat Jun 18 21:38:39 2016 UTC (0.010 )  Run 302347, LB 318 (1466285919973382912.000000,1466285919963382784.000000)
Event Veto ['NoiseBurst'], Sat Jun 18 21:40:44 2016 UTC-Sat Jun 18 21:40:44 2016 UTC (0.010 )  Run 302347, LB 320 (1466286044036288768.000000,1466286044025923840.000000)
Event Veto ['NoiseBurst'], Sat Jun 18 21:41:21 2016 UTC-Sat Jun 18 21:41:21 2016 UTC (0.010 )  Run 302347, LB 320 (1466286081809519616.000000,1466286081799518720.000000)
Event Veto ['NoiseBurst'], Sat Jun 18 21:41:35 2016 UTC-Sat Jun 18 21:41:35 2016 UTC (0.010 )  Run 302347, LB 320 (1466286095589085952.000000,1466286095579085056.000000)
Event Veto ['NoiseBurst'], Sat Jun 18 21:41:40 2016 UTC-Sat Jun 18 21:41:40 2016 UTC (0.010 )  Run 302347, LB 321 (1466286100365495296.000000,1466286100355494656.000000)
Event Veto ['NoiseBurst'], Sat Jun 18 21:43:32 2016 UTC-Sat Jun 18 21:43:32 2016 UTC (0.010 )  Run 302347, LB 322 (1466286212661122560.000000,1466286212650813696.000000)
Event Veto ['NoiseBurst'], Sat Jun 18 21:52:11 2016 UTC-Sat Jun 18 21:52:11 2016 UTC (0.010 )  Run 302347, LB 331 (1466286731787059968.000000,1466286731777059328.000000)
Event Veto ['NoiseBurst'], Sat Jun 18 22:06:48 2016 UTC-Sat Jun 18 22:06:48 2016 UTC (0.011 )  Run 302347, LB 346 (1466287608337582080.000000,1466287608326881280.000000)
Event Veto ['NoiseBurst'], Sat Jun 18 22:06:49 2016 UTC-Sat Jun 18 22:06:49 2016 UTC (0.010 )  Run 302347, LB 346 (1466287609612748032.000000,1466287609602270464.000000)
Event Veto ['NoiseBurst'], Sat Jun 18 22:07:12 2016 UTC-Sat Jun 18 22:07:12 2016 UTC (0.010 )  Run 302347, LB 346 (1466287632393614080.000000,1466287632383613440.000000)
Event Veto ['NoiseBurst'], Sat Jun 18 22:27:01 2016 UTC-Sat Jun 18 22:27:01 2016 UTC (0.010 )  Run 302347, LB 366 (1466288821922678016.000000,1466288821912621312.000000)
Event Veto ['NoiseBurst'], Sat Jun 18 22:42:31 2016 UTC-Sat Jun 18 22:42:31 2016 UTC (0.013 )  Run 302347, LB 383 (1466289751109550848.000000,1466289751096887040.000000)
Event Veto ['NoiseBurst'], Sat Jun 18 22:49:40 2016 UTC-Sat Jun 18 22:49:40 2016 UTC (0.010 )  Run 302347, LB 390 (1466290180229104896.000000,1466290180218762752.000000)
Event Veto ['NoiseBurst'], Sat Jun 18 23:03:17 2016 UTC-Sat Jun 18 23:03:17 2016 UTC (0.010 )  Run 302347, LB 405 (1466290997292605184.000000,1466290997282605056.000000)
Event Veto ['NoiseBurst'], Sat Jun 18 23:10:10 2016 UTC-Sat Jun 18 23:10:10 2016 UTC (0.011 )  Run 302347, LB 412 (1466291410896186112.000000,1466291410885513216.000000)
Event Veto ['NoiseBurst'], Sat Jun 18 23:13:28 2016 UTC-Sat Jun 18 23:13:28 2016 UTC (0.010 )  Run 302347, LB 415 (1466291608259223808.000000,1466291608249223680.000000)
Event Veto ['NoiseBurst'], Sat Jun 18 23:15:18 2016 UTC-Sat Jun 18 23:15:18 2016 UTC (0.010 )  Run 302347, LB 417 (1466291718444118528.000000,1466291718434118144.000000)
Event Veto ['NoiseBurst'], Sat Jun 18 23:16:34 2016 UTC-Sat Jun 18 23:16:34 2016 UTC (0.010 )  Run 302347, LB 418 (1466291794361663488.000000,1466291794351663104.000000)
Event Veto ['NoiseBurst'], Sat Jun 18 23:16:37 2016 UTC-Sat Jun 18 23:16:37 2016 UTC (0.010 )  Run 302347, LB 418 (1466291797708775936.000000,1466291797698486528.000000)
Event Veto ['NoiseBurst'], Sat Jun 18 23:33:08 2016 UTC-Sat Jun 18 23:33:08 2016 UTC (0.010 )  Run 302347, LB 437 (1466292788613937152.000000,1466292788603936512.000000)
Event Veto ['NoiseBurst'], Sat Jun 18 23:34:16 2016 UTC-Sat Jun 18 23:34:16 2016 UTC (0.010 )  Run 302347, LB 438 (1466292856028294400.000000,1466292856018027008.000000)
Event Veto ['NoiseBurst'], Sat Jun 18 23:42:30 2016 UTC-Sat Jun 18 23:42:30 2016 UTC (0.010 )  Run 302347, LB 446 (1466293350851977984.000000,1466293350841965824.000000)
Event Veto ['NoiseBurst'], Sat Jun 18 23:47:43 2016 UTC-Sat Jun 18 23:47:43 2016 UTC (0.010 )  Run 302347, LB 451 (1466293663416946176.000000,1466293663406837248.000000)
Event Veto ['NoiseBurst'], Sat Jun 18 23:53:05 2016 UTC-Sat Jun 18 23:53:05 2016 UTC (0.010 )  Run 302347, LB 457 (1466293985160029696.000000,1466293985150029056.000000)
Event Veto ['NoiseBurst'], Sun Jun 19 00:07:57 2016 UTC-Sun Jun 19 00:07:57 2016 UTC (0.010 )  Run 302347, LB 472 (1466294877512537856.000000,1466294877502329856.000000)
Event Veto ['NoiseBurst'], Sun Jun 19 00:08:56 2016 UTC-Sun Jun 19 00:08:56 2016 UTC (0.016 )  Run 302347, LB 473 (1466294936740512768.000000,1466294936724484352.000000)
Event Veto ['NoiseBurst'], Sun Jun 19 00:21:19 2016 UTC-Sun Jun 19 00:21:19 2016 UTC (0.010 )  Run 302347, LB 490 (1466295679497982464.000000,1466295679487838208.000000)
Event Veto ['NoiseBurst'], Sun Jun 19 00:26:35 2016 UTC-Sun Jun 19 00:26:35 2016 UTC (0.010 )  Run 302347, LB 496 (1466295995741693696.000000,1466295995731552000.000000)
Event Veto ['NoiseBurst'], Sun Jun 19 00:27:25 2016 UTC-Sun Jun 19 00:27:25 2016 UTC (0.010 )  Run 302347, LB 496 (1466296045314200320.000000,1466296045304199424.000000)
Event Veto ['NoiseBurst'], Sun Jun 19 00:28:26 2016 UTC-Sun Jun 19 00:28:26 2016 UTC (0.010 )  Run 302347, LB 497 (1466296106329339136.000000,1466296106319093760.000000)
Event Veto ['NoiseBurst'], Sun Jun 19 00:42:25 2016 UTC-Sun Jun 19 00:42:25 2016 UTC (0.010 )  Run 302347, LB 514 (1466296945735511296.000000,1466296945725510656.000000)
Event Veto ['NoiseBurst'], Sun Jun 19 00:43:49 2016 UTC-Sun Jun 19 00:43:49 2016 UTC (0.010 )  Run 302347, LB 515 (1466297029110803200.000000,1466297029100688128.000000)
Event Veto ['NoiseBurst'], Sun Jun 19 00:54:47 2016 UTC-Sun Jun 19 00:54:47 2016 UTC (0.010 )  Run 302347, LB 528 (1466297687888113152.000000,1466297687877782528.000000)
Event Veto ['NoiseBurst'], Sun Jun 19 00:54:55 2016 UTC-Sun Jun 19 00:54:55 2016 UTC (0.010 )  Run 302347, LB 528 (1466297695869729792.000000,1466297695859492608.000000)
Event Veto ['NoiseBurst'], Sun Jun 19 01:05:28 2016 UTC-Sun Jun 19 01:05:28 2016 UTC (0.010 )  Run 302347, LB 539 (1466298328256952064.000000,1466298328246951424.000000)
Event Veto ['NoiseBurst'], Sun Jun 19 01:08:06 2016 UTC-Sun Jun 19 01:08:06 2016 UTC (0.010 )  Run 302347, LB 542 (1466298486502593280.000000,1466298486492249344.000000)
Event Veto ['NoiseBurst'], Sun Jun 19 01:13:11 2016 UTC-Sun Jun 19 01:13:11 2016 UTC (0.010 )  Run 302347, LB 547 (1466298791237830400.000000,1466298791227829760.000000)
Event Veto ['NoiseBurst'], Sun Jun 19 01:13:26 2016 UTC-Sun Jun 19 01:13:26 2016 UTC (0.010 )  Run 302347, LB 547 (1466298806523504640.000000,1466298806513186304.000000)
Event Veto ['NoiseBurst'], Sun Jun 19 01:16:23 2016 UTC-Sun Jun 19 01:16:23 2016 UTC (0.010 )  Run 302347, LB 550 (1466298983271897088.000000,1466298983261593856.000000)
Event Veto ['NoiseBurst'], Sun Jun 19 01:25:00 2016 UTC-Sun Jun 19 01:25:00 2016 UTC (0.010 )  Run 302347, LB 558 (1466299500459295232.000000,1466299500449294592.000000)
Event Veto ['NoiseBurst'], Sun Jun 19 01:31:53 2016 UTC-Sun Jun 19 01:31:53 2016 UTC (0.010 )  Run 302347, LB 565 (1466299913524191488.000000,1466299913514191104.000000)
Event Veto ['NoiseBurst'], Sun Jun 19 01:32:42 2016 UTC-Sun Jun 19 01:32:42 2016 UTC (0.010 )  Run 302347, LB 566 (1466299962390434304.000000,1466299962380434176.000000)
Event Veto ['NoiseBurst'], Sun Jun 19 01:32:51 2016 UTC-Sun Jun 19 01:32:51 2016 UTC (0.010 )  Run 302347, LB 566 (1466299971180201728.000000,1466299971170201088.000000)
Event Veto ['NoiseBurst'], Sun Jun 19 01:40:53 2016 UTC-Sun Jun 19 01:40:53 2016 UTC (0.010 )  Run 302347, LB 574 (1466300453930781696.000000,1466300453920781312.000000)
Event Veto ['NoiseBurst'], Sun Jun 19 01:58:41 2016 UTC-Sun Jun 19 01:58:41 2016 UTC (0.010 )  Run 302347, LB 594 (1466301521393085952.000000,1466301521383084800.000000)
Event Veto ['NoiseBurst'], Sun Jun 19 02:05:35 2016 UTC-Sun Jun 19 02:05:35 2016 UTC (0.010 )  Run 302347, LB 601 (1466301935269332992.000000,1466301935259332096.000000)
Event Veto ['NoiseBurst'], Sun Jun 19 02:06:45 2016 UTC-Sun Jun 19 02:06:45 2016 UTC (0.011 )  Run 302347, LB 602 (1466302005501879040.000000,1466302005491090432.000000)
Event Veto ['NoiseBurst'], Sun Jun 19 02:12:35 2016 UTC-Sun Jun 19 02:12:35 2016 UTC (0.010 )  Run 302347, LB 608 (1466302355788984064.000000,1466302355778914560.000000)
Event Veto ['NoiseBurst'], Sun Jun 19 02:17:03 2016 UTC-Sun Jun 19 02:17:03 2016 UTC (0.010 )  Run 302347, LB 613 (1466302623403504640.000000,1466302623393502464.000000)
Event Veto ['NoiseBurst'], Sun Jun 19 02:23:05 2016 UTC-Sun Jun 19 02:23:05 2016 UTC (0.012 )  Run 302347, LB 622 (1466302985360080896.000000,1466302985348570880.000000)
Event Veto ['NoiseBurst'], Sun Jun 19 02:25:32 2016 UTC-Sun Jun 19 02:25:32 2016 UTC (0.010 )  Run 302347, LB 628 (1466303132691593984.000000,1466303132681593600.000000)
Event Veto ['NoiseBurst'], Sun Jun 19 02:27:03 2016 UTC-Sun Jun 19 02:27:03 2016 UTC (0.010 )  Run 302347, LB 629 (1466303223961835776.000000,1466303223951547904.000000)
Event Veto ['NoiseBurst'], Sun Jun 19 02:36:33 2016 UTC-Sun Jun 19 02:36:33 2016 UTC (0.010 )  Run 302347, LB 639 (1466303793215523328.000000,1466303793205523200.000000)
Event Veto ['NoiseBurst'], Sun Jun 19 02:41:53 2016 UTC-Sun Jun 19 02:41:53 2016 UTC (0.010 )  Run 302347, LB 644 (1466304113638805248.000000,1466304113628805120.000000)
Event Veto ['NoiseBurst'], Sun Jun 19 02:49:59 2016 UTC-Sun Jun 19 02:49:59 2016 UTC (0.010 )  Run 302347, LB 652 (1466304599051127808.000000,1466304599040926976.000000)
Event Veto ['NoiseBurst'], Sun Jun 19 02:50:59 2016 UTC-Sun Jun 19 02:50:59 2016 UTC (0.011 )  Run 302347, LB 653 (1466304659871660544.000000,1466304659860538368.000000)
Event Veto ['NoiseBurst'], Sun Jun 19 03:01:15 2016 UTC-Sun Jun 19 03:01:15 2016 UTC (0.010 )  Run 302347, LB 664 (1466305275624993536.000000,1466305275614522880.000000)
Event Veto ['NoiseBurst'], Sun Jun 19 03:03:16 2016 UTC-Sun Jun 19 03:03:16 2016 UTC (0.010 )  Run 302347, LB 666 (1466305396946573568.000000,1466305396936573440.000000)
Event Veto ['NoiseBurst'], Sun Jun 19 03:11:22 2016 UTC-Sun Jun 19 03:11:22 2016 UTC (0.010 )  Run 302347, LB 674 (1466305882822443264.000000,1466305882812442624.000000)
Event Veto ['NoiseBurst'], Sun Jun 19 03:26:37 2016 UTC-Sun Jun 19 03:26:37 2016 UTC (0.010 )  Run 302347, LB 690 (1466306797064029952.000000,1466306797053704960.000000)
Found a total of 106 noisy periods, covering a total of 1.17 seconds
Lumi loss due to noise-bursts: 8.70 nb-1 out of 223556.01 nb-1 (0.04 per-mil)
