Warning in <TInterpreter::ReadRootmapFile>: class  SG::GenericElementLinkBase<SG::IdentContIndexingPolicy<Muon::MuonPrepDataContainer<Muon::MuonPrepDataCollection<Muon::MdtPrepData> > > > found in MuonRIO_OnTrackDict.so  is already in iMuGirlStauDict.so 
Warning in <TInterpreter::ReadRootmapFile>: class  pair<unsigned int,double> found in CaloEventDict.so  is already in libPileupReweightingLib.so 
Warning in <TInterpreter::ReadRootmapFile>: class  L1CaloCoolChannelId found in TrigT1CaloCalibConditionsDict.so  is already in LArMonitoringDict.so 
Warning in <TInterpreter::ReadRootmapFile>: class  pair<unsigned int,unsigned int> found in AtlasSTLAddReflexDict.so  is already in libPileupReweightingLib.so 
Warning in <TInterpreter::ReadRootmapFile>: class  pair<int,float> found in libCore.so  is already in AtlasSTLAddReflexDict.so 
Warning in <TInterpreter::ReadRootmapFile>: class  pair<string,double> found in libCore.so  is already in AtlasSTLAddReflexDict.so 
Warning in <TInterpreter::ReadRootmapFile>: class  ROOT::Math::LorentzVector<ROOT::Math::PtEtaPhiM4D<double> > found in libGenVector.so  is already in xAODCoreAthenaDict.so 
Warning in <TInterpreter::ReadRootmapFile>: class  ROOT::Math::PtEtaPhiM4D<double> found in libGenVector.so  is already in xAODCoreAthenaDict.so 
Reading event veto info from db oracle://ATLAS_COOLPROD;schema=ATLAS_COOLOFL_LAR;dbname=CONDBR2, tag LARBadChannelsOflEventVeto-RUN2-UPD4-04  Run 307354 to 307354
Reading folder /LAR/BadChannelsOfl/EventVeto from DB oracle://ATLAS_COOLPROD;schema=ATLAS_COOLOFL_LAR;dbname=CONDBR2
Data source lookup using /cvmfs/atlas.cern.ch/repo/sw/software/x86_64-slc6-gcc49-opt/20.7.5/AtlasCore/20.7.5/InstallArea/XML/AtlasAuthentication/dblookup.xml file
Dumping EventVeto data from run 307354 to run 307354  lasting from Sat Aug 27 19:11:31 2016 UTC to Sun Aug 28 00:33:25 2016 UTC
Event Veto ['MiniNoiseBurst'], Sat Aug 27 21:50:35 2016 UTC-Sat Aug 27 21:50:35 2016 UTC (0.010 )  Run 307354, LB 166 (1472334635017404928.000000,1472334635007404800.000000)
Event Veto ['NoiseBurst'], Sat Aug 27 21:52:03 2016 UTC-Sat Aug 27 21:52:03 2016 UTC (0.010 )  Run 307354, LB 168 (1472334723631636480.000000,1472334723621363712.000000)
Event Veto ['NoiseBurst'], Sat Aug 27 21:53:06 2016 UTC-Sat Aug 27 21:53:06 2016 UTC (0.010 )  Run 307354, LB 169 (1472334786788788736.000000,1472334786778724352.000000)
Event Veto ['NoiseBurst'], Sat Aug 27 21:55:07 2016 UTC-Sat Aug 27 21:55:07 2016 UTC (0.010 )  Run 307354, LB 171 (1472334907382257920.000000,1472334907372257536.000000)
Event Veto ['NoiseBurst'], Sat Aug 27 21:59:52 2016 UTC-Sat Aug 27 21:59:52 2016 UTC (0.010 )  Run 307354, LB 177 (1472335192905128960.000000,1472335192894972160.000000)
Event Veto ['NoiseBurst'], Sat Aug 27 21:59:59 2016 UTC-Sat Aug 27 21:59:59 2016 UTC (0.019 )  Run 307354, LB 177 (1472335199532395520.000000,1472335199513229056.000000)
Event Veto ['NoiseBurst'], Sat Aug 27 22:00:22 2016 UTC-Sat Aug 27 22:00:22 2016 UTC (0.010 )  Run 307354, LB 177 (1472335222466992640.000000,1472335222456899584.000000)
Event Veto ['NoiseBurst'], Sat Aug 27 22:03:58 2016 UTC-Sat Aug 27 22:03:58 2016 UTC (0.010 )  Run 307354, LB 181 (1472335438906932736.000000,1472335438896920320.000000)
Event Veto ['NoiseBurst'], Sat Aug 27 22:04:45 2016 UTC-Sat Aug 27 22:04:45 2016 UTC (0.010 )  Run 307354, LB 182 (1472335485245540864.000000,1472335485235370752.000000)
Event Veto ['NoiseBurst'], Sat Aug 27 22:06:04 2016 UTC-Sat Aug 27 22:06:04 2016 UTC (0.010 )  Run 307354, LB 183 (1472335564742313984.000000,1472335564732179200.000000)
Event Veto ['NoiseBurst'], Sat Aug 27 22:09:26 2016 UTC-Sat Aug 27 22:09:26 2016 UTC (0.010 )  Run 307354, LB 186 (1472335766305988864.000000,1472335766295836928.000000)
Event Veto ['NoiseBurst'], Sat Aug 27 22:10:49 2016 UTC-Sat Aug 27 22:10:49 2016 UTC (0.010 )  Run 307354, LB 188 (1472335849724209152.000000,1472335849714208512.000000)
Event Veto ['NoiseBurst'], Sat Aug 27 22:11:57 2016 UTC-Sat Aug 27 22:11:57 2016 UTC (0.010 )  Run 307354, LB 189 (1472335917433789440.000000,1472335917423788800.000000)
Event Veto ['NoiseBurst'], Sat Aug 27 22:11:59 2016 UTC-Sat Aug 27 22:11:59 2016 UTC (0.010 )  Run 307354, LB 189 (1472335919867039744.000000,1472335919857039104.000000)
Event Veto ['NoiseBurst'], Sat Aug 27 22:13:59 2016 UTC-Sat Aug 27 22:13:59 2016 UTC (0.010 )  Run 307354, LB 191 (1472336039071685888.000000,1472336039061685248.000000)
Event Veto ['NoiseBurst'], Sat Aug 27 22:26:00 2016 UTC-Sat Aug 27 22:26:00 2016 UTC (0.010 )  Run 307354, LB 203 (1472336760431933952.000000,1472336760421837312.000000)
Event Veto ['NoiseBurst'], Sat Aug 27 22:28:01 2016 UTC-Sat Aug 27 22:28:01 2016 UTC (0.010 )  Run 307354, LB 205 (1472336881314448128.000000,1472336881304447488.000000)
Event Veto ['NoiseBurst'], Sat Aug 27 22:29:06 2016 UTC-Sat Aug 27 22:29:06 2016 UTC (0.010 )  Run 307354, LB 206 (1472336946195018240.000000,1472336946185018112.000000)
Event Veto ['MiniNoiseBurst'], Sat Aug 27 22:29:25 2016 UTC-Sat Aug 27 22:29:25 2016 UTC (0.010 )  Run 307354, LB 207 (1472336965378138112.000000,1472336965368137984.000000)
Event Veto ['NoiseBurst'], Sat Aug 27 22:35:46 2016 UTC-Sat Aug 27 22:35:46 2016 UTC (0.010 )  Run 307354, LB 213 (1472337346613451264.000000,1472337346603182336.000000)
Event Veto ['NoiseBurst'], Sat Aug 27 22:42:54 2016 UTC-Sat Aug 27 22:42:54 2016 UTC (0.010 )  Run 307354, LB 221 (1472337774171574272.000000,1472337774161573632.000000)
Event Veto ['NoiseBurst'], Sat Aug 27 22:44:13 2016 UTC-Sat Aug 27 22:44:13 2016 UTC (0.010 )  Run 307354, LB 223 (1472337853874415104.000000,1472337853864233984.000000)
Event Veto ['NoiseBurst'], Sat Aug 27 22:45:36 2016 UTC-Sat Aug 27 22:45:36 2016 UTC (0.010 )  Run 307354, LB 224 (1472337936957209600.000000,1472337936947116032.000000)
Event Veto ['NoiseBurst'], Sat Aug 27 22:47:03 2016 UTC-Sat Aug 27 22:47:03 2016 UTC (0.011 )  Run 307354, LB 226 (1472338023092813312.000000,1472338023081689600.000000)
Event Veto ['NoiseBurst'], Sat Aug 27 22:47:58 2016 UTC-Sat Aug 27 22:47:58 2016 UTC (0.010 )  Run 307354, LB 226 (1472338078168399360.000000,1472338078158244608.000000)
Event Veto ['NoiseBurst'], Sat Aug 27 22:49:39 2016 UTC-Sat Aug 27 22:49:39 2016 UTC (0.011 )  Run 307354, LB 228 (1472338179028450304.000000,1472338179017458176.000000)
Event Veto ['NoiseBurst'], Sat Aug 27 22:57:25 2016 UTC-Sat Aug 27 22:57:25 2016 UTC (0.010 )  Run 307354, LB 236 (1472338645110756608.000000,1472338645100623872.000000)
Event Veto ['MiniNoiseBurst'], Sat Aug 27 22:59:09 2016 UTC-Sat Aug 27 22:59:09 2016 UTC (0.010 )  Run 307354, LB 238 (1472338749691510272.000000,1472338749681510400.000000)
Event Veto ['NoiseBurst'], Sat Aug 27 23:00:39 2016 UTC-Sat Aug 27 23:00:39 2016 UTC (0.010 )  Run 307354, LB 239 (1472338839316974592.000000,1472338839306707456.000000)
Event Veto ['NoiseBurst'], Sat Aug 27 23:01:53 2016 UTC-Sat Aug 27 23:01:53 2016 UTC (0.011 )  Run 307354, LB 240 (1472338913483264256.000000,1472338913471878656.000000)
Event Veto ['NoiseBurst'], Sat Aug 27 23:04:57 2016 UTC-Sat Aug 27 23:04:57 2016 UTC (0.010 )  Run 307354, LB 243 (1472339097379011840.000000,1472339097369011712.000000)
Event Veto ['NoiseBurst'], Sat Aug 27 23:07:59 2016 UTC-Sat Aug 27 23:07:59 2016 UTC (0.010 )  Run 307354, LB 247 (1472339279429951488.000000,1472339279419695872.000000)
Event Veto ['MiniNoiseBurst'], Sat Aug 27 23:11:14 2016 UTC-Sat Aug 27 23:11:14 2016 UTC (0.014 )  Run 307354, LB 250 (1472339474587261440.000000,1472339474573069056.000000)
Event Veto ['NoiseBurst'], Sat Aug 27 23:14:32 2016 UTC-Sat Aug 27 23:14:32 2016 UTC (0.010 )  Run 307354, LB 253 (1472339672096845056.000000,1472339672086844416.000000)
Event Veto ['NoiseBurst'], Sat Aug 27 23:16:59 2016 UTC-Sat Aug 27 23:16:59 2016 UTC (0.010 )  Run 307354, LB 256 (1472339819401673216.000000,1472339819391673088.000000)
Event Veto ['MiniNoiseBurst'], Sat Aug 27 23:17:18 2016 UTC-Sat Aug 27 23:17:18 2016 UTC (0.010 )  Run 307354, LB 256 (1472339838599130368.000000,1472339838589130496.000000)
Event Veto ['NoiseBurst'], Sat Aug 27 23:20:47 2016 UTC-Sat Aug 27 23:20:47 2016 UTC (0.010 )  Run 307354, LB 260 (1472340047872356864.000000,1472340047862331904.000000)
Event Veto ['MiniNoiseBurst'], Sat Aug 27 23:26:47 2016 UTC-Sat Aug 27 23:26:47 2016 UTC (0.010 )  Run 307354, LB 266 (1472340407967838208.000000,1472340407957838336.000000)
Event Veto ['NoiseBurst'], Sat Aug 27 23:28:06 2016 UTC-Sat Aug 27 23:28:06 2016 UTC (0.011 )  Run 307354, LB 267 (1472340486759092480.000000,1472340486748428032.000000)
Event Veto ['NoiseBurst'], Sat Aug 27 23:36:01 2016 UTC-Sat Aug 27 23:36:01 2016 UTC (0.010 )  Run 307354, LB 275 (1472340961839207168.000000,1472340961829207040.000000)
Event Veto ['NoiseBurst'], Sat Aug 27 23:36:47 2016 UTC-Sat Aug 27 23:36:47 2016 UTC (0.010 )  Run 307354, LB 276 (1472341007037020160.000000,1472341007027019520.000000)
Event Veto ['NoiseBurst'], Sat Aug 27 23:41:53 2016 UTC-Sat Aug 27 23:41:53 2016 UTC (0.010 )  Run 307354, LB 282 (1472341313911877888.000000,1472341313901637888.000000)
Event Veto ['NoiseBurst'], Sat Aug 27 23:50:32 2016 UTC-Sat Aug 27 23:50:32 2016 UTC (0.010 )  Run 307354, LB 290 (1472341832813268992.000000,1472341832803268352.000000)
Event Veto ['NoiseBurst'], Sat Aug 27 23:52:26 2016 UTC-Sat Aug 27 23:52:26 2016 UTC (0.010 )  Run 307354, LB 292 (1472341946906848256.000000,1472341946896847616.000000)
Event Veto ['NoiseBurst'], Sat Aug 27 23:56:52 2016 UTC-Sat Aug 27 23:56:52 2016 UTC (0.010 )  Run 307354, LB 297 (1472342212943141120.000000,1472342212933140480.000000)
Event Veto ['NoiseBurst'], Sun Aug 28 00:01:58 2016 UTC-Sun Aug 28 00:01:58 2016 UTC (0.010 )  Run 307354, LB 302 (1472342518301040384.000000,1472342518291040000.000000)
Event Veto ['NoiseBurst'], Sun Aug 28 00:02:38 2016 UTC-Sun Aug 28 00:02:38 2016 UTC (0.010 )  Run 307354, LB 302 (1472342558374356736.000000,1472342558364356352.000000)
Event Veto ['NoiseBurst'], Sun Aug 28 00:02:38 2016 UTC-Sun Aug 28 00:02:38 2016 UTC (0.000 )  Run 307354, LB 302 (1472342558374356992.000000,1472342558374356736.000000)
Event Veto ['NoiseBurst'], Sun Aug 28 00:02:58 2016 UTC-Sun Aug 28 00:02:58 2016 UTC (0.010 )  Run 307354, LB 303 (1472342578817079808.000000,1472342578807079680.000000)
Event Veto ['NoiseBurst'], Sun Aug 28 00:03:59 2016 UTC-Sun Aug 28 00:03:59 2016 UTC (0.010 )  Run 307354, LB 304 (1472342639101038592.000000,1472342639091032064.000000)
Event Veto ['NoiseBurst'], Sun Aug 28 00:04:11 2016 UTC-Sun Aug 28 00:04:11 2016 UTC (0.010 )  Run 307354, LB 304 (1472342651476179968.000000,1472342651466179328.000000)
Event Veto ['NoiseBurst'], Sun Aug 28 00:04:40 2016 UTC-Sun Aug 28 00:04:40 2016 UTC (0.010 )  Run 307354, LB 305 (1472342680013418496.000000,1472342680003418112.000000)
Event Veto ['NoiseBurst'], Sun Aug 28 00:04:50 2016 UTC-Sun Aug 28 00:04:50 2016 UTC (0.010 )  Run 307354, LB 305 (1472342690213476096.000000,1472342690203344384.000000)
Event Veto ['NoiseBurst'], Sun Aug 28 00:12:11 2016 UTC-Sun Aug 28 00:12:11 2016 UTC (0.016 )  Run 307354, LB 312 (1472343131681281792.000000,1472343131665447936.000000)
Event Veto ['NoiseBurst'], Sun Aug 28 00:18:06 2016 UTC-Sun Aug 28 00:18:06 2016 UTC (0.010 )  Run 307354, LB 319 (1472343486232759040.000000,1472343486222758656.000000)
Event Veto ['NoiseBurst', 'MiniNoiseBurst'], Sun Aug 28 00:21:58 2016 UTC-Sun Aug 28 00:21:58 2016 UTC (0.010 )  Run 307354, LB 323 (1472343718928768768.000000,1472343718918768896.000000)
Event Veto ['NoiseBurst'], Sun Aug 28 00:26:12 2016 UTC-Sun Aug 28 00:26:12 2016 UTC (0.010 )  Run 307354, LB 327 (1472343972618971904.000000,1472343972608785408.000000)
Found a total of 51 noisy periods, covering a total of 0.52 seconds
Found a total of 7 Mini noise periods, covering a total of 0.07 seconds
Lumi loss due to noise-bursts: 4.93 nb-1 out of 91988.23 nb-1 (0.05 per-mil)
Lumi loss due to mini-noise-bursts: 0.69 nb-1 out of 91988.23 nb-1 (0.01 per-mil)
