Warning in <TInterpreter::ReadRootmapFile>: class  SG::GenericElementLinkBase<SG::IdentContIndexingPolicy<Muon::MuonPrepDataContainer<Muon::MuonPrepDataCollection<Muon::MdtPrepData> > > > found in MuonRIO_OnTrackDict.so  is already in iMuGirlStauDict.so 
Warning in <TInterpreter::ReadRootmapFile>: class  pair<unsigned int,double> found in CaloEventDict.so  is already in libPileupReweightingLib.so 
Warning in <TInterpreter::ReadRootmapFile>: class  L1CaloCoolChannelId found in TrigT1CaloCalibConditionsDict.so  is already in LArMonitoringDict.so 
Warning in <TInterpreter::ReadRootmapFile>: class  pair<unsigned int,unsigned int> found in AtlasSTLAddReflexDict.so  is already in libPileupReweightingLib.so 
Warning in <TInterpreter::ReadRootmapFile>: class  pair<int,float> found in libCore.so  is already in AtlasSTLAddReflexDict.so 
Warning in <TInterpreter::ReadRootmapFile>: class  pair<string,double> found in libCore.so  is already in AtlasSTLAddReflexDict.so 
Warning in <TInterpreter::ReadRootmapFile>: class  ROOT::Math::LorentzVector<ROOT::Math::PtEtaPhiM4D<double> > found in libGenVector.so  is already in xAODCoreAthenaDict.so 
Warning in <TInterpreter::ReadRootmapFile>: class  ROOT::Math::PtEtaPhiM4D<double> found in libGenVector.so  is already in xAODCoreAthenaDict.so 
Reading event veto info from db oracle://ATLAS_COOLPROD;schema=ATLAS_COOLOFL_LAR;dbname=CONDBR2, tag LARBadChannelsOflEventVeto-RUN2-UPD4-04  Run 303846 to 303846
Reading folder /LAR/BadChannelsOfl/EventVeto from DB oracle://ATLAS_COOLPROD;schema=ATLAS_COOLOFL_LAR;dbname=CONDBR2
Data source lookup using /cvmfs/atlas.cern.ch/repo/sw/software/x86_64-slc6-gcc49-opt/20.7.5/AtlasCore/20.7.5/InstallArea/XML/AtlasAuthentication/dblookup.xml file
Dumping EventVeto data from run 303846 to run 303846  lasting from Thu Jul 14 00:21:48 2016 UTC to Fri Jul 15 05:16:19 2016 UTC
Event Veto ['NoiseBurst'], Thu Jul 14 00:43:34 2016 UTC-Thu Jul 14 00:43:34 2016 UTC (0.010 )  Run 303846, LB 24 (1468457014299499776.000000,1468457014289499392.000000)
Event Veto ['DataCorruption'], Thu Jul 14 01:01:55 2016 UTC-Thu Jul 14 01:01:59 2016 UTC (4.306 )  Run 303846, LB 42 (1468458119421297408.000000,1468458115115727616.000000)
Event Veto ['NoiseBurst'], Thu Jul 14 03:21:16 2016 UTC-Thu Jul 14 03:21:16 2016 UTC (0.010 )  Run 303846, LB 186 (1468466476313650944.000000,1468466476303492096.000000)
Event Veto ['NoiseBurst'], Thu Jul 14 03:23:09 2016 UTC-Thu Jul 14 03:23:09 2016 UTC (0.010 )  Run 303846, LB 188 (1468466589896473600.000000,1468466589886306816.000000)
Event Veto ['NoiseBurst'], Thu Jul 14 03:33:50 2016 UTC-Thu Jul 14 03:33:50 2016 UTC (0.016 )  Run 303846, LB 201 (1468467230774836224.000000,1468467230758344960.000000)
Event Veto ['NoiseBurst'], Thu Jul 14 03:34:10 2016 UTC-Thu Jul 14 03:34:10 2016 UTC (0.010 )  Run 303846, LB 201 (1468467250990424064.000000,1468467250980423936.000000)
Event Veto ['NoiseBurst'], Thu Jul 14 03:35:43 2016 UTC-Thu Jul 14 03:35:43 2016 UTC (0.010 )  Run 303846, LB 203 (1468467343444315136.000000,1468467343434314752.000000)
Event Veto ['NoiseBurst'], Thu Jul 14 03:37:06 2016 UTC-Thu Jul 14 03:37:06 2016 UTC (0.015 )  Run 303846, LB 205 (1468467426176408064.000000,1468467426161864192.000000)
Event Veto ['NoiseBurst'], Thu Jul 14 03:37:37 2016 UTC-Thu Jul 14 03:37:37 2016 UTC (0.013 )  Run 303846, LB 205 (1468467457512903168.000000,1468467457499651584.000000)
Event Veto ['NoiseBurst'], Thu Jul 14 03:37:52 2016 UTC-Thu Jul 14 03:37:52 2016 UTC (0.011 )  Run 303846, LB 206 (1468467472371901184.000000,1468467472361362688.000000)
Event Veto ['NoiseBurst'], Thu Jul 14 03:38:33 2016 UTC-Thu Jul 14 03:38:33 2016 UTC (0.010 )  Run 303846, LB 206 (1468467513270946816.000000,1468467513260946176.000000)
Event Veto ['NoiseBurst'], Thu Jul 14 03:40:39 2016 UTC-Thu Jul 14 03:40:39 2016 UTC (0.010 )  Run 303846, LB 208 (1468467639912184832.000000,1468467639902184192.000000)
Event Veto ['NoiseBurst'], Thu Jul 14 03:42:21 2016 UTC-Thu Jul 14 03:42:21 2016 UTC (0.012 )  Run 303846, LB 210 (1468467741042444544.000000,1468467741030605824.000000)
Event Veto ['NoiseBurst'], Thu Jul 14 03:43:10 2016 UTC-Thu Jul 14 03:43:10 2016 UTC (0.010 )  Run 303846, LB 211 (1468467790637417216.000000,1468467790627235584.000000)
Event Veto ['NoiseBurst'], Thu Jul 14 03:43:46 2016 UTC-Thu Jul 14 03:43:46 2016 UTC (0.010 )  Run 303846, LB 211 (1468467826609945088.000000,1468467826599924736.000000)
Event Veto ['NoiseBurst'], Thu Jul 14 03:44:55 2016 UTC-Thu Jul 14 03:44:55 2016 UTC (0.015 )  Run 303846, LB 213 (1468467895191641344.000000,1468467895176904448.000000)
Event Veto ['NoiseBurst'], Thu Jul 14 03:46:32 2016 UTC-Thu Jul 14 03:46:32 2016 UTC (0.010 )  Run 303846, LB 216 (1468467992496660736.000000,1468467992486454528.000000)
Event Veto ['NoiseBurst'], Thu Jul 14 03:47:49 2016 UTC-Thu Jul 14 03:47:49 2016 UTC (0.019 )  Run 303846, LB 217 (1468468069347992576.000000,1468468069328600064.000000)
Event Veto ['NoiseBurst'], Thu Jul 14 03:48:09 2016 UTC-Thu Jul 14 03:48:09 2016 UTC (0.014 )  Run 303846, LB 217 (1468468089829178624.000000,1468468089815221248.000000)
Event Veto ['NoiseBurst'], Thu Jul 14 03:48:24 2016 UTC-Thu Jul 14 03:48:24 2016 UTC (0.010 )  Run 303846, LB 218 (1468468104109721088.000000,1468468104099448320.000000)
Event Veto ['NoiseBurst'], Thu Jul 14 03:49:02 2016 UTC-Thu Jul 14 03:49:02 2016 UTC (0.010 )  Run 303846, LB 218 (1468468142081384960.000000,1468468142071114240.000000)
Event Veto ['NoiseBurst'], Thu Jul 14 03:49:47 2016 UTC-Thu Jul 14 03:49:47 2016 UTC (0.022 )  Run 303846, LB 219 (1468468187231442432.000000,1468468187209882624.000000)
Event Veto ['NoiseBurst'], Thu Jul 14 03:49:55 2016 UTC-Thu Jul 14 03:49:55 2016 UTC (0.010 )  Run 303846, LB 219 (1468468195877851904.000000,1468468195867767040.000000)
Event Veto ['NoiseBurst'], Thu Jul 14 03:53:12 2016 UTC-Thu Jul 14 03:53:12 2016 UTC (0.010 )  Run 303846, LB 222 (1468468392343274496.000000,1468468392333273856.000000)
Event Veto ['NoiseBurst'], Thu Jul 14 03:58:42 2016 UTC-Thu Jul 14 03:58:42 2016 UTC (0.018 )  Run 303846, LB 229 (1468468722775265536.000000,1468468722757695744.000000)
Event Veto ['NoiseBurst'], Thu Jul 14 04:05:46 2016 UTC-Thu Jul 14 04:05:46 2016 UTC (0.010 )  Run 303846, LB 238 (1468469146955483136.000000,1468469146945366528.000000)
Event Veto ['NoiseBurst'], Thu Jul 14 04:07:27 2016 UTC-Thu Jul 14 04:07:27 2016 UTC (0.014 )  Run 303846, LB 239 (1468469247206781184.000000,1468469247193017856.000000)
Event Veto ['NoiseBurst'], Thu Jul 14 04:10:28 2016 UTC-Thu Jul 14 04:10:28 2016 UTC (0.010 )  Run 303846, LB 242 (1468469428821567488.000000,1468469428811554560.000000)
Event Veto ['NoiseBurst'], Thu Jul 14 04:15:01 2016 UTC-Thu Jul 14 04:15:01 2016 UTC (0.010 )  Run 303846, LB 247 (1468469701915674880.000000,1468469701905674752.000000)
Event Veto ['NoiseBurst'], Thu Jul 14 04:17:54 2016 UTC-Thu Jul 14 04:17:54 2016 UTC (0.010 )  Run 303846, LB 250 (1468469874631030016.000000,1468469874621029376.000000)
Event Veto ['NoiseBurst'], Thu Jul 14 04:24:04 2016 UTC-Thu Jul 14 04:24:04 2016 UTC (0.010 )  Run 303846, LB 256 (1468470244317298688.000000,1468470244307189248.000000)
Event Veto ['NoiseBurst'], Thu Jul 14 04:28:49 2016 UTC-Thu Jul 14 04:28:49 2016 UTC (0.017 )  Run 303846, LB 262 (1468470529106981888.000000,1468470529089852416.000000)
Event Veto ['NoiseBurst'], Thu Jul 14 04:33:17 2016 UTC-Thu Jul 14 04:33:17 2016 UTC (0.010 )  Run 303846, LB 268 (1468470797154736128.000000,1468470797144736000.000000)
Event Veto ['NoiseBurst'], Thu Jul 14 04:48:22 2016 UTC-Thu Jul 14 04:48:22 2016 UTC (0.011 )  Run 303846, LB 285 (1468471702168003328.000000,1468471702157464832.000000)
Event Veto ['NoiseBurst'], Thu Jul 14 04:52:51 2016 UTC-Thu Jul 14 04:52:51 2016 UTC (0.010 )  Run 303846, LB 290 (1468471971506736128.000000,1468471971496512512.000000)
Event Veto ['NoiseBurst'], Thu Jul 14 04:54:34 2016 UTC-Thu Jul 14 04:54:34 2016 UTC (0.010 )  Run 303846, LB 292 (1468472074443667968.000000,1468472074433550848.000000)
Event Veto ['NoiseBurst'], Thu Jul 14 04:56:00 2016 UTC-Thu Jul 14 04:56:00 2016 UTC (0.010 )  Run 303846, LB 294 (1468472160140625408.000000,1468472160130477056.000000)
Event Veto ['NoiseBurst'], Thu Jul 14 04:57:42 2016 UTC-Thu Jul 14 04:57:42 2016 UTC (0.010 )  Run 303846, LB 296 (1468472262378547200.000000,1468472262368241920.000000)
Event Veto ['NoiseBurst'], Thu Jul 14 05:03:09 2016 UTC-Thu Jul 14 05:03:09 2016 UTC (0.010 )  Run 303846, LB 301 (1468472589351129344.000000,1468472589341041664.000000)
Event Veto ['NoiseBurst'], Thu Jul 14 05:14:51 2016 UTC-Thu Jul 14 05:14:51 2016 UTC (0.010 )  Run 303846, LB 314 (1468473291578790400.000000,1468473291568523520.000000)
Event Veto ['DataCorruption'], Thu Jul 14 05:17:20 2016 UTC-Thu Jul 14 05:17:21 2016 UTC (1.107 )  Run 303846, LBs 317-318 (1468473441521403904.000000,1468473440414238720.000000)
Event Veto ['NoiseBurst'], Thu Jul 14 05:22:17 2016 UTC-Thu Jul 14 05:22:17 2016 UTC (0.010 )  Run 303846, LB 322 (1468473737919824384.000000,1468473737909705728.000000)
Event Veto ['NoiseBurst'], Thu Jul 14 05:23:43 2016 UTC-Thu Jul 14 05:23:43 2016 UTC (0.010 )  Run 303846, LB 324 (1468473823013394944.000000,1468473823003394560.000000)
Event Veto ['NoiseBurst'], Thu Jul 14 05:25:54 2016 UTC-Thu Jul 14 05:25:54 2016 UTC (0.010 )  Run 303846, LB 326 (1468473954986457344.000000,1468473954976211712.000000)
Event Veto ['NoiseBurst'], Thu Jul 14 05:26:28 2016 UTC-Thu Jul 14 05:26:28 2016 UTC (0.010 )  Run 303846, LB 327 (1468473988191597056.000000,1468473988181239296.000000)
Event Veto ['NoiseBurst'], Thu Jul 14 05:26:28 2016 UTC-Thu Jul 14 05:26:28 2016 UTC (0.010 )  Run 303846, LB 327 (1468473988251108352.000000,1468473988240995584.000000)
Event Veto ['NoiseBurst'], Thu Jul 14 05:30:24 2016 UTC-Thu Jul 14 05:30:24 2016 UTC (0.010 )  Run 303846, LB 331 (1468474224148641792.000000,1468474224138641152.000000)
Event Veto ['DataCorruption'], Thu Jul 14 05:33:20 2016 UTC-Thu Jul 14 05:33:22 2016 UTC (1.650 )  Run 303846, LB 335 (1468474402043320064.000000,1468474400393291776.000000)
Event Veto ['NoiseBurst'], Thu Jul 14 05:42:00 2016 UTC-Thu Jul 14 05:42:00 2016 UTC (0.010 )  Run 303846, LB 345 (1468474920960820224.000000,1468474920950690304.000000)
Event Veto ['NoiseBurst'], Thu Jul 14 05:46:55 2016 UTC-Thu Jul 14 05:46:55 2016 UTC (0.010 )  Run 303846, LB 350 (1468475215293711104.000000,1468475215283710976.000000)
Event Veto ['NoiseBurst'], Thu Jul 14 05:48:23 2016 UTC-Thu Jul 14 05:48:23 2016 UTC (0.010 )  Run 303846, LB 351 (1468475303551431168.000000,1468475303541313280.000000)
Event Veto ['NoiseBurst'], Thu Jul 14 05:58:36 2016 UTC-Thu Jul 14 05:58:36 2016 UTC (0.020 )  Run 303846, LB 362 (1468475916765924608.000000,1468475916745988608.000000)
Event Veto ['NoiseBurst'], Thu Jul 14 06:05:01 2016 UTC-Thu Jul 14 06:05:01 2016 UTC (0.010 )  Run 303846, LB 369 (1468476301326909952.000000,1468476301316631552.000000)
Event Veto ['NoiseBurst'], Thu Jul 14 06:08:01 2016 UTC-Thu Jul 14 06:08:01 2016 UTC (0.010 )  Run 303846, LB 372 (1468476481875485184.000000,1468476481865484800.000000)
Event Veto ['NoiseBurst'], Thu Jul 14 06:08:57 2016 UTC-Thu Jul 14 06:08:57 2016 UTC (0.018 )  Run 303846, LB 373 (1468476537439353088.000000,1468476537420938240.000000)
Event Veto ['NoiseBurst'], Thu Jul 14 06:11:28 2016 UTC-Thu Jul 14 06:11:28 2016 UTC (0.011 )  Run 303846, LB 376 (1468476688032926464.000000,1468476688021819904.000000)
Event Veto ['NoiseBurst'], Thu Jul 14 06:12:30 2016 UTC-Thu Jul 14 06:12:30 2016 UTC (0.010 )  Run 303846, LB 377 (1468476750966120704.000000,1468476750956120064.000000)
Event Veto ['NoiseBurst'], Thu Jul 14 06:13:31 2016 UTC-Thu Jul 14 06:13:31 2016 UTC (0.010 )  Run 303846, LB 378 (1468476811391962368.000000,1468476811381577472.000000)
Event Veto ['NoiseBurst'], Thu Jul 14 06:14:10 2016 UTC-Thu Jul 14 06:14:10 2016 UTC (0.010 )  Run 303846, LB 378 (1468476850946453504.000000,1468476850936249856.000000)
Event Veto ['NoiseBurst'], Thu Jul 14 06:18:55 2016 UTC-Thu Jul 14 06:18:55 2016 UTC (0.011 )  Run 303846, LB 383 (1468477135205951744.000000,1468477135194845696.000000)
Event Veto ['NoiseBurst'], Thu Jul 14 06:18:55 2016 UTC-Thu Jul 14 06:18:55 2016 UTC (0.018 )  Run 303846, LB 383 (1468477135257296384.000000,1468477135239144960.000000)
Event Veto ['NoiseBurst'], Thu Jul 14 06:18:55 2016 UTC-Thu Jul 14 06:18:55 2016 UTC (0.011 )  Run 303846, LB 383 (1468477135276559616.000000,1468477135265933312.000000)
Event Veto ['NoiseBurst'], Thu Jul 14 06:18:55 2016 UTC-Thu Jul 14 06:18:55 2016 UTC (0.010 )  Run 303846, LB 383 (1468477135302733312.000000,1468477135292449792.000000)
Event Veto ['NoiseBurst'], Thu Jul 14 06:18:55 2016 UTC-Thu Jul 14 06:18:55 2016 UTC (0.010 )  Run 303846, LB 383 (1468477135324690432.000000,1468477135314251008.000000)
Event Veto ['NoiseBurst'], Thu Jul 14 06:18:55 2016 UTC-Thu Jul 14 06:18:55 2016 UTC (0.024 )  Run 303846, LB 383 (1468477135452267520.000000,1468477135428513280.000000)
Event Veto ['NoiseBurst'], Thu Jul 14 06:18:55 2016 UTC-Thu Jul 14 06:18:55 2016 UTC (0.010 )  Run 303846, LB 383 (1468477135472848128.000000,1468477135462372864.000000)
Event Veto ['NoiseBurst'], Thu Jul 14 06:19:13 2016 UTC-Thu Jul 14 06:19:13 2016 UTC (0.010 )  Run 303846, LB 383 (1468477153190245632.000000,1468477153180176128.000000)
Event Veto ['NoiseBurst'], Thu Jul 14 06:20:03 2016 UTC-Thu Jul 14 06:20:03 2016 UTC (0.011 )  Run 303846, LB 384 (1468477203312161536.000000,1468477203301649920.000000)
Event Veto ['NoiseBurst'], Thu Jul 14 06:21:01 2016 UTC-Thu Jul 14 06:21:01 2016 UTC (0.010 )  Run 303846, LB 385 (1468477261179504896.000000,1468477261169504000.000000)
Event Veto ['NoiseBurst'], Thu Jul 14 06:27:36 2016 UTC-Thu Jul 14 06:27:36 2016 UTC (0.010 )  Run 303846, LB 392 (1468477656998166272.000000,1468477656988165888.000000)
Event Veto ['NoiseBurst'], Thu Jul 14 06:34:25 2016 UTC-Thu Jul 14 06:34:25 2016 UTC (0.010 )  Run 303846, LB 398 (1468478065157298688.000000,1468478065147017728.000000)
Event Veto ['NoiseBurst'], Thu Jul 14 06:37:54 2016 UTC-Thu Jul 14 06:37:54 2016 UTC (0.010 )  Run 303846, LB 403 (1468478274485375744.000000,1468478274475375104.000000)
Event Veto ['NoiseBurst'], Thu Jul 14 06:40:34 2016 UTC-Thu Jul 14 06:40:34 2016 UTC (0.010 )  Run 303846, LB 405 (1468478434685392896.000000,1468478434675392512.000000)
Event Veto ['NoiseBurst'], Thu Jul 14 06:41:11 2016 UTC-Thu Jul 14 06:41:11 2016 UTC (0.010 )  Run 303846, LB 406 (1468478471265192960.000000,1468478471255192576.000000)
Event Veto ['NoiseBurst'], Thu Jul 14 06:44:04 2016 UTC-Thu Jul 14 06:44:04 2016 UTC (0.010 )  Run 303846, LB 409 (1468478644024737792.000000,1468478644014452480.000000)
Event Veto ['NoiseBurst'], Thu Jul 14 06:45:39 2016 UTC-Thu Jul 14 06:45:39 2016 UTC (0.010 )  Run 303846, LB 410 (1468478739652328192.000000,1468478739642328064.000000)
Event Veto ['NoiseBurst'], Thu Jul 14 06:53:18 2016 UTC-Thu Jul 14 06:53:18 2016 UTC (0.019 )  Run 303846, LB 418 (1468479198301997056.000000,1468479198282928640.000000)
Event Veto ['NoiseBurst'], Thu Jul 14 06:57:05 2016 UTC-Thu Jul 14 06:57:05 2016 UTC (0.012 )  Run 303846, LB 422 (1468479425405919744.000000,1468479425393580032.000000)
Event Veto ['NoiseBurst'], Thu Jul 14 06:57:18 2016 UTC-Thu Jul 14 06:57:18 2016 UTC (0.010 )  Run 303846, LB 422 (1468479438304102912.000000,1468479438294101760.000000)
Event Veto ['NoiseBurst'], Thu Jul 14 06:59:36 2016 UTC-Thu Jul 14 06:59:36 2016 UTC (0.010 )  Run 303846, LB 424 (1468479576245804544.000000,1468479576235628800.000000)
Event Veto ['NoiseBurst'], Thu Jul 14 07:02:19 2016 UTC-Thu Jul 14 07:02:19 2016 UTC (0.010 )  Run 303846, LB 427 (1468479739459817728.000000,1468479739449811968.000000)
Event Veto ['NoiseBurst'], Thu Jul 14 07:10:11 2016 UTC-Thu Jul 14 07:10:11 2016 UTC (0.010 )  Run 303846, LB 435 (1468480211393882880.000000,1468480211383627520.000000)
Event Veto ['NoiseBurst'], Thu Jul 14 07:32:46 2016 UTC-Thu Jul 14 07:32:46 2016 UTC (0.010 )  Run 303846, LB 458 (1468481566451707648.000000,1468481566441336064.000000)
Event Veto ['NoiseBurst'], Thu Jul 14 07:46:56 2016 UTC-Thu Jul 14 07:46:56 2016 UTC (0.010 )  Run 303846, LB 472 (1468482416380863744.000000,1468482416370662144.000000)
Event Veto ['NoiseBurst'], Thu Jul 14 07:48:37 2016 UTC-Thu Jul 14 07:48:37 2016 UTC (0.010 )  Run 303846, LB 474 (1468482517280763392.000000,1468482517270763008.000000)
Event Veto ['NoiseBurst'], Thu Jul 14 07:50:03 2016 UTC-Thu Jul 14 07:50:03 2016 UTC (0.010 )  Run 303846, LB 475 (1468482603591872000.000000,1468482603581796096.000000)
Event Veto ['DataCorruption'], Thu Jul 14 07:51:32 2016 UTC-Thu Jul 14 07:51:33 2016 UTC (0.999 )  Run 303846, LBs 477-478 (1468482693075553280.000000,1468482692076228352.000000)
Event Veto ['DataCorruption'], Thu Jul 14 07:51:33 2016 UTC-Thu Jul 14 07:51:33 2016 UTC (0.540 )  Run 303846, LB 478 (1468482693853323264.000000,1468482693313201920.000000)
Event Veto ['DataCorruption'], Thu Jul 14 07:51:34 2016 UTC-Thu Jul 14 07:51:35 2016 UTC (0.568 )  Run 303846, LB 478 (1468482695359872768.000000,1468482694791671040.000000)
Event Veto ['DataCorruption'], Thu Jul 14 07:51:36 2016 UTC-Thu Jul 14 07:51:37 2016 UTC (0.696 )  Run 303846, LB 478 (1468482697195190272.000000,1468482696499231744.000000)
Event Veto ['NoiseBurst'], Thu Jul 14 07:52:19 2016 UTC-Thu Jul 14 07:52:19 2016 UTC (0.015 )  Run 303846, LB 479 (1468482739593041920.000000,1468482739577702912.000000)
Event Veto ['NoiseBurst'], Thu Jul 14 07:54:07 2016 UTC-Thu Jul 14 07:54:07 2016 UTC (0.010 )  Run 303846, LB 481 (1468482847475214592.000000,1468482847465128192.000000)
Event Veto ['NoiseBurst'], Thu Jul 14 07:54:46 2016 UTC-Thu Jul 14 07:54:46 2016 UTC (0.010 )  Run 303846, LB 482 (1468482886861721856.000000,1468482886851544832.000000)
Event Veto ['NoiseBurst'], Thu Jul 14 07:58:14 2016 UTC-Thu Jul 14 07:58:14 2016 UTC (0.019 )  Run 303846, LB 486 (1468483094755908352.000000,1468483094737124608.000000)
Event Veto ['NoiseBurst'], Thu Jul 14 08:04:23 2016 UTC-Thu Jul 14 08:04:23 2016 UTC (0.038 )  Run 303846, LB 492 (1468483463405967104.000000,1468483463368263680.000000)
Event Veto ['NoiseBurst'], Thu Jul 14 08:04:23 2016 UTC-Thu Jul 14 08:04:23 2016 UTC (0.049 )  Run 303846, LB 492 (1468483463465566976.000000,1468483463416987648.000000)
Event Veto ['NoiseBurst'], Thu Jul 14 08:04:23 2016 UTC-Thu Jul 14 08:04:23 2016 UTC (0.027 )  Run 303846, LB 492 (1468483463496387840.000000,1468483463469121792.000000)
Event Veto ['NoiseBurst'], Thu Jul 14 08:04:23 2016 UTC-Thu Jul 14 08:04:23 2016 UTC (0.020 )  Run 303846, LB 492 (1468483463518087168.000000,1468483463498269184.000000)
Event Veto ['NoiseBurst'], Thu Jul 14 08:04:23 2016 UTC-Thu Jul 14 08:04:23 2016 UTC (0.023 )  Run 303846, LB 492 (1468483463558530304.000000,1468483463535431936.000000)
Event Veto ['NoiseBurst'], Thu Jul 14 08:04:23 2016 UTC-Thu Jul 14 08:04:23 2016 UTC (0.025 )  Run 303846, LB 492 (1468483463590871552.000000,1468483463566277888.000000)
Event Veto ['NoiseBurst'], Thu Jul 14 08:04:23 2016 UTC-Thu Jul 14 08:04:23 2016 UTC (0.026 )  Run 303846, LB 492 (1468483463631009280.000000,1468483463605452032.000000)
Event Veto ['NoiseBurst'], Thu Jul 14 08:04:23 2016 UTC-Thu Jul 14 08:04:23 2016 UTC (0.021 )  Run 303846, LB 492 (1468483463666509312.000000,1468483463645024512.000000)
Event Veto ['NoiseBurst'], Thu Jul 14 08:04:23 2016 UTC-Thu Jul 14 08:04:23 2016 UTC (0.041 )  Run 303846, LB 492 (1468483463714864384.000000,1468483463674223616.000000)
Event Veto ['NoiseBurst'], Thu Jul 14 08:10:10 2016 UTC-Thu Jul 14 08:10:10 2016 UTC (0.010 )  Run 303846, LB 498 (1468483810456485888.000000,1468483810446208000.000000)
Event Veto ['NoiseBurst'], Thu Jul 14 08:27:21 2016 UTC-Thu Jul 14 08:27:21 2016 UTC (0.010 )  Run 303846, LB 516 (1468484841047303168.000000,1468484841037257472.000000)
Event Veto ['NoiseBurst'], Thu Jul 14 08:33:38 2016 UTC-Thu Jul 14 08:33:38 2016 UTC (0.010 )  Run 303846, LB 524 (1468485218592331776.000000,1468485218582331648.000000)
Event Veto ['NoiseBurst'], Thu Jul 14 08:35:46 2016 UTC-Thu Jul 14 08:35:46 2016 UTC (0.010 )  Run 303846, LB 526 (1468485346375641344.000000,1468485346365615616.000000)
Event Veto ['NoiseBurst'], Thu Jul 14 08:36:07 2016 UTC-Thu Jul 14 08:36:07 2016 UTC (0.010 )  Run 303846, LB 526 (1468485367177660160.000000,1468485367167442688.000000)
Event Veto ['NoiseBurst'], Thu Jul 14 08:44:51 2016 UTC-Thu Jul 14 08:44:51 2016 UTC (0.010 )  Run 303846, LB 535 (1468485891215072000.000000,1468485891205071104.000000)
Event Veto ['NoiseBurst'], Thu Jul 14 08:56:16 2016 UTC-Thu Jul 14 08:56:16 2016 UTC (0.013 )  Run 303846, LB 547 (1468486576363312896.000000,1468486576350539008.000000)
Event Veto ['NoiseBurst'], Thu Jul 14 08:56:59 2016 UTC-Thu Jul 14 08:56:59 2016 UTC (0.010 )  Run 303846, LB 548 (1468486619626910208.000000,1468486619616909568.000000)
Event Veto ['NoiseBurst'], Thu Jul 14 08:58:39 2016 UTC-Thu Jul 14 08:58:39 2016 UTC (0.010 )  Run 303846, LB 549 (1468486719420551680.000000,1468486719410099200.000000)
Event Veto ['NoiseBurst'], Thu Jul 14 08:58:54 2016 UTC-Thu Jul 14 08:58:54 2016 UTC (0.010 )  Run 303846, LB 549 (1468486734160326400.000000,1468486734150326016.000000)
Event Veto ['NoiseBurst'], Thu Jul 14 08:59:07 2016 UTC-Thu Jul 14 08:59:07 2016 UTC (0.010 )  Run 303846, LB 550 (1468486747578665728.000000,1468486747568376832.000000)
Event Veto ['NoiseBurst'], Thu Jul 14 09:00:06 2016 UTC-Thu Jul 14 09:00:06 2016 UTC (0.010 )  Run 303846, LB 551 (1468486806946477312.000000,1468486806936476672.000000)
Event Veto ['DataCorruption'], Thu Jul 14 09:04:00 2016 UTC-Thu Jul 14 09:15:16 2016 UTC (676.229 )  Run 303846, LBs 555-567 (1468487716298597632.000000,1468487040069838336.000000)
Event Veto ['NoiseBurst'], Thu Jul 14 09:16:10 2016 UTC-Thu Jul 14 09:16:10 2016 UTC (0.010 )  Run 303846, LB 569 (1468487770790307328.000000,1468487770780023296.000000)
Event Veto ['NoiseBurst'], Thu Jul 14 09:27:44 2016 UTC-Thu Jul 14 09:27:44 2016 UTC (0.018 )  Run 303846, LB 580 (1468488464841033216.000000,1468488464823006976.000000)
Event Veto ['NoiseBurst'], Thu Jul 14 09:28:38 2016 UTC-Thu Jul 14 09:28:38 2016 UTC (0.011 )  Run 303846, LB 581 (1468488518438294528.000000,1468488518427152128.000000)
Event Veto ['NoiseBurst'], Thu Jul 14 09:28:59 2016 UTC-Thu Jul 14 09:28:59 2016 UTC (0.010 )  Run 303846, LB 582 (1468488539979676672.000000,1468488539969676032.000000)
Event Veto ['NoiseBurst'], Thu Jul 14 09:34:32 2016 UTC-Thu Jul 14 09:34:32 2016 UTC (0.010 )  Run 303846, LB 587 (1468488872556326656.000000,1468488872546326016.000000)
Event Veto ['NoiseBurst'], Thu Jul 14 09:46:23 2016 UTC-Thu Jul 14 09:46:23 2016 UTC (0.010 )  Run 303846, LB 600 (1468489583411496448.000000,1468489583401253376.000000)
Event Veto ['NoiseBurst'], Thu Jul 14 09:51:41 2016 UTC-Thu Jul 14 09:51:41 2016 UTC (0.010 )  Run 303846, LB 605 (1468489901347738112.000000,1468489901337737728.000000)
Event Veto ['NoiseBurst'], Thu Jul 14 09:55:02 2016 UTC-Thu Jul 14 09:55:02 2016 UTC (0.010 )  Run 303846, LB 609 (1468490102841884928.000000,1468490102831760384.000000)
Event Veto ['DataCorruption'], Thu Jul 14 09:55:22 2016 UTC-Thu Jul 14 09:55:26 2016 UTC (3.679 )  Run 303846, LB 609 (1468490126297452800.000000,1468490122618217728.000000)
Event Veto ['NoiseBurst'], Thu Jul 14 10:05:06 2016 UTC-Thu Jul 14 10:05:06 2016 UTC (0.010 )  Run 303846, LB 619 (1468490706022377216.000000,1468490706012099328.000000)
Event Veto ['NoiseBurst'], Thu Jul 14 10:21:07 2016 UTC-Thu Jul 14 10:21:07 2016 UTC (0.010 )  Run 303846, LB 637 (1468491667645572864.000000,1468491667635572736.000000)
Event Veto ['NoiseBurst'], Thu Jul 14 10:21:32 2016 UTC-Thu Jul 14 10:21:32 2016 UTC (0.010 )  Run 303846, LB 638 (1468491692461421312.000000,1468491692451420672.000000)
Event Veto ['NoiseBurst'], Thu Jul 14 10:21:40 2016 UTC-Thu Jul 14 10:21:40 2016 UTC (0.010 )  Run 303846, LB 638 (1468491700020514304.000000,1468491700010513664.000000)
Event Veto ['NoiseBurst'], Thu Jul 14 10:29:09 2016 UTC-Thu Jul 14 10:29:09 2016 UTC (0.010 )  Run 303846, LB 645 (1468492149818673408.000000,1468492149808517888.000000)
Event Veto ['NoiseBurst'], Thu Jul 14 10:50:12 2016 UTC-Thu Jul 14 10:50:12 2016 UTC (0.010 )  Run 303846, LB 667 (1468493412560137216.000000,1468493412549828608.000000)
Event Veto ['NoiseBurst'], Thu Jul 14 10:50:15 2016 UTC-Thu Jul 14 10:50:15 2016 UTC (0.014 )  Run 303846, LB 668 (1468493415741582336.000000,1468493415727890944.000000)
Event Veto ['NoiseBurst'], Thu Jul 14 10:52:14 2016 UTC-Thu Jul 14 10:52:14 2016 UTC (0.010 )  Run 303846, LB 670 (1468493534534387968.000000,1468493534524292352.000000)
Event Veto ['NoiseBurst'], Thu Jul 14 10:53:14 2016 UTC-Thu Jul 14 10:53:14 2016 UTC (0.010 )  Run 303846, LB 670 (1468493594014191360.000000,1468493594003964928.000000)
Event Veto ['NoiseBurst'], Thu Jul 14 11:00:11 2016 UTC-Thu Jul 14 11:00:11 2016 UTC (0.010 )  Run 303846, LB 678 (1468494011219814400.000000,1468494011209735424.000000)
Event Veto ['NoiseBurst'], Thu Jul 14 11:07:05 2016 UTC-Thu Jul 14 11:07:05 2016 UTC (0.010 )  Run 303846, LB 685 (1468494425062414080.000000,1468494425052263936.000000)
Event Veto ['NoiseBurst'], Thu Jul 14 11:08:53 2016 UTC-Thu Jul 14 11:08:53 2016 UTC (0.010 )  Run 303846, LB 686 (1468494533691659776.000000,1468494533681659392.000000)
Event Veto ['NoiseBurst'], Thu Jul 14 11:13:15 2016 UTC-Thu Jul 14 11:13:15 2016 UTC (0.010 )  Run 303846, LB 691 (1468494795344410880.000000,1468494795334409472.000000)
Event Veto ['NoiseBurst'], Thu Jul 14 11:13:47 2016 UTC-Thu Jul 14 11:13:47 2016 UTC (0.010 )  Run 303846, LB 691 (1468494827775677952.000000,1468494827765677568.000000)
Event Veto ['NoiseBurst'], Thu Jul 14 11:18:12 2016 UTC-Thu Jul 14 11:18:12 2016 UTC (0.010 )  Run 303846, LB 696 (1468495092872611840.000000,1468495092862611200.000000)
Event Veto ['NoiseBurst'], Thu Jul 14 11:53:14 2016 UTC-Thu Jul 14 11:53:14 2016 UTC (0.010 )  Run 303846, LB 734 (1468497194212338176.000000,1468497194202244864.000000)
Event Veto ['NoiseBurst'], Thu Jul 14 12:24:52 2016 UTC-Thu Jul 14 12:24:52 2016 UTC (0.010 )  Run 303846, LB 767 (1468499092389451520.000000,1468499092379240704.000000)
Event Veto ['NoiseBurst'], Thu Jul 14 12:25:00 2016 UTC-Thu Jul 14 12:25:00 2016 UTC (0.010 )  Run 303846, LB 767 (1468499100779816192.000000,1468499100769815552.000000)
Event Veto ['NoiseBurst'], Thu Jul 14 12:28:42 2016 UTC-Thu Jul 14 12:28:42 2016 UTC (0.010 )  Run 303846, LB 771 (1468499322627607552.000000,1468499322617399040.000000)
Event Veto ['NoiseBurst'], Thu Jul 14 12:35:56 2016 UTC-Thu Jul 14 12:35:56 2016 UTC (0.010 )  Run 303846, LB 778 (1468499756737453312.000000,1468499756727452672.000000)
Event Veto ['NoiseBurst'], Thu Jul 14 12:37:44 2016 UTC-Thu Jul 14 12:37:44 2016 UTC (0.010 )  Run 303846, LB 780 (1468499864522498048.000000,1468499864512348416.000000)
Event Veto ['NoiseBurst'], Thu Jul 14 12:42:32 2016 UTC-Thu Jul 14 12:42:32 2016 UTC (0.010 )  Run 303846, LB 785 (1468500152498753024.000000,1468500152488538624.000000)
Event Veto ['NoiseBurst'], Thu Jul 14 12:45:04 2016 UTC-Thu Jul 14 12:45:04 2016 UTC (0.010 )  Run 303846, LB 787 (1468500304417868544.000000,1468500304407867904.000000)
Event Veto ['NoiseBurst'], Thu Jul 14 12:45:28 2016 UTC-Thu Jul 14 12:45:28 2016 UTC (0.010 )  Run 303846, LB 788 (1468500328023535616.000000,1468500328013266688.000000)
Event Veto ['NoiseBurst'], Thu Jul 14 12:45:43 2016 UTC-Thu Jul 14 12:45:43 2016 UTC (0.016 )  Run 303846, LB 788 (1468500343300362752.000000,1468500343284001280.000000)
Event Veto ['NoiseBurst'], Thu Jul 14 12:47:55 2016 UTC-Thu Jul 14 12:47:55 2016 UTC (0.010 )  Run 303846, LB 790 (1468500475369772032.000000,1468500475359758848.000000)
Event Veto ['NoiseBurst'], Thu Jul 14 12:57:53 2016 UTC-Thu Jul 14 12:57:53 2016 UTC (0.011 )  Run 303846, LB 800 (1468501073969020672.000000,1468501073957985280.000000)
Event Veto ['NoiseBurst'], Thu Jul 14 13:09:45 2016 UTC-Thu Jul 14 13:09:45 2016 UTC (0.012 )  Run 303846, LB 813 (1468501785086484224.000000,1468501785074268416.000000)
Event Veto ['NoiseBurst'], Thu Jul 14 13:10:27 2016 UTC-Thu Jul 14 13:10:27 2016 UTC (0.010 )  Run 303846, LB 814 (1468501827361199360.000000,1468501827351198720.000000)
Event Veto ['NoiseBurst'], Thu Jul 14 13:25:28 2016 UTC-Thu Jul 14 13:25:28 2016 UTC (0.010 )  Run 303846, LB 829 (1468502728825128704.000000,1468502728815128320.000000)
Event Veto ['NoiseBurst'], Thu Jul 14 13:32:06 2016 UTC-Thu Jul 14 13:32:06 2016 UTC (0.010 )  Run 303846, LB 836 (1468503126705098496.000000,1468503126694987520.000000)
Event Veto ['NoiseBurst'], Thu Jul 14 13:39:13 2016 UTC-Thu Jul 14 13:39:13 2016 UTC (0.010 )  Run 303846, LB 843 (1468503553319285504.000000,1468503553309284864.000000)
Event Veto ['NoiseBurst'], Thu Jul 14 13:40:03 2016 UTC-Thu Jul 14 13:40:03 2016 UTC (0.016 )  Run 303846, LB 843 (1468503603858107648.000000,1468503603842231808.000000)
Event Veto ['NoiseBurst'], Thu Jul 14 13:57:27 2016 UTC-Thu Jul 14 13:57:27 2016 UTC (0.010 )  Run 303846, LB 863 (1468504647612003072.000000,1468504647602002688.000000)
Event Veto ['NoiseBurst'], Thu Jul 14 14:02:00 2016 UTC-Thu Jul 14 14:02:01 2016 UTC (0.010 )  Run 303846, LB 868 (1468504921000251904.000000,1468504920989940224.000000)
Event Veto ['NoiseBurst'], Thu Jul 14 14:19:20 2016 UTC-Thu Jul 14 14:19:20 2016 UTC (0.010 )  Run 303846, LB 886 (1468505960016775936.000000,1468505960006507264.000000)
Event Veto ['NoiseBurst'], Thu Jul 14 14:29:53 2016 UTC-Thu Jul 14 14:29:53 2016 UTC (0.010 )  Run 303846, LB 897 (1468506593695624960.000000,1468506593685401088.000000)
Event Veto ['NoiseBurst'], Thu Jul 14 14:56:01 2016 UTC-Thu Jul 14 14:56:01 2016 UTC (0.010 )  Run 303846, LB 923 (1468508161369162496.000000,1468508161358905088.000000)
Event Veto ['NoiseBurst'], Thu Jul 14 14:58:01 2016 UTC-Thu Jul 14 14:58:01 2016 UTC (0.017 )  Run 303846, LB 925 (1468508281228478208.000000,1468508281211876608.000000)
Event Veto ['NoiseBurst'], Thu Jul 14 15:03:10 2016 UTC-Thu Jul 14 15:03:10 2016 UTC (0.010 )  Run 303846, LB 930 (1468508590907108608.000000,1468508590896867072.000000)
Event Veto ['NoiseBurst'], Thu Jul 14 15:04:54 2016 UTC-Thu Jul 14 15:04:54 2016 UTC (0.010 )  Run 303846, LB 932 (1468508694999737344.000000,1468508694989736704.000000)
Event Veto ['NoiseBurst'], Thu Jul 14 15:07:38 2016 UTC-Thu Jul 14 15:07:38 2016 UTC (0.010 )  Run 303846, LB 935 (1468508858069251840.000000,1468508858059251456.000000)
Event Veto ['NoiseBurst'], Thu Jul 14 15:07:56 2016 UTC-Thu Jul 14 15:07:56 2016 UTC (0.010 )  Run 303846, LB 936 (1468508876299346432.000000,1468508876289346048.000000)
Event Veto ['NoiseBurst'], Thu Jul 14 15:09:52 2016 UTC-Thu Jul 14 15:09:52 2016 UTC (0.010 )  Run 303846, LB 938 (1468508992495704064.000000,1468508992485703424.000000)
Event Veto ['NoiseBurst'], Thu Jul 14 15:10:26 2016 UTC-Thu Jul 14 15:10:26 2016 UTC (0.011 )  Run 303846, LB 938 (1468509026495713536.000000,1468509026485120512.000000)
Event Veto ['NoiseBurst'], Thu Jul 14 15:12:09 2016 UTC-Thu Jul 14 15:12:09 2016 UTC (0.010 )  Run 303846, LB 940 (1468509129607101952.000000,1468509129597029376.000000)
Event Veto ['NoiseBurst'], Thu Jul 14 15:21:40 2016 UTC-Thu Jul 14 15:21:40 2016 UTC (0.010 )  Run 303846, LB 950 (1468509700246692864.000000,1468509700236475904.000000)
Event Veto ['NoiseBurst'], Thu Jul 14 15:26:50 2016 UTC-Thu Jul 14 15:26:50 2016 UTC (0.010 )  Run 303846, LB 955 (1468510010092661248.000000,1468510010082419200.000000)
Event Veto ['NoiseBurst'], Thu Jul 14 15:27:40 2016 UTC-Thu Jul 14 15:27:40 2016 UTC (0.010 )  Run 303846, LB 956 (1468510060948727808.000000,1468510060938459136.000000)
Event Veto ['NoiseBurst'], Thu Jul 14 15:50:40 2016 UTC-Thu Jul 14 15:50:40 2016 UTC (0.010 )  Run 303846, LB 978 (1468511440815706624.000000,1468511440805706240.000000)
Event Veto ['NoiseBurst'], Thu Jul 14 15:50:47 2016 UTC-Thu Jul 14 15:50:47 2016 UTC (0.010 )  Run 303846, LB 979 (1468511447815452160.000000,1468511447805352192.000000)
Event Veto ['NoiseBurst'], Thu Jul 14 15:58:28 2016 UTC-Thu Jul 14 15:58:28 2016 UTC (0.010 )  Run 303846, LB 986 (1468511908849249280.000000,1468511908838976256.000000)
Event Veto ['NoiseBurst'], Thu Jul 14 16:14:04 2016 UTC-Thu Jul 14 16:14:04 2016 UTC (0.019 )  Run 303846, LB 1004 (1468512844955708928.000000,1468512844937046784.000000)
Event Veto ['NoiseBurst'], Thu Jul 14 16:17:15 2016 UTC-Thu Jul 14 16:17:15 2016 UTC (0.010 )  Run 303846, LB 1008 (1468513035652249088.000000,1468513035641948672.000000)
Event Veto ['NoiseBurst'], Thu Jul 14 16:49:44 2016 UTC-Thu Jul 14 16:49:44 2016 UTC (0.010 )  Run 303846, LB 1042 (1468514984136733952.000000,1468514984126530048.000000)
Event Veto ['NoiseBurst'], Thu Jul 14 16:53:46 2016 UTC-Thu Jul 14 16:53:46 2016 UTC (0.010 )  Run 303846, LB 1046 (1468515226187841536.000000,1468515226177841152.000000)
Event Veto ['NoiseBurst'], Thu Jul 14 16:59:05 2016 UTC-Thu Jul 14 16:59:05 2016 UTC (0.010 )  Run 303846, LB 1051 (1468515545864121856.000000,1468515545853890816.000000)
Event Veto ['NoiseBurst'], Thu Jul 14 17:00:31 2016 UTC-Thu Jul 14 17:00:31 2016 UTC (0.010 )  Run 303846, LB 1052 (1468515631759196672.000000,1468515631749196288.000000)
Event Veto ['NoiseBurst'], Thu Jul 14 17:06:47 2016 UTC-Thu Jul 14 17:06:48 2016 UTC (0.010 )  Run 303846, LB 1059 (1468516008006452992.000000,1468516007996248832.000000)
Event Veto ['NoiseBurst'], Thu Jul 14 17:16:58 2016 UTC-Thu Jul 14 17:16:58 2016 UTC (0.012 )  Run 303846, LB 1069 (1468516618746254592.000000,1468516618734643456.000000)
Event Veto ['NoiseBurst'], Thu Jul 14 17:17:36 2016 UTC-Thu Jul 14 17:17:36 2016 UTC (0.010 )  Run 303846, LB 1069 (1468516656839784704.000000,1468516656829384960.000000)
Event Veto ['NoiseBurst'], Thu Jul 14 17:17:38 2016 UTC-Thu Jul 14 17:17:38 2016 UTC (0.010 )  Run 303846, LB 1069 (1468516658634492416.000000,1468516658624491776.000000)
Event Veto ['NoiseBurst'], Thu Jul 14 17:21:48 2016 UTC-Thu Jul 14 17:21:48 2016 UTC (0.010 )  Run 303846, LB 1074 (1468516908750928896.000000,1468516908740706304.000000)
Event Veto ['NoiseBurst'], Thu Jul 14 17:24:06 2016 UTC-Thu Jul 14 17:24:06 2016 UTC (0.010 )  Run 303846, LB 1078 (1468517046768711680.000000,1468517046758472448.000000)
Event Veto ['NoiseBurst'], Thu Jul 14 17:24:20 2016 UTC-Thu Jul 14 17:24:20 2016 UTC (0.011 )  Run 303846, LB 1078 (1468517060201813248.000000,1468517060191238400.000000)
Event Veto ['NoiseBurst'], Thu Jul 14 17:27:35 2016 UTC-Thu Jul 14 17:27:35 2016 UTC (0.010 )  Run 303846, LB 1081 (1468517255188859904.000000,1468517255178658048.000000)
Event Veto ['NoiseBurst'], Thu Jul 14 17:28:20 2016 UTC-Thu Jul 14 17:28:20 2016 UTC (0.017 )  Run 303846, LB 1082 (1468517300449157888.000000,1468517300432599296.000000)
Event Veto ['NoiseBurst'], Thu Jul 14 17:28:47 2016 UTC-Thu Jul 14 17:28:47 2016 UTC (0.010 )  Run 303846, LB 1082 (1468517327589053952.000000,1468517327578795008.000000)
Event Veto ['NoiseBurst'], Thu Jul 14 17:41:03 2016 UTC-Thu Jul 14 17:41:03 2016 UTC (0.010 )  Run 303846, LB 1094 (1468518063214280192.000000,1468518063204050944.000000)
Event Veto ['NoiseBurst'], Thu Jul 14 18:08:14 2016 UTC-Thu Jul 14 18:08:14 2016 UTC (0.010 )  Run 303846, LB 1122 (1468519694290123264.000000,1468519694279862784.000000)
Event Veto ['NoiseBurst'], Thu Jul 14 18:28:23 2016 UTC-Thu Jul 14 18:28:23 2016 UTC (0.010 )  Run 303846, LB 1144 (1468520903839588096.000000,1468520903829122816.000000)
Event Veto ['NoiseBurst'], Thu Jul 14 18:28:32 2016 UTC-Thu Jul 14 18:28:32 2016 UTC (0.010 )  Run 303846, LB 1144 (1468520912543570688.000000,1468520912533490688.000000)
Event Veto ['DataCorruption'], Thu Jul 14 19:16:35 2016 UTC-Thu Jul 14 19:16:39 2016 UTC (4.433 )  Run 303846, LBs 1194-1195 (1468523799836999168.000000,1468523795403992320.000000)
Event Veto ['NoiseBurst'], Thu Jul 14 19:28:47 2016 UTC-Thu Jul 14 19:28:47 2016 UTC (0.016 )  Run 303846, LB 1208 (1468524527236278784.000000,1468524527220757760.000000)
Event Veto ['NoiseBurst'], Thu Jul 14 19:32:21 2016 UTC-Thu Jul 14 19:32:21 2016 UTC (0.010 )  Run 303846, LB 1212 (1468524741873789440.000000,1468524741863788544.000000)
Event Veto ['NoiseBurst'], Thu Jul 14 19:40:23 2016 UTC-Thu Jul 14 19:40:23 2016 UTC (0.010 )  Run 303846, LB 1220 (1468525223785997824.000000,1468525223775774976.000000)
Event Veto ['NoiseBurst'], Thu Jul 14 19:40:45 2016 UTC-Thu Jul 14 19:40:45 2016 UTC (0.010 )  Run 303846, LB 1220 (1468525245202543360.000000,1468525245192542720.000000)
Event Veto ['NoiseBurst'], Thu Jul 14 19:43:55 2016 UTC-Thu Jul 14 19:43:55 2016 UTC (0.010 )  Run 303846, LB 1223 (1468525435924517120.000000,1468525435914516224.000000)
Event Veto ['NoiseBurst'], Thu Jul 14 19:49:06 2016 UTC-Thu Jul 14 19:49:06 2016 UTC (0.010 )  Run 303846, LB 1229 (1468525746617815808.000000,1468525746607815680.000000)
Event Veto ['NoiseBurst'], Thu Jul 14 19:54:03 2016 UTC-Thu Jul 14 19:54:03 2016 UTC (0.012 )  Run 303846, LB 1234 (1468526043398382848.000000,1468526043386245888.000000)
Event Veto ['NoiseBurst'], Thu Jul 14 19:56:13 2016 UTC-Thu Jul 14 19:56:13 2016 UTC (0.014 )  Run 303846, LB 1236 (1468526173184290048.000000,1468526173170014208.000000)
Event Veto ['NoiseBurst'], Thu Jul 14 20:00:39 2016 UTC-Thu Jul 14 20:00:39 2016 UTC (0.010 )  Run 303846, LB 1241 (1468526439242735872.000000,1468526439232483328.000000)
Event Veto ['NoiseBurst'], Thu Jul 14 20:07:05 2016 UTC-Thu Jul 14 20:07:05 2016 UTC (0.010 )  Run 303846, LB 1248 (1468526825148263936.000000,1468526825138149632.000000)
Event Veto ['NoiseBurst'], Thu Jul 14 20:12:47 2016 UTC-Thu Jul 14 20:12:47 2016 UTC (0.010 )  Run 303846, LB 1254 (1468527167689681152.000000,1468527167679680256.000000)
Event Veto ['NoiseBurst'], Thu Jul 14 20:53:21 2016 UTC-Thu Jul 14 20:53:21 2016 UTC (0.010 )  Run 303846, LB 1296 (1468529601051645952.000000,1468529601041645568.000000)
Event Veto ['NoiseBurst'], Thu Jul 14 21:01:56 2016 UTC-Thu Jul 14 21:01:56 2016 UTC (0.010 )  Run 303846, LB 1304 (1468530116020996864.000000,1468530116010742528.000000)
Event Veto ['NoiseBurst'], Thu Jul 14 21:02:39 2016 UTC-Thu Jul 14 21:02:39 2016 UTC (0.010 )  Run 303846, LB 1305 (1468530159270876928.000000,1468530159260667648.000000)
Event Veto ['NoiseBurst'], Thu Jul 14 21:02:44 2016 UTC-Thu Jul 14 21:02:44 2016 UTC (0.010 )  Run 303846, LB 1305 (1468530164865773312.000000,1468530164855772672.000000)
Event Veto ['NoiseBurst'], Thu Jul 14 21:05:06 2016 UTC-Thu Jul 14 21:05:06 2016 UTC (0.010 )  Run 303846, LB 1308 (1468530306435573504.000000,1468530306425573376.000000)
Event Veto ['NoiseBurst'], Thu Jul 14 21:21:13 2016 UTC-Thu Jul 14 21:21:13 2016 UTC (0.010 )  Run 303846, LB 1324 (1468531273756765952.000000,1468531273746458112.000000)
Event Veto ['NoiseBurst'], Thu Jul 14 21:24:29 2016 UTC-Thu Jul 14 21:24:29 2016 UTC (0.010 )  Run 303846, LB 1328 (1468531469647821056.000000,1468531469637605376.000000)
Event Veto ['NoiseBurst'], Thu Jul 14 21:28:42 2016 UTC-Thu Jul 14 21:28:42 2016 UTC (0.010 )  Run 303846, LB 1332 (1468531722091242240.000000,1468531722081241600.000000)
Event Veto ['NoiseBurst'], Thu Jul 14 21:43:20 2016 UTC-Thu Jul 14 21:43:20 2016 UTC (0.010 )  Run 303846, LB 1347 (1468532600995859200.000000,1468532600985859072.000000)
Event Veto ['NoiseBurst'], Thu Jul 14 21:48:05 2016 UTC-Thu Jul 14 21:48:05 2016 UTC (0.010 )  Run 303846, LB 1351 (1468532885081458176.000000,1468532885071457280.000000)
Event Veto ['NoiseBurst'], Thu Jul 14 21:49:59 2016 UTC-Thu Jul 14 21:49:59 2016 UTC (0.010 )  Run 303846, LB 1353 (1468532999506011904.000000,1468532999496011520.000000)
Event Veto ['NoiseBurst'], Thu Jul 14 21:56:19 2016 UTC-Thu Jul 14 21:56:19 2016 UTC (0.010 )  Run 303846, LB 1362 (1468533379170613504.000000,1468533379160221952.000000)
Event Veto ['NoiseBurst'], Thu Jul 14 22:00:31 2016 UTC-Thu Jul 14 22:00:31 2016 UTC (0.010 )  Run 303846, LB 1366 (1468533631696851712.000000,1468533631686446848.000000)
Event Veto ['NoiseBurst'], Thu Jul 14 22:02:36 2016 UTC-Thu Jul 14 22:02:36 2016 UTC (0.010 )  Run 303846, LB 1368 (1468533756971162112.000000,1468533756961161472.000000)
Event Veto ['NoiseBurst'], Thu Jul 14 22:17:35 2016 UTC-Thu Jul 14 22:17:35 2016 UTC (0.010 )  Run 303846, LB 1383 (1468534655774976000.000000,1468534655764865280.000000)
Event Veto ['NoiseBurst'], Thu Jul 14 22:18:50 2016 UTC-Thu Jul 14 22:18:50 2016 UTC (0.010 )  Run 303846, LB 1384 (1468534730482323200.000000,1468534730472110848.000000)
Event Veto ['NoiseBurst'], Thu Jul 14 22:24:24 2016 UTC-Thu Jul 14 22:24:24 2016 UTC (0.053 )  Run 303846, LB 1390 (1468535064378086912.000000,1468535064324879616.000000)
Event Veto ['NoiseBurst'], Thu Jul 14 22:24:24 2016 UTC-Thu Jul 14 22:24:24 2016 UTC (0.011 )  Run 303846, LB 1390 (1468535064400753152.000000,1468535064389618176.000000)
Event Veto ['NoiseBurst'], Thu Jul 14 22:24:24 2016 UTC-Thu Jul 14 22:24:24 2016 UTC (0.034 )  Run 303846, LB 1390 (1468535064438573056.000000,1468535064405049856.000000)
Event Veto ['NoiseBurst'], Thu Jul 14 22:24:58 2016 UTC-Thu Jul 14 22:24:58 2016 UTC (0.010 )  Run 303846, LB 1390 (1468535098754619136.000000,1468535098744596736.000000)
Event Veto ['NoiseBurst'], Thu Jul 14 22:49:07 2016 UTC-Thu Jul 14 22:49:07 2016 UTC (0.010 )  Run 303846, LB 1415 (1468536547411013120.000000,1468536547401012224.000000)
Event Veto ['NoiseBurst'], Thu Jul 14 22:51:54 2016 UTC-Thu Jul 14 22:51:54 2016 UTC (0.010 )  Run 303846, LB 1417 (1468536714962387712.000000,1468536714952088576.000000)
Event Veto ['NoiseBurst'], Thu Jul 14 23:10:38 2016 UTC-Thu Jul 14 23:10:38 2016 UTC (0.011 )  Run 303846, LB 1436 (1468537838662443520.000000,1468537838651922688.000000)
Event Veto ['NoiseBurst'], Thu Jul 14 23:36:37 2016 UTC-Thu Jul 14 23:36:37 2016 UTC (0.010 )  Run 303846, LB 1462 (1468539397291859200.000000,1468539397281695232.000000)
Event Veto ['NoiseBurst'], Thu Jul 14 23:47:59 2016 UTC-Thu Jul 14 23:48:00 2016 UTC (0.010 )  Run 303846, LB 1473 (1468540080008291072.000000,1468540079998104064.000000)
Event Veto ['NoiseBurst'], Thu Jul 14 23:57:48 2016 UTC-Thu Jul 14 23:57:48 2016 UTC (0.010 )  Run 303846, LB 1483 (1468540668782633984.000000,1468540668772633344.000000)
Event Veto ['NoiseBurst'], Fri Jul 15 00:07:54 2016 UTC-Fri Jul 15 00:07:54 2016 UTC (0.010 )  Run 303846, LB 1494 (1468541274216745984.000000,1468541274206745600.000000)
Event Veto ['NoiseBurst'], Fri Jul 15 00:09:19 2016 UTC-Fri Jul 15 00:09:19 2016 UTC (0.010 )  Run 303846, LB 1495 (1468541359371704576.000000,1468541359361420544.000000)
Event Veto ['NoiseBurst'], Fri Jul 15 00:10:08 2016 UTC-Fri Jul 15 00:10:08 2016 UTC (0.010 )  Run 303846, LB 1496 (1468541408980740608.000000,1468541408970739712.000000)
Event Veto ['NoiseBurst'], Fri Jul 15 00:17:10 2016 UTC-Fri Jul 15 00:17:10 2016 UTC (0.010 )  Run 303846, LB 1503 (1468541830927145216.000000,1468541830916868096.000000)
Event Veto ['NoiseBurst'], Fri Jul 15 00:47:04 2016 UTC-Fri Jul 15 00:47:04 2016 UTC (0.010 )  Run 303846, LB 1533 (1468543624069590784.000000,1468543624059114752.000000)
Event Veto ['NoiseBurst'], Fri Jul 15 00:53:56 2016 UTC-Fri Jul 15 00:53:56 2016 UTC (0.017 )  Run 303846, LB 1540 (1468544036535774464.000000,1468544036518421760.000000)
Event Veto ['NoiseBurst'], Fri Jul 15 01:26:15 2016 UTC-Fri Jul 15 01:26:15 2016 UTC (0.010 )  Run 303846, LB 1572 (1468545975947686912.000000,1468545975937207040.000000)
Event Veto ['NoiseBurst'], Fri Jul 15 01:34:18 2016 UTC-Fri Jul 15 01:34:18 2016 UTC (0.010 )  Run 303846, LB 1580 (1468546458847538176.000000,1468546458837326336.000000)
Event Veto ['NoiseBurst'], Fri Jul 15 01:57:37 2016 UTC-Fri Jul 15 01:57:37 2016 UTC (0.010 )  Run 303846, LB 1603 (1468547857112912128.000000,1468547857102911744.000000)
Event Veto ['NoiseBurst'], Fri Jul 15 02:26:59 2016 UTC-Fri Jul 15 02:26:59 2016 UTC (0.010 )  Run 303846, LB 1634 (1468549619919389952.000000,1468549619909094912.000000)
Event Veto ['NoiseBurst'], Fri Jul 15 02:30:59 2016 UTC-Fri Jul 15 02:30:59 2016 UTC (0.010 )  Run 303846, LB 1638 (1468549859046108160.000000,1468549859035840512.000000)
Event Veto ['NoiseBurst'], Fri Jul 15 02:38:13 2016 UTC-Fri Jul 15 02:38:13 2016 UTC (0.010 )  Run 303846, LB 1645 (1468550293053968896.000000,1468550293043968512.000000)
Event Veto ['NoiseBurst'], Fri Jul 15 02:40:04 2016 UTC-Fri Jul 15 02:40:04 2016 UTC (0.010 )  Run 303846, LB 1647 (1468550404473730816.000000,1468550404463730432.000000)
Event Veto ['NoiseBurst'], Fri Jul 15 03:32:31 2016 UTC-Fri Jul 15 03:32:31 2016 UTC (0.010 )  Run 303846, LB 1703 (1468553551667590400.000000,1468553551657557504.000000)
Event Veto ['NoiseBurst'], Fri Jul 15 03:45:07 2016 UTC-Fri Jul 15 03:45:07 2016 UTC (0.010 )  Run 303846, LB 1716 (1468554307995767552.000000,1468554307985766912.000000)
Event Veto ['NoiseBurst'], Fri Jul 15 03:50:08 2016 UTC-Fri Jul 15 03:50:08 2016 UTC (0.010 )  Run 303846, LB 1721 (1468554608242882048.000000,1468554608232694784.000000)
Event Veto ['NoiseBurst'], Fri Jul 15 04:50:13 2016 UTC-Fri Jul 15 04:50:13 2016 UTC (0.010 )  Run 303846, LB 1784 (1468558213943359744.000000,1468558213933145600.000000)
Event Veto ['NoiseBurst'], Fri Jul 15 04:55:04 2016 UTC-Fri Jul 15 04:55:04 2016 UTC (0.010 )  Run 303846, LB 1790 (1468558504565346816.000000,1468558504555201024.000000)
Event Veto ['DataCorruption'], Fri Jul 15 05:06:32 2016 UTC-Fri Jul 15 05:06:33 2016 UTC (0.638 )  Run 303846, LB 1802 (1468559193391832576.000000,1468559192753362944.000000)
Event Veto ['DataCorruption'], Fri Jul 15 05:06:33 2016 UTC-Fri Jul 15 05:06:34 2016 UTC (1.374 )  Run 303846, LB 1802 (1468559194845005568.000000,1468559193470694656.000000)
Event Veto ['DataCorruption'], Fri Jul 15 05:06:35 2016 UTC-Fri Jul 15 05:06:38 2016 UTC (3.511 )  Run 303846, LB 1802 (1468559198624966400.000000,1468559195114166528.000000)
Event Veto ['DataCorruption'], Fri Jul 15 05:06:38 2016 UTC-Fri Jul 15 05:06:39 2016 UTC (0.585 )  Run 303846, LB 1802 (1468559199325958400.000000,1468559198740972544.000000)
Event Veto ['DataCorruption'], Fri Jul 15 05:06:40 2016 UTC-Fri Jul 15 05:06:41 2016 UTC (0.937 )  Run 303846, LB 1802 (1468559201540485376.000000,1468559200603331840.000000)
Event Veto ['DataCorruption'], Fri Jul 15 05:06:41 2016 UTC-Fri Jul 15 05:06:42 2016 UTC (0.666 )  Run 303846, LB 1802 (1468559202388774400.000000,1468559201722500608.000000)
Event Veto ['DataCorruption'], Fri Jul 15 05:06:42 2016 UTC-Fri Jul 15 05:06:43 2016 UTC (0.599 )  Run 303846, LB 1802 (1468559203243655680.000000,1468559202644511232.000000)
Event Veto ['DataCorruption'], Fri Jul 15 05:06:43 2016 UTC-Fri Jul 15 05:06:44 2016 UTC (1.152 )  Run 303846, LB 1802 (1468559204610245376.000000,1468559203457931264.000000)
Event Veto ['DataCorruption'], Fri Jul 15 05:06:45 2016 UTC-Fri Jul 15 05:06:47 2016 UTC (1.752 )  Run 303846, LB 1802 (1468559207175245824.000000,1468559205423343872.000000)
Event Veto ['DataCorruption'], Fri Jul 15 05:06:47 2016 UTC-Fri Jul 15 05:06:49 2016 UTC (1.796 )  Run 303846, LB 1802 (1468559209434906112.000000,1468559207638703872.000000)
Event Veto ['DataCorruption'], Fri Jul 15 05:06:49 2016 UTC-Fri Jul 15 05:06:50 2016 UTC (0.704 )  Run 303846, LB 1802 (1468559210377729792.000000,1468559209674062592.000000)
Event Veto ['DataCorruption'], Fri Jul 15 05:06:50 2016 UTC-Fri Jul 15 05:06:52 2016 UTC (1.906 )  Run 303846, LB 1802 (1468559212345498112.000000,1468559210439603712.000000)
Event Veto ['DataCorruption'], Fri Jul 15 05:06:52 2016 UTC-Fri Jul 15 05:06:53 2016 UTC (0.569 )  Run 303846, LB 1802 (1468559213059752448.000000,1468559212490696960.000000)
Event Veto ['DataCorruption'], Fri Jul 15 05:06:53 2016 UTC-Fri Jul 15 05:06:54 2016 UTC (1.073 )  Run 303846, LB 1802 (1468559214486733312.000000,1468559213414158848.000000)
Event Veto ['DataCorruption'], Fri Jul 15 05:06:55 2016 UTC-Fri Jul 15 05:06:56 2016 UTC (0.600 )  Run 303846, LB 1802 (1468559216027611648.000000,1468559215428096768.000000)
Event Veto ['DataCorruption'], Fri Jul 15 05:06:56 2016 UTC-Fri Jul 15 05:06:59 2016 UTC (2.426 )  Run 303846, LB 1802 (1468559219063735552.000000,1468559216637724160.000000)
Event Veto ['DataCorruption'], Fri Jul 15 05:06:59 2016 UTC-Fri Jul 15 05:07:00 2016 UTC (1.182 )  Run 303846, LB 1802 (1468559220717974272.000000,1468559219536371456.000000)
Event Veto ['DataCorruption'], Fri Jul 15 05:07:00 2016 UTC-Fri Jul 15 05:07:01 2016 UTC (0.909 )  Run 303846, LB 1802 (1468559221796458496.000000,1468559220887592192.000000)
Event Veto ['DataCorruption'], Fri Jul 15 05:07:02 2016 UTC-Fri Jul 15 05:07:02 2016 UTC (0.591 )  Run 303846, LB 1802 (1468559222808025600.000000,1468559222216925696.000000)
Event Veto ['DataCorruption'], Fri Jul 15 05:07:02 2016 UTC-Fri Jul 15 05:07:03 2016 UTC (0.790 )  Run 303846, LB 1802 (1468559223639359744.000000,1468559222849203968.000000)
Event Veto ['DataCorruption'], Fri Jul 15 05:07:05 2016 UTC-Fri Jul 15 05:07:05 2016 UTC (0.521 )  Run 303846, LB 1802 (1468559225974868736.000000,1468559225454112256.000000)
Event Veto ['DataCorruption'], Fri Jul 15 05:07:06 2016 UTC-Fri Jul 15 05:07:06 2016 UTC (0.580 )  Run 303846, LB 1802 (1468559226985793792.000000,1468559226406081792.000000)
Event Veto ['DataCorruption'], Fri Jul 15 05:07:07 2016 UTC-Fri Jul 15 05:07:08 2016 UTC (1.580 )  Run 303846, LB 1802 (1468559228820060416.000000,1468559227240022016.000000)
Event Veto ['DataCorruption'], Fri Jul 15 05:07:09 2016 UTC-Fri Jul 15 05:07:11 2016 UTC (2.175 )  Run 303846, LB 1802 (1468559231514319872.000000,1468559229338959104.000000)
Event Veto ['DataCorruption'], Fri Jul 15 05:07:12 2016 UTC-Fri Jul 15 05:07:12 2016 UTC (0.616 )  Run 303846, LB 1802 (1468559232628338688.000000,1468559232012230144.000000)
Event Veto ['DataCorruption'], Fri Jul 15 05:07:14 2016 UTC-Fri Jul 15 05:07:15 2016 UTC (0.626 )  Run 303846, LB 1802 (1468559235318476032.000000,1468559234692347136.000000)
Event Veto ['DataCorruption'], Fri Jul 15 05:07:15 2016 UTC-Fri Jul 15 05:07:17 2016 UTC (1.844 )  Run 303846, LB 1802 (1468559237409667584.000000,1468559235565457152.000000)
Event Veto ['DataCorruption'], Fri Jul 15 05:07:18 2016 UTC-Fri Jul 15 05:07:19 2016 UTC (0.580 )  Run 303846, LBs 1802-1803 (1468559239461651712.000000,1468559238881938688.000000)
Event Veto ['DataCorruption'], Fri Jul 15 05:07:19 2016 UTC-Fri Jul 15 05:07:20 2016 UTC (0.781 )  Run 303846, LB 1803 (1468559240700234240.000000,1468559239919273984.000000)
Event Veto ['DataCorruption'], Fri Jul 15 05:07:22 2016 UTC-Fri Jul 15 05:07:23 2016 UTC (1.411 )  Run 303846, LB 1803 (1468559243672918784.000000,1468559242261637888.000000)
Event Veto ['DataCorruption'], Fri Jul 15 05:07:24 2016 UTC-Fri Jul 15 05:07:26 2016 UTC (1.798 )  Run 303846, LB 1803 (1468559246024804096.000000,1468559244226502912.000000)
Event Veto ['DataCorruption'], Fri Jul 15 05:07:26 2016 UTC-Fri Jul 15 05:07:29 2016 UTC (2.707 )  Run 303846, LB 1803 (1468559249018493184.000000,1468559246311760640.000000)
Event Veto ['DataCorruption'], Fri Jul 15 05:07:29 2016 UTC-Fri Jul 15 05:07:29 2016 UTC (0.532 )  Run 303846, LB 1803 (1468559249583030272.000000,1468559249050722816.000000)
Event Veto ['DataCorruption'], Fri Jul 15 05:07:30 2016 UTC-Fri Jul 15 05:07:32 2016 UTC (2.088 )  Run 303846, LB 1803 (1468559252628113152.000000,1468559250539694080.000000)
Event Veto ['DataCorruption'], Fri Jul 15 05:07:33 2016 UTC-Fri Jul 15 05:07:35 2016 UTC (2.169 )  Run 303846, LB 1803 (1468559255876689920.000000,1468559253707292672.000000)
Event Veto ['DataCorruption'], Fri Jul 15 05:07:36 2016 UTC-Fri Jul 15 05:07:38 2016 UTC (1.859 )  Run 303846, LB 1803 (1468559258120676864.000000,1468559256261779456.000000)
Event Veto ['DataCorruption'], Fri Jul 15 05:07:38 2016 UTC-Fri Jul 15 05:07:40 2016 UTC (1.968 )  Run 303846, LB 1803 (1468559260215503872.000000,1468559258247752960.000000)
Event Veto ['DataCorruption'], Fri Jul 15 05:07:40 2016 UTC-Fri Jul 15 05:07:41 2016 UTC (1.406 )  Run 303846, LB 1803 (1468559261732728064.000000,1468559260326556672.000000)
Event Veto ['DataCorruption'], Fri Jul 15 05:07:41 2016 UTC-Fri Jul 15 05:07:44 2016 UTC (2.320 )  Run 303846, LB 1803 (1468559264140722432.000000,1468559261821195008.000000)
Event Veto ['DataCorruption'], Fri Jul 15 05:07:45 2016 UTC-Fri Jul 15 05:07:47 2016 UTC (1.872 )  Run 303846, LB 1803 (1468559267586540032.000000,1468559265714299904.000000)
Event Veto ['DataCorruption'], Fri Jul 15 05:07:47 2016 UTC-Fri Jul 15 05:07:48 2016 UTC (0.580 )  Run 303846, LB 1803 (1468559268295722240.000000,1468559267716011776.000000)
Event Veto ['DataCorruption'], Fri Jul 15 05:07:48 2016 UTC-Fri Jul 15 05:07:49 2016 UTC (1.096 )  Run 303846, LB 1803 (1468559269459263488.000000,1468559268362946048.000000)
Event Veto ['DataCorruption'], Fri Jul 15 05:07:49 2016 UTC-Fri Jul 15 05:07:50 2016 UTC (1.326 )  Run 303846, LB 1803 (1468559270912951552.000000,1468559269586530304.000000)
Event Veto ['DataCorruption'], Fri Jul 15 05:07:51 2016 UTC-Fri Jul 15 05:07:52 2016 UTC (1.077 )  Run 303846, LB 1803 (1468559272257132288.000000,1468559271180593408.000000)
Event Veto ['DataCorruption'], Fri Jul 15 05:07:52 2016 UTC-Fri Jul 15 05:07:53 2016 UTC (1.043 )  Run 303846, LB 1803 (1468559273446558464.000000,1468559272403413760.000000)
Event Veto ['DataCorruption'], Fri Jul 15 05:07:53 2016 UTC-Fri Jul 15 05:07:54 2016 UTC (0.866 )  Run 303846, LB 1803 (1468559274385176064.000000,1468559273518758912.000000)
Event Veto ['DataCorruption'], Fri Jul 15 05:07:54 2016 UTC-Fri Jul 15 05:07:55 2016 UTC (1.197 )  Run 303846, LB 1803 (1468559275597256448.000000,1468559274400145664.000000)
Event Veto ['DataCorruption'], Fri Jul 15 05:07:55 2016 UTC-Fri Jul 15 05:07:56 2016 UTC (0.961 )  Run 303846, LB 1803 (1468559276872638976.000000,1468559275912105728.000000)
Event Veto ['DataCorruption'], Fri Jul 15 05:07:56 2016 UTC-Fri Jul 15 05:07:57 2016 UTC (0.860 )  Run 303846, LB 1803 (1468559277818274816.000000,1468559276958250496.000000)
Event Veto ['DataCorruption'], Fri Jul 15 05:07:58 2016 UTC-Fri Jul 15 05:07:59 2016 UTC (1.564 )  Run 303846, LB 1803 (1468559279690837248.000000,1468559278126417920.000000)
Event Veto ['DataCorruption'], Fri Jul 15 05:07:59 2016 UTC-Fri Jul 15 05:08:00 2016 UTC (0.772 )  Run 303846, LB 1803 (1468559280668005376.000000,1468559279896373504.000000)
Event Veto ['DataCorruption'], Fri Jul 15 05:08:00 2016 UTC-Fri Jul 15 05:08:01 2016 UTC (0.947 )  Run 303846, LB 1803 (1468559281739486976.000000,1468559280792066816.000000)
Event Veto ['DataCorruption'], Fri Jul 15 05:08:03 2016 UTC-Fri Jul 15 05:08:04 2016 UTC (1.020 )  Run 303846, LB 1803 (1468559284619270912.000000,1468559283599305984.000000)
Event Veto ['DataCorruption'], Fri Jul 15 05:08:05 2016 UTC-Fri Jul 15 05:08:07 2016 UTC (2.572 )  Run 303846, LB 1803 (1468559287923745024.000000,1468559285352084992.000000)
Event Veto ['DataCorruption'], Fri Jul 15 05:08:08 2016 UTC-Fri Jul 15 05:08:08 2016 UTC (0.859 )  Run 303846, LB 1803 (1468559288910462464.000000,1468559288051747584.000000)
Event Veto ['DataCorruption'], Fri Jul 15 05:08:08 2016 UTC-Fri Jul 15 05:08:09 2016 UTC (0.629 )  Run 303846, LB 1803 (1468559289556757248.000000,1468559288927751680.000000)
Event Veto ['DataCorruption'], Fri Jul 15 05:08:11 2016 UTC-Fri Jul 15 05:08:11 2016 UTC (0.750 )  Run 303846, LB 1803 (1468559291911168256.000000,1468559291160730624.000000)
Event Veto ['DataCorruption'], Fri Jul 15 05:08:12 2016 UTC-Fri Jul 15 05:08:13 2016 UTC (1.540 )  Run 303846, LB 1803 (1468559293756931584.000000,1468559292216906752.000000)
Event Veto ['DataCorruption'], Fri Jul 15 05:08:14 2016 UTC-Fri Jul 15 05:08:14 2016 UTC (0.759 )  Run 303846, LB 1803 (1468559294989390336.000000,1468559294230782720.000000)
Event Veto ['DataCorruption'], Fri Jul 15 05:08:15 2016 UTC-Fri Jul 15 05:08:16 2016 UTC (0.843 )  Run 303846, LB 1803 (1468559296065330944.000000,1468559295222678016.000000)
Event Veto ['DataCorruption'], Fri Jul 15 05:08:16 2016 UTC-Fri Jul 15 05:08:16 2016 UTC (0.854 )  Run 303846, LB 1803 (1468559296936202496.000000,1468559296082163200.000000)
Event Veto ['DataCorruption'], Fri Jul 15 05:08:17 2016 UTC-Fri Jul 15 05:08:18 2016 UTC (1.005 )  Run 303846, LB 1803 (1468559298348736512.000000,1468559297343909120.000000)
Event Veto ['DataCorruption'], Fri Jul 15 05:08:20 2016 UTC-Fri Jul 15 05:08:22 2016 UTC (2.158 )  Run 303846, LB 1804 (1468559302333053184.000000,1468559300174752768.000000)
Event Veto ['DataCorruption'], Fri Jul 15 05:08:23 2016 UTC-Fri Jul 15 05:08:25 2016 UTC (1.740 )  Run 303846, LB 1804 (1468559305390263040.000000,1468559303650379776.000000)
Event Veto ['DataCorruption'], Fri Jul 15 05:08:28 2016 UTC-Fri Jul 15 05:08:29 2016 UTC (0.782 )  Run 303846, LB 1804 (1468559309523184384.000000,1468559308741392640.000000)
Event Veto ['DataCorruption'], Fri Jul 15 05:08:29 2016 UTC-Fri Jul 15 05:08:30 2016 UTC (0.660 )  Run 303846, LB 1804 (1468559310327447040.000000,1468559309667712000.000000)
Event Veto ['DataCorruption'], Fri Jul 15 05:08:30 2016 UTC-Fri Jul 15 05:08:32 2016 UTC (1.570 )  Run 303846, LB 1804 (1468559312098349056.000000,1468559310528717312.000000)
Event Veto ['DataCorruption'], Fri Jul 15 05:08:32 2016 UTC-Fri Jul 15 05:08:38 2016 UTC (5.592 )  Run 303846, LB 1804 (1468559318107073792.000000,1468559312515034624.000000)
Event Veto ['DataCorruption'], Fri Jul 15 05:08:38 2016 UTC-Fri Jul 15 05:08:39 2016 UTC (1.184 )  Run 303846, LB 1804 (1468559319603749888.000000,1468559318419507712.000000)
Event Veto ['DataCorruption'], Fri Jul 15 05:08:39 2016 UTC-Fri Jul 15 05:08:40 2016 UTC (0.827 )  Run 303846, LB 1804 (1468559320500584192.000000,1468559319673704192.000000)
Event Veto ['DataCorruption'], Fri Jul 15 05:08:40 2016 UTC-Fri Jul 15 05:08:41 2016 UTC (0.951 )  Run 303846, LB 1804 (1468559321558372608.000000,1468559320606968064.000000)
Event Veto ['DataCorruption'], Fri Jul 15 05:08:41 2016 UTC-Fri Jul 15 05:08:42 2016 UTC (1.257 )  Run 303846, LB 1804 (1468559322961369600.000000,1468559321704209408.000000)
Event Veto ['DataCorruption'], Fri Jul 15 05:08:43 2016 UTC-Fri Jul 15 05:08:43 2016 UTC (0.904 )  Run 303846, LB 1804 (1468559323993832448.000000,1468559323089873408.000000)
Event Veto ['DataCorruption'], Fri Jul 15 05:08:44 2016 UTC-Fri Jul 15 05:08:46 2016 UTC (2.482 )  Run 303846, LB 1804 (1468559326650618880.000000,1468559324168718592.000000)
Event Veto ['DataCorruption'], Fri Jul 15 05:08:47 2016 UTC-Fri Jul 15 05:08:48 2016 UTC (0.950 )  Run 303846, LB 1804 (1468559328852947456.000000,1468559327902702592.000000)
Event Veto ['DataCorruption'], Fri Jul 15 05:08:48 2016 UTC-Fri Jul 15 05:08:50 2016 UTC (1.524 )  Run 303846, LB 1804 (1468559330451194624.000000,1468559328927408640.000000)
Event Veto ['DataCorruption'], Fri Jul 15 05:08:50 2016 UTC-Fri Jul 15 05:08:51 2016 UTC (0.645 )  Run 303846, LB 1804 (1468559331209417728.000000,1468559330564414464.000000)
Event Veto ['DataCorruption'], Fri Jul 15 05:08:51 2016 UTC-Fri Jul 15 05:08:52 2016 UTC (0.707 )  Run 303846, LB 1804 (1468559332169828864.000000,1468559331462575616.000000)
Event Veto ['DataCorruption'], Fri Jul 15 05:08:52 2016 UTC-Fri Jul 15 05:08:55 2016 UTC (2.774 )  Run 303846, LB 1804 (1468559335348465920.000000,1468559332574696960.000000)
Event Veto ['DataCorruption'], Fri Jul 15 05:08:55 2016 UTC-Fri Jul 15 05:08:56 2016 UTC (0.762 )  Run 303846, LB 1804 (1468559336146842368.000000,1468559335384805376.000000)
Event Veto ['DataCorruption'], Fri Jul 15 05:08:56 2016 UTC-Fri Jul 15 05:08:58 2016 UTC (1.966 )  Run 303846, LB 1804 (1468559338155094528.000000,1468559336188838144.000000)
Event Veto ['DataCorruption'], Fri Jul 15 05:08:59 2016 UTC-Fri Jul 15 05:09:00 2016 UTC (0.696 )  Run 303846, LB 1804 (1468559340570887168.000000,1468559339874696704.000000)
Event Veto ['DataCorruption'], Fri Jul 15 05:09:01 2016 UTC-Fri Jul 15 05:09:02 2016 UTC (0.772 )  Run 303846, LB 1804 (1468559342378395392.000000,1468559341606390016.000000)
Event Veto ['DataCorruption'], Fri Jul 15 05:09:04 2016 UTC-Fri Jul 15 05:09:05 2016 UTC (1.362 )  Run 303846, LB 1804 (1468559345415209216.000000,1468559344053465856.000000)
Event Veto ['DataCorruption'], Fri Jul 15 05:09:05 2016 UTC-Fri Jul 15 05:09:08 2016 UTC (2.691 )  Run 303846, LB 1804 (1468559348344333056.000000,1468559345653057024.000000)
Event Veto ['DataCorruption'], Fri Jul 15 05:09:08 2016 UTC-Fri Jul 15 05:09:09 2016 UTC (1.321 )  Run 303846, LB 1804 (1468559349725722112.000000,1468559348404295424.000000)
Event Veto ['DataCorruption'], Fri Jul 15 05:09:09 2016 UTC-Fri Jul 15 05:09:10 2016 UTC (1.044 )  Run 303846, LB 1804 (1468559350779363840.000000,1468559349735682304.000000)
Event Veto ['DataCorruption'], Fri Jul 15 05:09:11 2016 UTC-Fri Jul 15 05:09:13 2016 UTC (1.900 )  Run 303846, LB 1804 (1468559353416644352.000000,1468559351516954112.000000)
Event Veto ['DataCorruption'], Fri Jul 15 05:09:13 2016 UTC-Fri Jul 15 05:09:15 2016 UTC (1.573 )  Run 303846, LB 1804 (1468559355408602624.000000,1468559353835652096.000000)
Event Veto ['DataCorruption'], Fri Jul 15 05:09:16 2016 UTC-Fri Jul 15 05:09:18 2016 UTC (2.807 )  Run 303846, LB 1804 (1468559358952333312.000000,1468559356145142016.000000)
Event Veto ['DataCorruption'], Fri Jul 15 05:09:19 2016 UTC-Fri Jul 15 05:09:19 2016 UTC (0.647 )  Run 303846, LBs 1804-1805 (1468559359955806464.000000,1468559359308366848.000000)
Event Veto ['DataCorruption'], Fri Jul 15 05:09:21 2016 UTC-Fri Jul 15 05:09:21 2016 UTC (0.567 )  Run 303846, LB 1805 (1468559361673830144.000000,1468559361107111680.000000)
Event Veto ['DataCorruption'], Fri Jul 15 05:09:22 2016 UTC-Fri Jul 15 05:09:23 2016 UTC (0.815 )  Run 303846, LB 1805 (1468559363319462656.000000,1468559362504777216.000000)
Event Veto ['DataCorruption'], Fri Jul 15 05:09:23 2016 UTC-Fri Jul 15 05:09:24 2016 UTC (0.893 )  Run 303846, LB 1805 (1468559364551051008.000000,1468559363658148096.000000)
Event Veto ['DataCorruption'], Fri Jul 15 05:09:24 2016 UTC-Fri Jul 15 05:09:25 2016 UTC (0.632 )  Run 303846, LB 1805 (1468559365232244480.000000,1468559364600627968.000000)
Event Veto ['DataCorruption'], Fri Jul 15 05:09:26 2016 UTC-Fri Jul 15 05:09:27 2016 UTC (1.188 )  Run 303846, LB 1805 (1468559367228277760.000000,1468559366040340992.000000)
Event Veto ['DataCorruption'], Fri Jul 15 05:09:28 2016 UTC-Fri Jul 15 05:09:29 2016 UTC (0.870 )  Run 303846, LB 1805 (1468559369226151936.000000,1468559368356225536.000000)
Event Veto ['DataCorruption'], Fri Jul 15 05:09:29 2016 UTC-Fri Jul 15 05:09:31 2016 UTC (1.917 )  Run 303846, LB 1805 (1468559371493681152.000000,1468559369576879104.000000)
Event Veto ['DataCorruption'], Fri Jul 15 05:09:31 2016 UTC-Fri Jul 15 05:09:33 2016 UTC (1.860 )  Run 303846, LB 1805 (1468559373415405824.000000,1468559371555381760.000000)
Event Veto ['DataCorruption'], Fri Jul 15 05:09:33 2016 UTC-Fri Jul 15 05:09:34 2016 UTC (0.698 )  Run 303846, LB 1805 (1468559374196233984.000000,1468559373497980416.000000)
Event Veto ['DataCorruption'], Fri Jul 15 05:09:34 2016 UTC-Fri Jul 15 05:09:34 2016 UTC (0.584 )  Run 303846, LB 1805 (1468559374961408768.000000,1468559374377202688.000000)
Event Veto ['DataCorruption'], Fri Jul 15 05:09:35 2016 UTC-Fri Jul 15 05:09:35 2016 UTC (0.580 )  Run 303846, LB 1805 (1468559375629177344.000000,1468559375049463296.000000)
Event Veto ['DataCorruption'], Fri Jul 15 05:09:35 2016 UTC-Fri Jul 15 05:09:38 2016 UTC (2.189 )  Run 303846, LB 1805 (1468559378166726400.000000,1468559375978084352.000000)
Event Veto ['DataCorruption'], Fri Jul 15 05:09:38 2016 UTC-Fri Jul 15 05:09:39 2016 UTC (0.962 )  Run 303846, LB 1805 (1468559379323323136.000000,1468559378361772288.000000)
Event Veto ['DataCorruption'], Fri Jul 15 05:09:39 2016 UTC-Fri Jul 15 05:09:41 2016 UTC (2.234 )  Run 303846, LB 1805 (1468559381575079680.000000,1468559379340972800.000000)
Event Veto ['DataCorruption'], Fri Jul 15 05:09:41 2016 UTC-Fri Jul 15 05:09:43 2016 UTC (1.749 )  Run 303846, LB 1805 (1468559383339069952.000000,1468559381589580544.000000)
Event Veto ['DataCorruption'], Fri Jul 15 05:09:43 2016 UTC-Fri Jul 15 05:09:44 2016 UTC (0.973 )  Run 303846, LB 1805 (1468559384411521792.000000,1468559383438609152.000000)
Event Veto ['DataCorruption'], Fri Jul 15 05:09:45 2016 UTC-Fri Jul 15 05:09:46 2016 UTC (0.879 )  Run 303846, LB 1805 (1468559386341219328.000000,1468559385462384640.000000)
Event Veto ['DataCorruption'], Fri Jul 15 05:09:47 2016 UTC-Fri Jul 15 05:09:49 2016 UTC (2.099 )  Run 303846, LB 1805 (1468559389150514944.000000,1468559387051835392.000000)
Event Veto ['DataCorruption'], Fri Jul 15 05:09:51 2016 UTC-Fri Jul 15 05:09:53 2016 UTC (2.005 )  Run 303846, LB 1805 (1468559393719891968.000000,1468559391714472192.000000)
Event Veto ['DataCorruption'], Fri Jul 15 05:09:54 2016 UTC-Fri Jul 15 05:09:55 2016 UTC (1.192 )  Run 303846, LB 1805 (1468559395574915328.000000,1468559394383176704.000000)
Event Veto ['DataCorruption'], Fri Jul 15 05:09:55 2016 UTC-Fri Jul 15 05:09:56 2016 UTC (0.702 )  Run 303846, LB 1805 (1468559396696884992.000000,1468559395994681088.000000)
Event Veto ['DataCorruption'], Fri Jul 15 05:09:56 2016 UTC-Fri Jul 15 05:09:59 2016 UTC (2.234 )  Run 303846, LB 1805 (1468559399023820032.000000,1468559396789771008.000000)
Event Veto ['DataCorruption'], Fri Jul 15 05:09:59 2016 UTC-Fri Jul 15 05:10:00 2016 UTC (1.387 )  Run 303846, LB 1805 (1468559400661011712.000000,1468559399273586432.000000)
Event Veto ['DataCorruption'], Fri Jul 15 05:10:01 2016 UTC-Fri Jul 15 05:10:03 2016 UTC (2.330 )  Run 303846, LB 1805 (1468559403891290880.000000,1468559401560912384.000000)
Event Veto ['DataCorruption'], Fri Jul 15 05:10:04 2016 UTC-Fri Jul 15 05:10:05 2016 UTC (1.050 )  Run 303846, LB 1805 (1468559405293938176.000000,1468559404243714560.000000)
Event Veto ['DataCorruption'], Fri Jul 15 05:10:05 2016 UTC-Fri Jul 15 05:10:05 2016 UTC (0.610 )  Run 303846, LB 1805 (1468559405910095872.000000,1468559405300561664.000000)
Event Veto ['DataCorruption'], Fri Jul 15 05:10:05 2016 UTC-Fri Jul 15 05:10:07 2016 UTC (1.200 )  Run 303846, LB 1805 (1468559407199475712.000000,1468559405999672064.000000)
Event Veto ['DataCorruption'], Fri Jul 15 05:10:07 2016 UTC-Fri Jul 15 05:10:08 2016 UTC (0.905 )  Run 303846, LB 1805 (1468559408417635584.000000,1468559407512761600.000000)
Event Veto ['DataCorruption'], Fri Jul 15 05:10:08 2016 UTC-Fri Jul 15 05:10:09 2016 UTC (0.813 )  Run 303846, LB 1805 (1468559409294736640.000000,1468559408481918720.000000)
Event Veto ['DataCorruption'], Fri Jul 15 05:10:09 2016 UTC-Fri Jul 15 05:10:10 2016 UTC (1.169 )  Run 303846, LB 1805 (1468559410606964224.000000,1468559409437671168.000000)
Event Veto ['DataCorruption'], Fri Jul 15 05:10:11 2016 UTC-Fri Jul 15 05:10:11 2016 UTC (0.540 )  Run 303846, LB 1805 (1468559411721107968.000000,1468559411181399808.000000)
Event Veto ['DataCorruption'], Fri Jul 15 05:10:11 2016 UTC-Fri Jul 15 05:10:12 2016 UTC (0.751 )  Run 303846, LB 1805 (1468559412614278144.000000,1468559411863281152.000000)
Event Veto ['DataCorruption'], Fri Jul 15 05:10:12 2016 UTC-Fri Jul 15 05:10:15 2016 UTC (2.800 )  Run 303846, LB 1805 (1468559415471094016.000000,1468559412671098112.000000)
Event Veto ['DataCorruption'], Fri Jul 15 05:10:15 2016 UTC-Fri Jul 15 05:10:17 2016 UTC (1.634 )  Run 303846, LB 1805 (1468559417234964736.000000,1468559415600819968.000000)
Event Veto ['DataCorruption'], Fri Jul 15 05:10:19 2016 UTC-Fri Jul 15 05:10:20 2016 UTC (0.634 )  Run 303846, LBs 1805-1806 (1468559420115315200.000000,1468559419481046272.000000)
Event Veto ['DataCorruption'], Fri Jul 15 05:10:20 2016 UTC-Fri Jul 15 05:10:21 2016 UTC (1.221 )  Run 303846, LB 1806 (1468559421889628160.000000,1468559420668982528.000000)
Event Veto ['DataCorruption'], Fri Jul 15 05:10:22 2016 UTC-Fri Jul 15 05:10:23 2016 UTC (0.564 )  Run 303846, LB 1806 (1468559423446094080.000000,1468559422882440960.000000)
Event Veto ['DataCorruption'], Fri Jul 15 05:10:24 2016 UTC-Fri Jul 15 05:10:26 2016 UTC (2.311 )  Run 303846, LB 1806 (1468559426828726016.000000,1468559424517618176.000000)
Event Veto ['DataCorruption'], Fri Jul 15 05:10:27 2016 UTC-Fri Jul 15 05:10:27 2016 UTC (0.747 )  Run 303846, LB 1806 (1468559427762784768.000000,1468559427015402496.000000)
Event Veto ['DataCorruption'], Fri Jul 15 05:10:27 2016 UTC-Fri Jul 15 05:10:28 2016 UTC (0.933 )  Run 303846, LB 1806 (1468559428817038080.000000,1468559427883574784.000000)
Event Veto ['DataCorruption'], Fri Jul 15 05:10:29 2016 UTC-Fri Jul 15 05:10:29 2016 UTC (0.708 )  Run 303846, LB 1806 (1468559429987952640.000000,1468559429280117760.000000)
Event Veto ['DataCorruption'], Fri Jul 15 05:10:31 2016 UTC-Fri Jul 15 05:10:31 2016 UTC (0.687 )  Run 303846, LB 1806 (1468559431905134592.000000,1468559431218336000.000000)
Event Veto ['DataCorruption'], Fri Jul 15 05:10:32 2016 UTC-Fri Jul 15 05:10:33 2016 UTC (0.853 )  Run 303846, LB 1806 (1468559433231600896.000000,1468559432378970112.000000)
Event Veto ['DataCorruption'], Fri Jul 15 05:10:33 2016 UTC-Fri Jul 15 05:10:33 2016 UTC (0.580 )  Run 303846, LB 1806 (1468559433991121664.000000,1468559433411403776.000000)
Event Veto ['DataCorruption'], Fri Jul 15 05:10:34 2016 UTC-Fri Jul 15 05:10:35 2016 UTC (0.916 )  Run 303846, LB 1806 (1468559435026913536.000000,1468559434110883072.000000)
Event Veto ['DataCorruption'], Fri Jul 15 05:10:35 2016 UTC-Fri Jul 15 05:10:36 2016 UTC (1.251 )  Run 303846, LB 1806 (1468559436708539136.000000,1468559435457837824.000000)
Event Veto ['DataCorruption'], Fri Jul 15 05:10:37 2016 UTC-Fri Jul 15 05:10:39 2016 UTC (1.793 )  Run 303846, LB 1806 (1468559439314278400.000000,1468559437520788736.000000)
Event Veto ['DataCorruption'], Fri Jul 15 05:10:41 2016 UTC-Fri Jul 15 05:10:42 2016 UTC (1.060 )  Run 303846, LB 1806 (1468559442434362624.000000,1468559441374163200.000000)
Event Veto ['DataCorruption'], Fri Jul 15 05:10:42 2016 UTC-Fri Jul 15 05:10:43 2016 UTC (1.024 )  Run 303846, LB 1806 (1468559443762922240.000000,1468559442738426624.000000)
Event Veto ['DataCorruption'], Fri Jul 15 05:10:43 2016 UTC-Fri Jul 15 05:10:44 2016 UTC (0.737 )  Run 303846, LB 1806 (1468559444572603136.000000,1468559443835248896.000000)
Event Veto ['DataCorruption'], Fri Jul 15 05:10:45 2016 UTC-Fri Jul 15 05:10:48 2016 UTC (3.128 )  Run 303846, LB 1806 (1468559448473708544.000000,1468559445345321728.000000)
Found a total of 243 noisy periods, covering a total of 2.91 seconds
Found a total of 152 corruption periods, covering a total of 876.93 seconds
Lumi loss due to noise-bursts: 20.09 nb-1 out of 551635.51 nb-1 (0.04 per-mil)
Lumi loss due to corruption: 4839.38 nb-1 out of 551635.51 nb-1 (8.77 per-mil)
